﻿


EVENT   53
 PAGE   1
  281(1)
  250(bytes(0x04,0x08,0x6f,0x3a,0x0c,0x52,0x50,0x47,0x3a,0x3a,0x53,0x45,0x08,0x3a,0x0a,0x40,0x6e,0x61,0x6d,0x65,0x49,0x22,0x09,0x4d,0x6f,0x76,0x65,0x06,0x3a,0x06,0x45,0x54,0x3a,0x0b,0x40,0x70,0x69,0x74,0x63,0x68,0x69,0x69,0x3a,0x0c,0x40,0x76,0x6f,0x6c,0x75,0x6d,0x65,0x69,0x55))
  TeleportPlayer(0,337,92,41,0,0)
  0()



EVENT   54
 PAGE   1
  281(1)
  250(bytes(0x04,0x08,0x6f,0x3a,0x0c,0x52,0x50,0x47,0x3a,0x3a,0x53,0x45,0x08,0x3a,0x0a,0x40,0x6e,0x61,0x6d,0x65,0x49,0x22,0x09,0x4d,0x6f,0x76,0x65,0x06,0x3a,0x06,0x45,0x54,0x3a,0x0b,0x40,0x70,0x69,0x74,0x63,0x68,0x69,0x69,0x3a,0x0c,0x40,0x76,0x6f,0x6c,0x75,0x6d,0x65,0x69,0x55))
  TeleportPlayer(0,337,100,45,0,0)
  0()



EVENT   55
 PAGE   1
  250(bytes(0x04,0x08,0x6f,0x3a,0x0c,0x52,0x50,0x47,0x3a,0x3a,0x53,0x45,0x08,0x3a,0x0a,0x40,0x6e,0x61,0x6d,0x65,0x49,0x22,0x09,0x4d,0x6f,0x76,0x65,0x06,0x3a,0x06,0x45,0x54,0x3a,0x0b,0x40,0x70,0x69,0x74,0x63,0x68,0x69,0x69,0x3a,0x0c,0x40,0x76,0x6f,0x6c,0x75,0x6d,0x65,0x69,0x55))
  TeleportPlayer(0,338,162,36,2,0)
  0()



EVENT   56
 PAGE   1
  250(bytes(0x04,0x08,0x6f,0x3a,0x0c,0x52,0x50,0x47,0x3a,0x3a,0x53,0x45,0x08,0x3a,0x0a,0x40,0x6e,0x61,0x6d,0x65,0x49,0x22,0x09,0x4d,0x6f,0x76,0x65,0x06,0x3a,0x06,0x45,0x54,0x3a,0x0b,0x40,0x70,0x69,0x74,0x63,0x68,0x69,0x69,0x3a,0x0c,0x40,0x76,0x6f,0x6c,0x75,0x6d,0x65,0x69,0x55))
  TeleportPlayer(0,338,128,35,2,0)
  0()



EVENT   57
 PAGE   1
  281(1)
  250(bytes(0x04,0x08,0x6f,0x3a,0x0c,0x52,0x50,0x47,0x3a,0x3a,0x53,0x45,0x08,0x3a,0x0a,0x40,0x6e,0x61,0x6d,0x65,0x49,0x22,0x09,0x4d,0x6f,0x76,0x65,0x06,0x3a,0x06,0x45,0x54,0x3a,0x0b,0x40,0x70,0x69,0x74,0x63,0x68,0x69,0x69,0x3a,0x0c,0x40,0x76,0x6f,0x6c,0x75,0x6d,0x65,0x69,0x55))
  TeleportPlayer(0,337,79,33,0,0)
  0()



EVENT   58
 PAGE   1
  250(bytes(0x04,0x08,0x6f,0x3a,0x0c,0x52,0x50,0x47,0x3a,0x3a,0x53,0x45,0x08,0x3a,0x0a,0x40,0x6e,0x61,0x6d,0x65,0x49,0x22,0x09,0x4d,0x6f,0x76,0x65,0x06,0x3a,0x06,0x45,0x54,0x3a,0x0b,0x40,0x70,0x69,0x74,0x63,0x68,0x69,0x69,0x3a,0x0c,0x40,0x76,0x6f,0x6c,0x75,0x6d,0x65,0x69,0x55))
  TeleportPlayer(0,338,152,10,2,0)
  0()



EVENT   59
 PAGE   1
  250(bytes(0x04,0x08,0x6f,0x3a,0x0c,0x52,0x50,0x47,0x3a,0x3a,0x53,0x45,0x08,0x3a,0x0a,0x40,0x6e,0x61,0x6d,0x65,0x49,0x22,0x09,0x4d,0x6f,0x76,0x65,0x06,0x3a,0x06,0x45,0x54,0x3a,0x0b,0x40,0x70,0x69,0x74,0x63,0x68,0x69,0x69,0x3a,0x0c,0x40,0x76,0x6f,0x6c,0x75,0x6d,0x65,0x69,0x55))
  TeleportPlayer(0,338,122,9,2,0)
  0()



EVENT   112
 PAGE   1
  ShowMessageFace("",0,0,2,1)
  ShowMessage("\\n<Mermaid>普通に暮らしているだけでお金がもらえるなんて、お得よね～♪ お金持ちって、ステキ～♪")
  355("actor_label_jump")
  EndEventProcessing()
  DefineLabel("143")
  ShowMessageFace("eva_fc1",0,0,2,2)
  ShowMessage("\\n<Eva>私も、この仕事する！ たまには胸を張って働かないとね……")
  ShowMessageFace("",0,0,2,3)
  ShowMessage("\\n<Mermaid>仕事じゃないと思うけど……")
  EndEventProcessing()
  0()



EVENT   113
 PAGE   1
  ShowMessageFace("",0,0,2,1)
  ShowMessage("\\n<Rich Youth>とうとう築いたぞ、人魚のハーレムを！ これが長年の夢だったんだ……！")
  ShowMessageFace("",0,0,2,2)
  ShowMessage("\\n<Rich Youth>……でも、僕がなんだか家内カーストの最下層みたいなんだけど。")
  355("actor_label_jump")
  EndEventProcessing()
  DefineLabel("85")
  ShowMessageFace("highslag_fc1",0,0,2,3)
  ShowMessage("\\n<Elizabeth>人間の分際で、魔物を思い通りに出来ると思っているの？")
  EndEventProcessing()
  DefineLabel("116")
  ShowMessageFace("iso_fc1",0,0,2,4)
  ShowMessage("\\n<Isabelle>食べられないだけマシじゃない。")
  EndEventProcessing()
  0()



EVENT   114
 PAGE   1
  ShowMessageFace("",0,0,2,1)
  ShowMessage("\\n<Mermaid>旦那様～！　お酒注いでよ～！")
  355("actor_label_jump")
  EndEventProcessing()
  DefineLabel("75")
  ShowMessageFace("hituzi_fc1",3,0,2,2)
  ShowMessage("\\n<Mary>こっちにも注ぐのら～！")
  ShowMessageFace("",0,0,2,3)
  ShowMessage("\\n<Rich Youth>はいはい……って、あんた誰だよ！？")
  EndEventProcessing()
  0()



EVENT   115
 PAGE   1
  ShowMessageFace("",0,0,2,1)
  ShowMessage("\\n<Mermaid>旦那様、口紅が切れたんで買ってきて下さる～？")
  355("actor_label_jump")
  EndEventProcessing()
  DefineLabel("113")
  ShowMessageFace("lamia_fc1",0,0,2,2)
  ShowMessage("\\n<Anastasia>もはや奴隷ね、人間の方が……")
  EndEventProcessing()
  0()



EVENT   116
 PAGE   1
  ShowMessageFace("",0,0,2,1)
  ShowMessage("\\n<Mermaid>旦那様、リンゴ剥いて～！")
  355("actor_label_jump")
  EndEventProcessing()
  DefineLabel("79")
  ShowMessageFace("nuruko_fc1",0,0,2,2)
  ShowMessage("\\n<Nuruko>Kyuu! Kyuu!")
  EndEventProcessing()
  DefineLabel("111")
  ShowMessageFace("suika_fc1",0,0,2,3)
  ShowMessage("\\n<Melon>スイカもあるよ♪")
  EndEventProcessing()
  0()



EVENT   117
 PAGE   1
  ShowMessageFace("",0,0,2,1)
  ShowMessage("\\n<Mermaid>旦那様、なんだか魚臭い……")
  355("actor_label_jump")
  EndEventProcessing()
  DefineLabel("92")
  ShowMessageFace("eater_fc1",3,0,2,2)
  ShowMessage("\\n<Eater>サカナの匂い……おいしそう……")
  EndEventProcessing()
  DefineLabel("118")
  ShowMessageFace("meia_fc1",2,0,2,3)
  ShowMessage("\\n<Meia>人魚と遊びすぎですね、ふふふっ……")
  EndEventProcessing()
  0()



EVENT   122
 PAGE   1
  ShowMessageFace("",0,0,2,1)
  ShowMessage("\\n<Dapper Gentleman>私達は、グランドノアから避難してきました。 グランゴルド軍の手は、まだ首都までは及んでいませんが……")
  ShowMessageFace("",0,0,2,2)
  ShowMessage("\\n<Dapper Gentleman>前線はじりじりと押し下げられ、防戦一方。 このままでは、希望は持てません……")
  355("actor_label_jump")
  EndEventProcessing()
  DefineLabel("104")
  ShowMessageFace("kumo_fc1",0,0,2,3)
  ShowMessage("\\n<Rachnee>戦場のどさくさに紛れて、兵士を獲物にできないかしら……")
  EndEventProcessing()
  DefineLabel("128")
  ShowMessageFace("kaniloid_fc1",0,0,2,4)
  ShowMessage("\\n<Jillian>兵器の本分、見せる時が近付いているのかもな……")
  EndEventProcessing()
  0()



EVENT   123
 PAGE   1
  ShowMessageFace("",0,0,2,1)
  ShowMessage("\\n<Well-Dressed Woman>グランゴルド軍は、人間の軍隊ではありません。 アリ娘や魔導人形で構成されているのです。")
  ShowMessageFace("",0,0,2,2)
  ShowMessage("\\n<Dapper Gentleman>その戦力の前では、三国の精鋭が集まった同盟軍といえども…… グランゴルドが全世界を席巻するのは時間の問題でしょう。")
  355("actor_label_jump")
  EndEventProcessing()
  DefineLabel("149")
  ShowMessageFace("lamp_fc1",0,0,2,3)
  ShowMessage("\\n<Jeannie>異形の軍隊を率いているとは……人間の国とは思えませんね。 高位の妖魔と契約でも交わしたのでしょうか？")
  EndEventProcessing()
  DefineLabel("529")
  ShowMessageFace("sara_fc1",4,0,2,4)
  ShowMessage("\\n<Sara>グランゴルドに何が起きたのか…… その真実を探らないと、戦争は終わらない気がするわ。")
  EndEventProcessing()
  0()



EVENT   124
 PAGE   1
  ShowMessageFace("",0,0,2,1)
  ShowMessage("\\n<Well-Dressed Girl>お父様もお母様も根性なしよ！ 祖国を見捨てて、避難するなんて……！")
  ShowMessageFace("",0,0,2,2)
  ShowMessage("\\n<Well-Dressed Girl>グランドノアが侵略されたら、私はあそこへ戻るわ。 祖国解放のため、レジスタンスとして戦うのよ！")
  355("actor_label_jump")
  EndEventProcessing()
  DefineLabel("93")
  ShowMessageFace("liot_fc1",4,0,2,3)
  ShowMessage("\\n<Riot>なんとも勇ましい……それでこそ高貴なる者だ。")
  EndEventProcessing()
  DefineLabel("533")
  ShowMessageFace("grandnoa_fc1",0,0,2,4)
  ShowMessage("\\n<Queen of Grand Noah>そのような事はさせません。 必ずグランゴルドを打ち破り、戦争を終結させます……")
  EndEventProcessing()
  0()



EVENT   264
 PAGE   1
  ShowMessageFace("",0,0,2,1)
  ShowMessage("\\n<Dog>わん！　わん！")
  355("actor_label_jump")
  EndEventProcessing()
  DefineLabel("60")
  ShowMessageFace("dog_fc1",4,0,2,2)
  ShowMessage("\\n<Pochi>わおーん！")
  EndEventProcessing()
  0()



EVENT   282
 PAGE   1
  250(bytes(0x04,0x08,0x6f,0x3a,0x0c,0x52,0x50,0x47,0x3a,0x3a,0x53,0x45,0x08,0x3a,0x0a,0x40,0x6e,0x61,0x6d,0x65,0x49,0x22,0x0a,0x49,0x74,0x65,0x6d,0x31,0x06,0x3a,0x06,0x45,0x54,0x3a,0x0b,0x40,0x70,0x69,0x74,0x63,0x68,0x69,0x69,0x3a,0x0c,0x40,0x76,0x6f,0x6c,0x75,0x6d,0x65,0x69,0x55))
  ChangeSelfSwitch("A",0)
  ChangeInventory_Item(171,0,0,1)
  0()
 PAGE   2
  // condition: self-switch A is ON
  0()



EVENT   283
 PAGE   1
  250(bytes(0x04,0x08,0x6f,0x3a,0x0c,0x52,0x50,0x47,0x3a,0x3a,0x53,0x45,0x08,0x3a,0x0a,0x40,0x6e,0x61,0x6d,0x65,0x49,0x22,0x0a,0x49,0x74,0x65,0x6d,0x31,0x06,0x3a,0x06,0x45,0x54,0x3a,0x0b,0x40,0x70,0x69,0x74,0x63,0x68,0x69,0x69,0x3a,0x0c,0x40,0x76,0x6f,0x6c,0x75,0x6d,0x65,0x69,0x55))
  ChangeSelfSwitch("A",0)
  ChangeInventoryArmor(262,0,0,1,false)
  0()
 PAGE   2
  // condition: self-switch A is ON
  0()



EVENT   284
 PAGE   1
  250(bytes(0x04,0x08,0x6f,0x3a,0x0c,0x52,0x50,0x47,0x3a,0x3a,0x53,0x45,0x08,0x3a,0x0a,0x40,0x6e,0x61,0x6d,0x65,0x49,0x22,0x0a,0x49,0x74,0x65,0x6d,0x31,0x06,0x3a,0x06,0x45,0x54,0x3a,0x0b,0x40,0x70,0x69,0x74,0x63,0x68,0x69,0x69,0x3a,0x0c,0x40,0x76,0x6f,0x6c,0x75,0x6d,0x65,0x69,0x55))
  ChangeSelfSwitch("A",0)
  ChangeInventory_Item(52,0,0,1)
  0()
 PAGE   2
  // condition: self-switch A is ON
  0()



EVENT   286
 PAGE   1
  250(bytes(0x04,0x08,0x6f,0x3a,0x0c,0x52,0x50,0x47,0x3a,0x3a,0x53,0x45,0x08,0x3a,0x0a,0x40,0x6e,0x61,0x6d,0x65,0x49,0x22,0x0a,0x49,0x74,0x65,0x6d,0x31,0x06,0x3a,0x06,0x45,0x54,0x3a,0x0b,0x40,0x70,0x69,0x74,0x63,0x68,0x69,0x69,0x3a,0x0c,0x40,0x76,0x6f,0x6c,0x75,0x6d,0x65,0x69,0x55))
  ChangeSelfSwitch("A",0)
  ChangeInventory_Item(382,0,0,1)
  0()
 PAGE   2
  // condition: self-switch A is ON
  0()



EVENT   1
 PAGE   1
  ShowMessageFace("",0,0,2,1)
  ShowMessage("\\n<Priest>Welcome to this Shabby Chapel. What can I do for you?")
  ShowChoices(strings("Pray","Never mind"),2)
  IfPlayerPicksChoice(0,null)
   ChangeVariable(1002,1002,0,0,16)
   ShowMessageFace("",0,0,2,2)
   ShowMessage("\\n<Priest>Well then, let us pray to Ilias. ...there, you should feel a bond drawing you to this place.")
   ShowMessageFace("",0,0,2,3)
   ShowMessage("\\n<Priest>If something were to happen to you on your journey, the bond should lead you back here. May Ilias watch over you...")
   0()
  IfPlayerPicksChoice(1,null)
   ShowMessageFace("",0,0,2,4)
   ShowMessage("\\n<Priest>May Ilias watch over you...")
   0()
  404()
  0()



EVENT   2
 PAGE   1
  ShowMessageFace("",0,0,2,1)
  ShowMessage("\\n<Hooligan>俺・ミーツ・金！ ギャンブルの神様、きっとあなたを信じてる！")
  355("actor_label_jump")
  EndEventProcessing()
  DefineLabel("122")
  ShowMessageFace("sisterlamia_fc1",2,0,2,2)
  ShowMessage("\\n<Sofia>そんな神様はいません……")
  EndEventProcessing()
  0()



EVENT   4
 PAGE   1
  ShowMessageFace("",0,0,2,1)
  ShowMessage("\\n<Merchant>次のスロットこそ、頼むよ…… 店の金までつぎ込んじまったんだから……")
  355("actor_label_jump")
  EndEventProcessing()
  DefineLabel("121")
  ShowMessageFace("page65537_fc1",2,0,2,2)
  ShowMessage("\\n<Cornelia>幸運は己の手で掴むもの、神頼みに意味はありません。 さあ、スロットを回しなさい！")
  EndEventProcessing()
  0()



EVENT   6
 PAGE   1
  250(bytes(0x04,0x08,0x6f,0x3a,0x0c,0x52,0x50,0x47,0x3a,0x3a,0x53,0x45,0x08,0x3a,0x0a,0x40,0x6e,0x61,0x6d,0x65,0x49,0x22,0x0a,0x49,0x74,0x65,0x6d,0x31,0x06,0x3a,0x06,0x45,0x54,0x3a,0x0b,0x40,0x70,0x69,0x74,0x63,0x68,0x69,0x69,0x3a,0x0c,0x40,0x76,0x6f,0x6c,0x75,0x6d,0x65,0x69,0x55))
  ChangeSelfSwitch("A",0)
  ChangeInventory_Item(4,0,0,1)
  0()
 PAGE   2
  // condition: self-switch A is ON
  0()



EVENT   7
 PAGE   1
  281(1)
  250(bytes(0x04,0x08,0x6f,0x3a,0x0c,0x52,0x50,0x47,0x3a,0x3a,0x53,0x45,0x08,0x3a,0x0a,0x40,0x6e,0x61,0x6d,0x65,0x49,0x22,0x09,0x4d,0x6f,0x76,0x65,0x06,0x3a,0x06,0x45,0x54,0x3a,0x0b,0x40,0x70,0x69,0x74,0x63,0x68,0x69,0x69,0x3a,0x0c,0x40,0x76,0x6f,0x6c,0x75,0x6d,0x65,0x69,0x55))
  TeleportPlayer(0,337,12,12,0,0)
  0()



EVENT   8
 PAGE   1
  ShowMessageFace("",0,0,2,1)
  ShowMessage("\\n<Mage>古文書によれば……精霊は、その力を人間に分け与えられるのだとか。 精霊の力を手に入れるのが、私の夢なの。")
  355("actor_label_jump")
  EndEventProcessing()
  DefineLabel("12")
  ShowMessageFace("sylph_fc1",0,0,2,2)
  ShowMessage("\\n<Sylph>精霊に認められるのって、結構大変だよ？ あたしはボコられたけど……")
  EndEventProcessing()
  DefineLabel("13")
  ShowMessageFace("gnome_fc1",0,0,2,3)
  ShowMessage("\\n<Gnome>……………………")
  EndEventProcessing()
  DefineLabel("136")
  ShowMessageFace("elf_fc1",0,0,2,4)
  ShowMessage("\\n<Claudia>そう簡単に精霊の力を手に入れる事はできないわ。 頭はゆるゆるでも、打ち勝つのは大変なんだから……")
  EndEventProcessing()
  0()



EVENT   9
 PAGE   1
  ShowMessageFace("",0,0,2,1)
  ShowMessage("\\n<Thief>ここから北に行くと、サファル砂漠遺跡だ。 土人形を連れ、帽子を被った少女がちょろちょろしてるという噂がある。")
  ShowMessageFace("",0,0,2,2)
  ShowMessage("\\n<Thief>その少女こそ、土の精霊ノームだと俺は踏んでいる。 お近づきになって、土の力を分けてほしいところだぜ……")
  355("actor_label_jump")
  EndEventProcessing()
  DefineLabel("13")
  ShowMessageFace("gnome_fc1",0,0,2,3)
  ShowMessage("\\n<Gnome>……………………")
  ShowMessageFace("",0,0,2,4)
  ShowMessage("\\n<Thief>ううっ！　先を越されてしまったか！")
  EndEventProcessing()
  0()



EVENT   10
 PAGE   1
  250(bytes(0x04,0x08,0x6f,0x3a,0x0c,0x52,0x50,0x47,0x3a,0x3a,0x53,0x45,0x08,0x3a,0x0a,0x40,0x6e,0x61,0x6d,0x65,0x49,0x22,0x0a,0x49,0x74,0x65,0x6d,0x31,0x06,0x3a,0x06,0x45,0x54,0x3a,0x0b,0x40,0x70,0x69,0x74,0x63,0x68,0x69,0x69,0x3a,0x0c,0x40,0x76,0x6f,0x6c,0x75,0x6d,0x65,0x69,0x55))
  ChangeSelfSwitch("A",0)
  ChangeInventory_Item(7,0,0,1)
  0()
 PAGE   2
  // condition: self-switch A is ON
  0()



EVENT   11
 PAGE   1
  ShowMessageFace("",0,0,2,1)
  ShowMessage("\\n<Female Adventurer>今晩はカジノで過ごすわよ～！ この時をずっと待ってたんだから！")
  355("actor_label_jump")
  EndEventProcessing()
  DefineLabel("121")
  ShowMessageFace("page65537_fc1",2,0,2,2)
  ShowMessage("\\n<Cornelia>テンションが上がりますね…… さあ、スロットを回しましょう！")
  EndEventProcessing()
  0()



EVENT   12
 PAGE   1
  ShowMessageFace("",0,0,2,1)
  ShowMessage("\\n<Traveling Warrior>狭いというか、何というか…… やたらに込み入った宿だな……")
  355("actor_label_jump")
  EndEventProcessing()
  DefineLabel("98")
  ShowMessageFace("minikani_fc1",2,0,2,2)
  ShowMessage("\\n<Amy>カニ歩きだと、大変……足ぶつけたよ～！")
  EndEventProcessing()
  DefineLabel("117")
  ShowMessageFace("ankou_fc1",0,0,2,3)
  ShowMessage("\\n<Anko>せまい……")
  EndEventProcessing()
  0()



EVENT   13
 PAGE   1
  ShowMessageFace("",0,0,2,1)
  ShowMessage("\\n<Swordsman>砂漠の魔物は強いな…… 毒まで持ってて、毒消し草が飛んでいくぜ。")
  355("actor_label_jump")
  EndEventProcessing()
  DefineLabel("146")
  ShowMessageFace("sasori_fc1",0,0,2,2)
  ShowMessage("\\n<Scarlet>毒消し草が、よく売れていいじゃない。 地域経済に貢献してるのよ……")
  EndEventProcessing()
  DefineLabel("151")
  ShowMessageFace("kobura_fc1",1,0,2,3)
  ShowMessage("\\n<Lila>過酷な環境で生きているのだから、強くて当然よ……")
  EndEventProcessing()
  0()



EVENT   14
 PAGE   1
  ShowMessageFace("",0,0,2,1)
  ShowMessage("\\n<Priest>回復役は、1人じゃ足りないかもしれませんね…… 強敵との戦いになると、回復が追い付きません。")
  355("actor_label_jump")
  EndEventProcessing()
  DefineLabel("58")
  ShowMessageFace("inp_fc2",0,0,2,2)
  ShowMessage("\\n<Remi>が、がんばるね……")
  EndEventProcessing()
  DefineLabel("118")
  ShowMessageFace("meia_fc1",0,0,2,3)
  ShowMessage("\\n<Meia>回復なら、ぜひ私にお任せ下さい。")
  EndEventProcessing()
  0()



EVENT   15
 PAGE   1
  ShowMessageFace("",0,0,2,1)
  ShowMessage("\\n<Woman>ほいきた、10Gだよっ！ 泊まるか泊まらないか、どうするんだい？\\$")
  ShowChoices(strings("Yes","No"),2)
  IfPlayerPicksChoice(0,null)
   If(7,10,0)
    125(1,0,10)
    221()
    249(bytes(0x04,0x08,0x6f,0x3a,0x0c,0x52,0x50,0x47,0x3a,0x3a,0x4d,0x45,0x08,0x3a,0x0a,0x40,0x6e,0x61,0x6d,0x65,0x49,0x22,0x08,0x49,0x6e,0x6e,0x06,0x3a,0x06,0x45,0x54,0x3a,0x0b,0x40,0x70,0x69,0x74,0x63,0x68,0x69,0x69,0x3a,0x0c,0x40,0x76,0x6f,0x6c,0x75,0x6d,0x65,0x69,0x69))
    Wait(150)
    314(0,0)
    222()
    0()
   Else()
    ShowMessageFace("",0,0,2,2)
    ShowMessage("\\n<Woman>おっと、お金が足りないねぇ。")
    0()
   EndIf()
   0()
  IfPlayerPicksChoice(1,null)
   0()
  404()
  0()



EVENT   16
 PAGE   1
  281(1)
  250(bytes(0x04,0x08,0x6f,0x3a,0x0c,0x52,0x50,0x47,0x3a,0x3a,0x53,0x45,0x08,0x3a,0x0a,0x40,0x6e,0x61,0x6d,0x65,0x49,0x22,0x09,0x4d,0x6f,0x76,0x65,0x06,0x3a,0x06,0x45,0x54,0x3a,0x0b,0x40,0x70,0x69,0x74,0x63,0x68,0x69,0x69,0x3a,0x0c,0x40,0x76,0x6f,0x6c,0x75,0x6d,0x65,0x69,0x55))
  TeleportPlayer(0,337,66,44,0,0)
  0()



EVENT   17
 PAGE   1
  281(1)
  250(bytes(0x04,0x08,0x6f,0x3a,0x0c,0x52,0x50,0x47,0x3a,0x3a,0x53,0x45,0x08,0x3a,0x0a,0x40,0x6e,0x61,0x6d,0x65,0x49,0x22,0x09,0x4d,0x6f,0x76,0x65,0x06,0x3a,0x06,0x45,0x54,0x3a,0x0b,0x40,0x70,0x69,0x74,0x63,0x68,0x69,0x69,0x3a,0x0c,0x40,0x76,0x6f,0x6c,0x75,0x6d,0x65,0x69,0x55))
  TeleportPlayer(0,337,67,44,0,0)
  0()



EVENT   18
 PAGE   1
  ShowMessageFace("",0,0,2,1)
  ShowMessage("\\n<Black Mage>状態異常技は、ちゃんと活用してるかい……？ 種族によって、とってもかかりやすいものがあるんだよ。")
  ShowMessageFace("",0,0,2,2)
  ShowMessage("\\n<Black Mage>力押しで、どうにかならなくても…… 状態異常技を活用すれば、1ランク上の相手だって倒せるもんだよ。")
  355("actor_label_jump")
  EndEventProcessing()
  DefineLabel("59")
  ShowMessageFace("mdg_fc1",0,0,2,3)
  ShowMessage("\\n<Ragora>私の叫び声は、とっても役に立つわよ……")
  EndEventProcessing()
  DefineLabel("100")
  ShowMessageFace("rahure_fc1",1,0,2,4)
  ShowMessage("\\n<Fleesia>私の芳香に任せてよね。 状態異常はお手の物なんだから♪")
  EndEventProcessing()
  0()



EVENT   19
 PAGE   1
  ShowMessageFace("",0,0,2,1)
  ShowMessage("\\n<Thief>グランドノアに行く定番ルートは…… サン・イリア北東の洞窟から、港町マールポートへ。")
  ShowMessageFace("",0,0,2,2)
  ShowMessage("\\n<Thief>そこから北への船に乗って、ノア地方に辿り着くというものだ。 しかし現在、マールポートへの洞窟は封鎖されている……")
  ShowMessageFace("",0,0,2,3)
  ShowMessage("\\n<Thief>また、ノア地方への船も出ていないのではないか？ 戦争のせいで、交通がずいぶんと不便になったな……")
  0()



EVENT   20
 PAGE   1
  ShowMessageFace("",0,0,2,1)
  ShowMessage("\\n<Traveling Priest>シルフやらノームといった精霊の祭りが、 近頃は民の心を掴んでいるようです。")
  ShowMessageFace("",0,0,2,2)
  ShowMessage("\\n<Traveling Priest>我々も、一概にそれを否定するのではなく…… むしろ教会の儀式に取り入れていくのはどうでしょう。")
  355("actor_label_jump")
  EndEventProcessing()
  DefineLabel("531")
  ShowMessageFace("saniria_fc2",0,0,2,3)
  ShowMessage("\\n<King of San Ilia>神なき世では、教会も柔軟にならねば先はない……か。")
  EndEventProcessing()
  0()



EVENT   21
 PAGE   1
  250(bytes(0x04,0x08,0x6f,0x3a,0x0c,0x52,0x50,0x47,0x3a,0x3a,0x53,0x45,0x08,0x3a,0x0a,0x40,0x6e,0x61,0x6d,0x65,0x49,0x22,0x0a,0x49,0x74,0x65,0x6d,0x31,0x06,0x3a,0x06,0x45,0x54,0x3a,0x0b,0x40,0x70,0x69,0x74,0x63,0x68,0x69,0x69,0x3a,0x0c,0x40,0x76,0x6f,0x6c,0x75,0x6d,0x65,0x69,0x55))
  ChangeSelfSwitch("A",0)
  ChangeInventory_Item(11,0,0,1)
  0()
 PAGE   2
  // condition: self-switch A is ON
  0()



EVENT   22
 PAGE   1
  ShowMessageFace("",0,0,2,1)
  ShowMessage("\\n<Traveling Merchant>商人は、回復役としても非常に優秀なのですよ。 回復薬がダンジョン内でさえいくらでも購入できますから。")
  ShowMessageFace("",0,0,2,2)
  ShowMessage("\\n<Traveling Merchant>もちろん、お金はかかりますが…… 商人がいると獲得ゴールドも増えますので、十分まかなえますよ。")
  355("actor_label_jump")
  EndEventProcessing()
  DefineLabel("66")
  ShowMessageFace("vgirl_fc1",0,0,2,3)
  ShowMessage("\\n<Vanilla>えっへん！　我のありがたさを思い知ったか！")
  EndEventProcessing()
  0()



EVENT   23
 PAGE   1
  250(bytes(0x04,0x08,0x6f,0x3a,0x0c,0x52,0x50,0x47,0x3a,0x3a,0x53,0x45,0x08,0x3a,0x0a,0x40,0x6e,0x61,0x6d,0x65,0x49,0x22,0x0a,0x49,0x74,0x65,0x6d,0x31,0x06,0x3a,0x06,0x45,0x54,0x3a,0x0b,0x40,0x70,0x69,0x74,0x63,0x68,0x69,0x69,0x3a,0x0c,0x40,0x76,0x6f,0x6c,0x75,0x6d,0x65,0x69,0x55))
  ChangeSelfSwitch("A",0)
  ChangeInventoryWeapon(779,0,0,1,false)
  0()
 PAGE   2
  // condition: self-switch A is ON
  0()



EVENT   24
 PAGE   1
  ShowMessageFace("",0,0,2,1)
  ShowMessage("\\n<Traveling Warrior>この町では、楽しいことが多いなぁ…… 所持金が尽きるまで、ここにいようかな。")
  0()



EVENT   25
 PAGE   1
  ShowMessageFace("",0,0,2,1)
  ShowMessage("\\n<Pirate>戦争のせいか、海軍も取り締まりを強めてる。 海賊稼業も大変だぜ……")
  ShowMessageFace("",0,0,2,2)
  ShowMessage("\\n<Pirate>海軍ってのは、どこの国にも属さない海の治安組織だ。 公海の安全を守り、海賊や海の魔物と戦うのが役目だな。")
  ShowMessageFace("",0,0,2,3)
  ShowMessage("\\n<Pirate>仕切ってるのは、海軍大将。 各国の王に匹敵する権力を持ってるぜ。")
  ShowMessageFace("",0,0,2,4)
  ShowMessage("\\n<Pirate>……海軍のルーツも、実は海賊にあるんだけどな。 まったく、公権力に尻尾ふりやがって……")
  355("actor_label_jump")
  EndEventProcessing()
  DefineLabel("116")
  ShowMessageFace("iso_fc1",0,0,2,5)
  ShowMessage("\\n<Isabelle>海軍……たまに捕食モンスターの取り締まりもするのよね。 変なタツノオトシゴが襲ってきた事があったわ。")
  EndEventProcessing()
  DefineLabel("144")
  ShowMessageFace("saboresu_fc1",0,0,2,6)
  ShowMessage("\\n<Sunny>私も海賊になって、大海に乗り出すの！ 海軍なんて、怖くないんだからね！")
  EndEventProcessing()
  0()



EVENT   26
 PAGE   1
  281(1)
  250(bytes(0x04,0x08,0x6f,0x3a,0x0c,0x52,0x50,0x47,0x3a,0x3a,0x53,0x45,0x08,0x3a,0x0a,0x40,0x6e,0x61,0x6d,0x65,0x49,0x22,0x09,0x4d,0x6f,0x76,0x65,0x06,0x3a,0x06,0x45,0x54,0x3a,0x0b,0x40,0x70,0x69,0x74,0x63,0x68,0x69,0x69,0x3a,0x0c,0x40,0x76,0x6f,0x6c,0x75,0x6d,0x65,0x69,0x55))
  TeleportPlayer(0,337,17,108,0,0)
  0()



EVENT   27
 PAGE   1
  ShowMessageFace("",0,0,2,1)
  ShowMessage("\\n<Guard>ドン・ファーザーの邸宅は要注意です。 なにせ、全世界のマフィアの頂点に立つ男ですからね……")
  ShowMessageFace("",0,0,2,2)
  ShowMessage("\\n<Guard>とは言え、周辺の治安は非常に良いんです。 あの家の周囲では、全てのマフィアは借りてきた猫のようになりますよ。")
  355("actor_label_jump")
  EndEventProcessing()
  DefineLabel("142")
  ShowMessageFace("bander_fc1",0,0,2,3)
  ShowMessage("\\n<Banachi>どんな悪党も黙るマフィアの帝王か…… 面白いな……")
  EndEventProcessing()
  0()



EVENT   28
 PAGE   1
  ShowMessageFace("",0,0,2,1)
  ShowMessage("\\n<Guard>ここは、グランドールの駐留所です。 我々はサバサ本国から派遣されているのですよ。")
  0()



EVENT   29
 PAGE   1
  ShowMessageFace("",0,0,2,1)
  ShowMessage("\\n<Guard>大劇場が占拠されているという事ですが…… 残念ながら、我々は動けません。")
  ShowMessageFace("",0,0,2,2)
  ShowMessage("\\n<Guard>サキちゃん、キラッ☆")
  355("actor_label_jump")
  EndEventProcessing()
  DefineLabel("155")
  ShowMessageFace("saki_fc1",3,0,2,3)
  ShowMessage("\\n<Saki>応援、ありがとね☆")
  EndEventProcessing()
  0()



EVENT   30
 PAGE   1
  ShowMessageFace("",0,0,2,1)
  ShowMessage("\\n<Guard>あと数ヶ月で、ノーム祭りですね。 大きなパンでノームちゃんを作らないと……")
  ShowMessageFace("",0,0,2,2)
  ShowMessage("\\n<Guard>……実は、ノーム祭りは初めてなんですよ。 いやぁ、楽しみだな。")
  0()



EVENT   31
 PAGE   1
  If(1,1030,0,0,0)
   ShowMessageFace("",0,0,2,1)
   ShowMessage("\\n<Guard>明日は一日休みだから、大劇場のコンサートに行かないと…… サキちゃん、はぁはぁ……")
   0()
  EndIf()
  If(1,1030,0,1,1)
   ShowMessageFace("",0,0,2,2)
   ShowMessage("\\n<Guard>サキちゃんが全国ツアーに出るらしい。 兵士なんてさっさとやめて、僕も世界を回らないと……")
   355("actor_label_jump")
   EndEventProcessing()
   DefineLabel("155")
   ShowMessageFace("saki_fc1",2,0,2,3)
   ShowMessage("\\n<Saki>自分の仕事を簡単に投げ出しちゃう人って…… サキ、あんまり好きじゃないなぁ。")
   ShowMessageFace("",0,0,2,4)
   ShowMessage("\\n<Guard>僕、兵士を続けます！")
   EndEventProcessing()
   0()
  EndIf()
  0()



EVENT   32
 PAGE   1
  ShowMessageFace("",0,0,2,1)
  ShowMessage("\\n<Lieutenant>この町に異常はありません。 まあ、大劇場が乗っ取られるなどといった些末な事件はありますが……")
  ShowMessageFace("",0,0,2,2)
  ShowMessage("\\n<Lieutenant>私達が警戒するのは、マフィアの帝王ドン・ファーザー。 ……サキちゃん、キラッ☆")
  355("actor_label_jump")
  EndEventProcessing()
  DefineLabel("155")
  ShowMessageFace("saki_fc1",3,0,2,3)
  ShowMessage("\\n<Saki>応援、ありがとね☆")
  EndEventProcessing()
  DefineLabel("525")
  ShowMessageFace("sonia_fc4",0,0,2,4)
  ShowMessage("\\n<Sonya>精神汚染が深刻なんじゃない……？")
  EndEventProcessing()
  0()



EVENT   33
 PAGE   1
  250(bytes(0x04,0x08,0x6f,0x3a,0x0c,0x52,0x50,0x47,0x3a,0x3a,0x53,0x45,0x08,0x3a,0x0a,0x40,0x6e,0x61,0x6d,0x65,0x49,0x22,0x0a,0x49,0x74,0x65,0x6d,0x31,0x06,0x3a,0x06,0x45,0x54,0x3a,0x0b,0x40,0x70,0x69,0x74,0x63,0x68,0x69,0x69,0x3a,0x0c,0x40,0x76,0x6f,0x6c,0x75,0x6d,0x65,0x69,0x55))
  ChangeSelfSwitch("A",0)
  ChangeInventoryWeapon(197,0,0,1,false)
  0()
 PAGE   2
  // condition: self-switch A is ON
  0()



EVENT   34
 PAGE   1
  ShowMessageFace("",0,0,2,1)
  ShowMessage("\\n<Guard>この町の駐屯は、他の兵から羨ましがられます。 娯楽に溢れ、繁華街の割には治安もいいですからね……")
  355("actor_label_jump")
  EndEventProcessing()
  DefineLabel("75")
  ShowMessageFace("hituzi_fc1",3,0,2,2)
  ShowMessage("\\n<Mary>本当に、良い町なのら…… 都会デビューしたひつじさん、牧場には帰りたくないのら。")
  EndEventProcessing()
  0()



EVENT   35
 PAGE   1
  ShowMessageFace("",0,0,2,1)
  ShowMessage("\\n<Guard>ぐごごごご……")
  ShowMessageFace("",0,0,2,2)
  ShowMessage("ベッドから落下した体勢のままで寝ている……")
  355("actor_label_jump")
  EndEventProcessing()
  DefineLabel("166")
  ShowMessageFace("narcubus_fc1",0,0,2,3)
  ShowMessage("\\n<Manako>怪我はないようです。 もう……気をつけて下さいね♪")
  EndEventProcessing()
  0()



EVENT   36
 PAGE   1
  ShowMessageFace("",0,0,2,1)
  ShowMessage("\\n<Guard>休憩時間なので、つまみ食い……")
  355("actor_label_jump")
  EndEventProcessing()
  DefineLabel("70")
  ShowMessageFace("nezumi_fc1",2,0,2,2)
  ShowMessage("\\n<Ratty>あたしも、盗み食い……なにこれ、まずっ！")
  ShowMessageFace("",0,0,2,3)
  ShowMessage("\\n<Guard>非常用のレーションだからなぁ…… 長持ちする代わり、味はひどいもんだよ。")
  EndEventProcessing()
  0()



EVENT   37
 PAGE   1
  281(1)
  250(bytes(0x04,0x08,0x6f,0x3a,0x0c,0x52,0x50,0x47,0x3a,0x3a,0x53,0x45,0x08,0x3a,0x0a,0x40,0x6e,0x61,0x6d,0x65,0x49,0x22,0x09,0x4d,0x6f,0x76,0x65,0x06,0x3a,0x06,0x45,0x54,0x3a,0x0b,0x40,0x70,0x69,0x74,0x63,0x68,0x69,0x69,0x3a,0x0c,0x40,0x76,0x6f,0x6c,0x75,0x6d,0x65,0x69,0x55))
  TeleportPlayer(0,337,43,104,0,0)
  0()



EVENT   38
 PAGE   1
  ShowMessageFace("",0,0,2,1)
  ShowMessage("\\n<Swordsman>伝説の鍛冶屋について調べに来たのだが…… 鍛冶ギルドにも、資料はないようだな。")
  ShowMessageFace("",0,0,2,2)
  ShowMessage("\\n<Swordsman>なんだか、本当に実在するのかも怪しくなってきたが…… でも、俺は伝説の鍛冶屋を探し求めるぞ！")
  If(4,68,0)
   ShowMessageFace("dragonp_fc1",0,0,2,3)
   ShowMessage("\\n<Papi>あたしも、探し求めるのだ！")
   0()
  EndIf()
  0()



EVENT   39
 PAGE   1
  ShowMessageFace("",0,0,2,1)
  ShowMessage("\\n<Merchant>軍からの発注が多くて、うちみたいな零細は後回しですわ。 困った時代ですよねぇ……")
  0()



EVENT   40
 PAGE   1
  ShowMessageFace("",0,0,2,1)
  ShowMessage("\\n<Craftsman>サバサから一気に発注が来たな…… 次の遠征軍が控えてやがるのか。")
  0()



EVENT   41
 PAGE   1
  250(bytes(0x04,0x08,0x6f,0x3a,0x0c,0x52,0x50,0x47,0x3a,0x3a,0x53,0x45,0x08,0x3a,0x0a,0x40,0x6e,0x61,0x6d,0x65,0x49,0x22,0x0a,0x49,0x74,0x65,0x6d,0x31,0x06,0x3a,0x06,0x45,0x54,0x3a,0x0b,0x40,0x70,0x69,0x74,0x63,0x68,0x69,0x69,0x3a,0x0c,0x40,0x76,0x6f,0x6c,0x75,0x6d,0x65,0x69,0x55))
  ChangeSelfSwitch("A",0)
  ChangeInventoryArmor(1042,0,0,1,false)
  0()
 PAGE   2
  // condition: self-switch A is ON
  0()



EVENT   42
 PAGE   1
  ShowMessageFace("",0,0,2,1)
  ShowMessage("\\n<Craftsman>武具の発注を見りゃ、各国の思惑がいち早く分かっちまう事もある。 鍛冶ギルドの発注情報は、重要機密なんだぜ……")
  ShowMessageFace("",0,0,2,2)
  ShowMessage("\\n<Craftsman>だから平気で旅人さんに喋ってるんじゃねぇよ！ この唐変木ども！")
  355("actor_label_jump")
  EndEventProcessing()
  DefineLabel("94")
  ShowMessageFace("luksl_fc1",0,0,2,3)
  ShowMessage("\\n<Look Through>秘密保全には最悪の環境ね……")
  EndEventProcessing()
  DefineLabel("103")
  ShowMessageFace("kamuro_fc1",0,0,2,4)
  ShowMessage("\\n<Kamuro>こういうところから、機密が漏れちゃうんですね……")
  EndEventProcessing()
  0()



EVENT   43
 PAGE   1
  ShowMessageFace("",0,0,2,1)
  ShowMessage("\\n<Craftsman>鉄もミスリルも不足気味だぜ…… こりゃ鉱物市場が大きく動くな。")
  355("actor_label_jump")
  EndEventProcessing()
  DefineLabel("68")
  ShowMessageFace("dragonp_fc1",2,0,2,2)
  ShowMessage("\\n<Papi>親方、ちゃんと仕事できてるのかな……")
  EndEventProcessing()
  0()



EVENT   44
 PAGE   1
  ShowMessageFace("",0,0,2,1)
  ShowMessage("\\n<Craftsman>グランドノアからの発注はひっきりなしだ。 激戦のさなかだからな……")
  ShowMessageFace("",0,0,2,2)
  ShowMessage("\\n<Craftsman>ちなみに戦争相手のグランゴルドとは、全く取引がねぇ。 数年前から、音信自体が不通なんだよ。")
  0()



EVENT   45
 PAGE   1
  ShowMessageFace("",0,0,2,1)
  ShowMessage("\\n<Craftsman>ここは鍛冶ギルドの本部だ！ もちろん、鍛冶の仕事もやってるぜ！")
  355("call_synthesize(12)")
  0()



EVENT   46
 PAGE   1
  ShowMessageFace("",0,0,2,1)
  ShowMessage("\\n<Craftsman>ギルド員の登録書をお求めかい？ ……ああ、鍛冶の用なら隣の奴だぜ。")
  0()



EVENT   47
 PAGE   1
  ShowMessageFace("",0,0,2,1)
  ShowMessage("\\n<Knight>うむ、そろそろ兜を新調するか…… 女の子にモテモテになる兜がいいな。")
  355("actor_label_jump")
  EndEventProcessing()
  DefineLabel("136")
  ShowMessageFace("elf_fc1",0,0,2,2)
  ShowMessage("\\n<Claudia>そんな都合のいい兜、あるわけないでしょ……")
  EndEventProcessing()
  DefineLabel("149")
  ShowMessageFace("lamp_fc1",1,0,2,3)
  ShowMessage("\\n<Jeannie>その願い、叶えてあげましょうか……？")
  ShowMessageFace("",0,0,2,4)
  ShowMessage("\\n<Knight>えっ！　女の子にモテモテにしてくれるのか！？")
  ShowMessageFace("lamp_fc1",0,0,2,5)
  ShowMessage("\\n<Jeannie>いえ、格好良い兜をあげましょう……")
  ShowMessageFace("",0,0,2,6)
  ShowMessage("\\n<Knight>そっちかよ！")
  EndEventProcessing()
  0()



EVENT   48
 PAGE   1
  250(bytes(0x04,0x08,0x6f,0x3a,0x0c,0x52,0x50,0x47,0x3a,0x3a,0x53,0x45,0x08,0x3a,0x0a,0x40,0x6e,0x61,0x6d,0x65,0x49,0x22,0x0a,0x49,0x74,0x65,0x6d,0x31,0x06,0x3a,0x06,0x45,0x54,0x3a,0x0b,0x40,0x70,0x69,0x74,0x63,0x68,0x69,0x69,0x3a,0x0c,0x40,0x76,0x6f,0x6c,0x75,0x6d,0x65,0x69,0x55))
  ChangeSelfSwitch("A",0)
  ChangeInventory_Item(68,0,0,1)
  0()
 PAGE   2
  // condition: self-switch A is ON
  0()



EVENT   49
 PAGE   1
  ShowMessageFace("",0,0,2,1)
  ShowMessage("\\n<Craftsman>俺はギルド長の直弟子だが…… あの人の腕は、まさに神業だぜ。")
  ShowMessageFace("",0,0,2,2)
  ShowMessage("\\n<Craftsman>そんなあの人が、足元にも及ばなかったってう伝説の鍛冶屋…… それ、もう都市伝説の類じゃねぇのか？")
  355("actor_label_jump")
  EndEventProcessing()
  DefineLabel("95")
  ShowMessageFace("delh_a_fc1",0,0,2,3)
  ShowMessage("\\n<Lona>噂は私も聞いたけど、いかにも伝説っぽいわよね。 本当は実在しないんじゃないかしら……")
  EndEventProcessing()
  0()



EVENT   50
 PAGE   1
  ShowMessageFace("",0,0,2,1)
  ShowMessage("\\n<Craftsman>鍛冶ギルドにゃ、人間以外も多く在籍してるぜ。 多いのは竜族に狐族、あと妖精だな。")
  ShowMessageFace("",0,0,2,2)
  ShowMessage("\\n<Craftsman>もちろん、一定以上の技量を備えてたら問題ないぜ。 鍛冶ギルドは種族で差別はしねぇよ。")
  355("actor_label_jump")
  EndEventProcessing()
  DefineLabel("68")
  ShowMessageFace("dragonp_fc1",0,0,2,3)
  ShowMessage("\\n<Papi>嬉しいのだ！")
  EndEventProcessing()
  DefineLabel("137")
  ShowMessageFace("braunys_fc1",6,0,2,4)
  ShowMessage("\\n<Love & Lamb>あたし達も、実は鍛冶ギルドに入ってるんだよ♪")
  EndEventProcessing()
  0()



EVENT   51
 PAGE   1
  ShowMessageFace("",0,0,2,1)
  ShowMessage("\\n<Craftsman>俺たちの事を、死の商人と揶揄する奴もいるが…… 武器が人を殺すわけじゃねぇさ。")
  ShowMessageFace("",0,0,2,2)
  ShowMessage("\\n<Craftsman>でも武器の力に引きずられて、不要な殺しが起きる事もある…… 心の正しい奴に使ってもらいたいってのが、全ての鍛冶屋の望みだよ。")
  355("actor_label_jump")
  EndEventProcessing()
  DefineLabel("68")
  ShowMessageFace("dragonp_fc1",0,0,2,3)
  ShowMessage("\\n<Papi>その通りなのだ！")
  EndEventProcessing()
  0()



EVENT   52
 PAGE   1
  ShowMessageFace("",0,0,2,1)
  ShowMessage("\\n<Female Blacksmith>鍛冶屋に人間女性は少ないねぇ…… 鍛冶屋系女子って、流行らないかね？")
  355("actor_label_jump")
  EndEventProcessing()
  DefineLabel("68")
  ShowMessageFace("dragonp_fc1",0,0,2,2)
  ShowMessage("\\n<Papi>あたしも、鍛冶屋系女子なのだ！")
  EndEventProcessing()
  DefineLabel("137")
  ShowMessageFace("braunys_fc1",6,0,2,3)
  ShowMessage("\\n<Love & Lamb>流行らせちゃうよ～♪")
  EndEventProcessing()
  0()



EVENT   60
 PAGE   1
  ShowMessageFace("",0,0,2,1)
  ShowMessage("\\n<Craftsman>ギルド長は、もちろん最高クラスの鍛冶屋だぜ。 今は現役職から引退して、槌は握ってないけどな。")
  ShowMessageFace("",0,0,2,2)
  ShowMessage("\\n<Craftsman>気さくな人だから、話していけよ。 隣の部屋にいるぜ。")
  0()



EVENT   61
 PAGE   1
  ShowMessageFace("",0,0,2,1)
  ShowMessage("\\n<Blacksmith Guild Leader>おう、俺が鍛冶ギルドのトップだ。 そして、世界一の鍛冶屋でもある……")
  ShowMessageFace("",0,0,2,2)
  ShowMessage("\\n<Blacksmith Guild Leader>……と言いたいが、残念ながら世界で二番目だ。 世界一の鍛冶屋は、俺のおとうと弟子だよ。")
  ShowMessageFace("",0,0,2,3)
  ShowMessage("\\n<Blacksmith Guild Leader>あいつは、師匠に弟子入りした頃から天才肌でな…… 俺なんて、どれだけ逆立ちしても勝てやしねぇ。")
  ShowMessageFace("",0,0,2,4)
  ShowMessage("\\n<Blacksmith Guild Leader>たちまち師匠の技を極め……そのまま旅に出てったよ。 伝説の鍛冶屋ランドルフとはそいつの事さ。")
  If(0,4,0)
   ShowMessageFace("alice_fc5",0,0,2,5)
   ShowMessage("\\n<Alice>たまもから聞いた事がある。 この世で最高の鍛冶屋は、竜族ではなく人間だと……")
   ShowMessageFace("alice_fc5",3,0,2,6)
   ShowMessage("\\n<Alice>冗談だと思っていたが、実在したとはな……")
   0()
  EndIf()
  If(4,68,0)
   ShowMessageFace("dragonp_fc1",0,0,2,7)
   ShowMessage("\\n<Papi>伝説の鍛冶屋、会ってみたいのだ！ 今はどこにいるのだ？")
   0()
  EndIf()
  ShowMessageFace("",0,0,2,8)
  ShowMessage("\\n<Blacksmith Guild Leader>師匠の元を出てからも、流れ流れたみたいだが…… ……今頃は、いったい何してるんだろうな。")
  ShowMessageFace("",0,0,2,9)
  ShowMessage("\\n<Blacksmith Guild Leader>世界中の鍛冶の技を極め尽くして、満足して逝っちまったのか…… そういうタイプの、とにかく天才だったよ。")
  If(0,4,0)
   ShowMessageFace("alice_fc5",0,0,2,10)
   ShowMessage("\\n<Alice>その鍛冶屋の造る武器、ぜひ入手したいところだが…… 行方が不明では、どうにもならんな。")
   0()
  EndIf()
  If(0,5,0)
   ShowMessageFace("iriasu_fc4",2,0,2,11)
   ShowMessage("\\n<Ilias>ちょうど大異変の時期と被ってしまうため…… その者の足取りは、私の記憶でも辿れませんね。")
   ShowMessageFace("iriasu_fc4",2,0,2,12)
   ShowMessage("\\n<Ilias>彼の造る武器が入手できれば、冒険が楽になるのに…… ……つくづく残念です。")
   0()
  EndIf()
  0()



EVENT   62
 PAGE   1
  ShowMessageFace("",0,0,2,1)
  ShowMessage("\\n<Dancer>バトルファックで15回勝利すると、転職アイテムがもらえるわ。 職業「バトルファッカー」に転職できるようになるそうよ。")
  ShowMessageFace("",0,0,2,2)
  ShowMessage("\\n<Dancer>でも、15回の勝利は別の相手じゃないとダメ。 同じ相手を15回倒しても、1回分しかカウントされないわ。")
  ShowMessageFace("",0,0,2,3)
  ShowMessage("\\n<Dancer>試しに、男を15回イかせてみたけど…… 失神しただけで、もらえなかったから確かよ。")
  0()



EVENT   63
 PAGE   1
  281(1)
  250(bytes(0x04,0x08,0x6f,0x3a,0x0c,0x52,0x50,0x47,0x3a,0x3a,0x53,0x45,0x08,0x3a,0x0a,0x40,0x6e,0x61,0x6d,0x65,0x49,0x22,0x09,0x4d,0x6f,0x76,0x65,0x06,0x3a,0x06,0x45,0x54,0x3a,0x0b,0x40,0x70,0x69,0x74,0x63,0x68,0x69,0x69,0x3a,0x0c,0x40,0x76,0x6f,0x6c,0x75,0x6d,0x65,0x69,0x55))
  TeleportPlayer(0,337,67,99,0,0)
  0()



EVENT   64
 PAGE   1
  250(bytes(0x04,0x08,0x6f,0x3a,0x0c,0x52,0x50,0x47,0x3a,0x3a,0x53,0x45,0x08,0x3a,0x0a,0x40,0x6e,0x61,0x6d,0x65,0x49,0x22,0x0a,0x49,0x74,0x65,0x6d,0x31,0x06,0x3a,0x06,0x45,0x54,0x3a,0x0b,0x40,0x70,0x69,0x74,0x63,0x68,0x69,0x69,0x3a,0x0c,0x40,0x76,0x6f,0x6c,0x75,0x6d,0x65,0x69,0x55))
  ChangeSelfSwitch("A",0)
  ChangeInventory_Item(314,0,0,1)
  0()
 PAGE   2
  // condition: self-switch A is ON
  0()



EVENT   65
 PAGE   1
  ShowMessageFace("",0,0,2,1)
  ShowMessage("\\n<Dancer>サキちゃんみたいな生き方も、憧れるわよね～。 ステージを乗っ取って、連日ライブだなんて……")
  ShowMessageFace("",0,0,2,2)
  ShowMessage("\\n<Dancer>ちまちまのし上がるより、ドカンと大きく出た方がいいのかな？ やっぱり世の中、一発勝負よね！")
  355("actor_label_jump")
  EndEventProcessing()
  DefineLabel("155")
  ShowMessageFace("saki_fc1",2,0,2,3)
  ShowMessage("\\n<Saki>そういう考え方って、良くないよ～？")
  EndEventProcessing()
  0()



EVENT   66
 PAGE   1
  ShowMessageFace("",0,0,2,1)
  ShowMessage("\\n<Dancer>でもサキちゃん、陰でかなり練習してると思うわ。 踊りも歌も、すごい上手だもの……")
  355("actor_label_jump")
  EndEventProcessing()
  DefineLabel("155")
  ShowMessageFace("saki_fc1",3,0,2,2)
  ShowMessage("\\n<Saki>よく見てくれて、ありがとね☆")
  EndEventProcessing()
  0()



EVENT   67
 PAGE   1
  281(1)
  250(bytes(0x04,0x08,0x6f,0x3a,0x0c,0x52,0x50,0x47,0x3a,0x3a,0x53,0x45,0x08,0x3a,0x0a,0x40,0x6e,0x61,0x6d,0x65,0x49,0x22,0x09,0x4d,0x6f,0x76,0x65,0x06,0x3a,0x06,0x45,0x54,0x3a,0x0b,0x40,0x70,0x69,0x74,0x63,0x68,0x69,0x69,0x3a,0x0c,0x40,0x76,0x6f,0x6c,0x75,0x6d,0x65,0x69,0x55))
  TeleportPlayer(0,337,83,92,0,0)
  0()



EVENT   69
 PAGE   1
  250(bytes(0x04,0x08,0x6f,0x3a,0x0c,0x52,0x50,0x47,0x3a,0x3a,0x53,0x45,0x08,0x3a,0x0a,0x40,0x6e,0x61,0x6d,0x65,0x49,0x22,0x0a,0x49,0x74,0x65,0x6d,0x31,0x06,0x3a,0x06,0x45,0x54,0x3a,0x0b,0x40,0x70,0x69,0x74,0x63,0x68,0x69,0x69,0x3a,0x0c,0x40,0x76,0x6f,0x6c,0x75,0x6d,0x65,0x69,0x55))
  ChangeSelfSwitch("A",0)
  ChangeInventoryArmor(167,0,0,1,false)
  0()
 PAGE   2
  // condition: self-switch A is ON
  0()



EVENT   70
 PAGE   1
  281(1)
  250(bytes(0x04,0x08,0x6f,0x3a,0x0c,0x52,0x50,0x47,0x3a,0x3a,0x53,0x45,0x08,0x3a,0x0a,0x40,0x6e,0x61,0x6d,0x65,0x49,0x22,0x09,0x4d,0x6f,0x76,0x65,0x06,0x3a,0x06,0x45,0x54,0x3a,0x0b,0x40,0x70,0x69,0x74,0x63,0x68,0x69,0x69,0x3a,0x0c,0x40,0x76,0x6f,0x6c,0x75,0x6d,0x65,0x69,0x55))
  TeleportPlayer(0,337,78,109,0,0)
  216(0)
  0()



EVENT   71
 PAGE   1
  250(bytes(0x04,0x08,0x6f,0x3a,0x0c,0x52,0x50,0x47,0x3a,0x3a,0x53,0x45,0x08,0x3a,0x0a,0x40,0x6e,0x61,0x6d,0x65,0x49,0x22,0x0a,0x49,0x74,0x65,0x6d,0x31,0x06,0x3a,0x06,0x45,0x54,0x3a,0x0b,0x40,0x70,0x69,0x74,0x63,0x68,0x69,0x69,0x3a,0x0c,0x40,0x76,0x6f,0x6c,0x75,0x6d,0x65,0x69,0x55))
  ChangeSelfSwitch("A",0)
  ChangeInventory_Item(359,0,0,1)
  0()
 PAGE   2
  // condition: self-switch A is ON
  0()



EVENT   72
 PAGE   1
  If(1,1030,0,1,2)
   ShowMessageFace("",0,0,2,1)
   ShowMessage("\\n<Gruff Man>サキちゃん、キラッ☆")
   ShowMessageFace("",0,0,2,2)
   ShowMessage("\\n<Gruff Man>さて、今日も工事のアルバイトだ。 待っててサキちゃん、今晩も会いに行くから……♪")
   0()
  EndIf()
  If(1,1030,0,2,1)
   ShowMessageFace("",0,0,2,3)
   ShowMessage("\\n<Gruff Man>サキちゃん、キラッ☆")
   ShowMessageFace("",0,0,2,4)
   ShowMessage("\\n<Gruff Man>俺はサキちゃんの全国ツアーを追って、世界を回る。 どこまでも行くぜ、サキちゃん～！")
   355("actor_label_jump")
   EndEventProcessing()
   DefineLabel("142")
   ShowMessageFace("bander_fc1",0,0,2,5)
   ShowMessage("\\n<Banachi>まったく理解できん……")
   EndEventProcessing()
   DefineLabel("155")
   ShowMessageFace("saki_fc1",3,0,2,6)
   ShowMessage("\\n<Saki>応援、ありがとね☆")
   EndEventProcessing()
   0()
  EndIf()
  0()



EVENT   73
 PAGE   1
  If(1,1030,0,1,2)
   ShowMessageFace("",0,0,2,1)
   ShowMessage("\\n<Youth>サキちゃん、キラッ☆")
   ShowMessageFace("",0,0,2,2)
   ShowMessage("\\n<Youth>僕は田舎の出ですが、サキちゃんに心奪われてここに住んでいます。 生活費やチケット代は、4人で協力して捻出しているんですよ。")
   0()
  EndIf()
  If(1,1030,0,2,1)
   ShowMessageFace("",0,0,2,3)
   ShowMessage("\\n<Youth>これからどうしようか、まだ迷っています。 とりあえずは、この町で普通に暮らしていこうかと……")
   355("actor_label_jump")
   EndEventProcessing()
   DefineLabel("155")
   ShowMessageFace("saki_fc1",3,0,2,4)
   ShowMessage("\\n<Saki>それでいいよ、自分で選んだ道なんだから☆")
   ShowMessageFace("",0,0,2,5)
   ShowMessage("\\n<Youth>そうですよね！")
   EndEventProcessing()
   0()
  EndIf()
  0()



EVENT   74
 PAGE   1
  If(1,1030,0,1,2)
   ShowMessageFace("",0,0,2,1)
   ShowMessage("\\n<Man>サキちゃん、キラッ☆")
   ShowMessageFace("",0,0,2,2)
   ShowMessage("\\n<Man>俺たちは、サキちゃんのコンサートで知り合った同志。 毎晩コンサートに行くため、ここでルームシェアしているんだ。")
   0()
  EndIf()
  If(1,1030,0,2,1)
   ShowMessageFace("",0,0,2,3)
   ShowMessage("\\n<Man>サキちゃんが世界に羽ばたいた今…… 俺たちが、この町にいる理由もなくなった。")
   ShowMessageFace("",0,0,2,4)
   ShowMessage("\\n<Man>ルームシェアも、これで終わり。 今日からは、それぞれの道を歩み出す4人なのさ。")
   355("actor_label_jump")
   EndEventProcessing()
   DefineLabel("109")
   ShowMessageFace("kani_fc1",2,0,2,5)
   ShowMessage("\\n<Soapy>なんかきもい……")
   EndEventProcessing()
   0()
  EndIf()
  0()



EVENT   75
 PAGE   1
  If(1,1030,0,1,2)
   ShowMessageFace("",0,0,2,1)
   ShowMessage("\\n<Youth>サキちゃん、キラッ☆")
   ShowMessageFace("",0,0,2,2)
   ShowMessage("\\n<Youth>1人なら生活できないが……4人ならどうにかなる事も多いよ。 僕は料理や家事担当だけど、力仕事はまるでダメなんだ。")
   0()
  EndIf()
  If(1,1030,0,2,1)
   ShowMessageFace("",0,0,2,3)
   ShowMessage("\\n<Youth>僕は実家に戻るよ。 そろそろ、家業を継ごうと考えてるんだ……")
   355("actor_label_jump")
   EndEventProcessing()
   DefineLabel("155")
   ShowMessageFace("saki_fc1",3,0,2,4)
   ShowMessage("\\n<Saki>自分の道で、ファイトだよっ☆")
   ShowMessageFace("",0,0,2,5)
   ShowMessage("\\n<Youth>サキちゃん……僕、がんばるよ！")
   EndEventProcessing()
   0()
  EndIf()
  0()



EVENT   76
 PAGE   1
  250(bytes(0x04,0x08,0x6f,0x3a,0x0c,0x52,0x50,0x47,0x3a,0x3a,0x53,0x45,0x08,0x3a,0x0a,0x40,0x6e,0x61,0x6d,0x65,0x49,0x22,0x0a,0x49,0x74,0x65,0x6d,0x31,0x06,0x3a,0x06,0x45,0x54,0x3a,0x0b,0x40,0x70,0x69,0x74,0x63,0x68,0x69,0x69,0x3a,0x0c,0x40,0x76,0x6f,0x6c,0x75,0x6d,0x65,0x69,0x55))
  ChangeSelfSwitch("A",0)
  ChangeInventory_Item(191,0,0,1)
  0()
 PAGE   2
  // condition: self-switch A is ON
  0()



EVENT   77
 PAGE   1
  281(1)
  250(bytes(0x04,0x08,0x6f,0x3a,0x0c,0x52,0x50,0x47,0x3a,0x3a,0x53,0x45,0x08,0x3a,0x0a,0x40,0x6e,0x61,0x6d,0x65,0x49,0x22,0x09,0x4d,0x6f,0x76,0x65,0x06,0x3a,0x06,0x45,0x54,0x3a,0x0b,0x40,0x70,0x69,0x74,0x63,0x68,0x69,0x69,0x3a,0x0c,0x40,0x76,0x6f,0x6c,0x75,0x6d,0x65,0x69,0x55))
  TeleportPlayer(0,337,80,58,0,0)
  0()



EVENT   78
 PAGE   1
  ShowMessageFace("saboten_fc1",0,0,2,1)
  ShowMessage("\\n<Cactus Girl>わたくしは、これくらいの家でも構いませんけど。 あまり大きい家だと、掃除が大変なので……")
  355("actor_label_jump")
  EndEventProcessing()
  DefineLabel("147")
  ShowMessageFace("saboten_fc1",0,0,2,2)
  ShowMessage("\\n<Casta>あら、サボテン仲間ではないですか。 人間と結婚するなんて、素敵ですわね……")
  EndEventProcessing()
  0()



EVENT   79
 PAGE   1
  ShowMessageFace("",0,0,2,1)
  ShowMessage("\\n<Youth>なんとか、グランドールに家が持てました。 まだ小さな家ですけどね……")
  ShowMessageFace("",0,0,2,2)
  ShowMessage("\\n<Youth>一生懸命働いて、もっと立派な家を…… その頃には、可愛い子供も……")
  355("actor_label_jump")
  EndEventProcessing()
  DefineLabel("108")
  ShowMessageFace("kai_fc1",0,0,2,3)
  ShowMessage("\\n<Shelly>あら、素敵。 私も、立派なお婿さんを見つけないと……")
  EndEventProcessing()
  DefineLabel("160")
  ShowMessageFace("wormv_fc1",0,0,2,4)
  ShowMessage("\\n<Julia>幸せそうで、羨ましいですね……")
  EndEventProcessing()
  0()



EVENT   80
 PAGE   1
  250(bytes(0x04,0x08,0x6f,0x3a,0x0c,0x52,0x50,0x47,0x3a,0x3a,0x53,0x45,0x08,0x3a,0x0a,0x40,0x6e,0x61,0x6d,0x65,0x49,0x22,0x0a,0x49,0x74,0x65,0x6d,0x31,0x06,0x3a,0x06,0x45,0x54,0x3a,0x0b,0x40,0x70,0x69,0x74,0x63,0x68,0x69,0x69,0x3a,0x0c,0x40,0x76,0x6f,0x6c,0x75,0x6d,0x65,0x69,0x55))
  ChangeSelfSwitch("A",0)
  ChangeInventory_Item(383,0,0,1)
  0()
 PAGE   2
  // condition: self-switch A is ON
  0()



EVENT   81
 PAGE   1
  ShowMessageFace("",0,0,2,1)
  ShowMessage("\\n<Boy>僕も大きくなったら、武器屋さんになるの～！ 伝説の鍛冶屋さんと、せんぞくけいやく結ぶの～！")
  0()



EVENT   82
 PAGE   1
  ShowMessageFace("",0,0,2,1)
  ShowMessage("\\n<Merchant>私は武器屋なんですが、しばらくは店じまいですよ。 戦争の関連で売れに売れて、供給が追い付かなくて……")
  ShowMessageFace("",0,0,2,2)
  ShowMessage("\\n<Merchant>正直、人間同士の戦争であんまり儲けたくはないんですが。 やっぱり武器は、自分を守るために使ってもらいたいですよねぇ……")
  355("actor_label_jump")
  EndEventProcessing()
  DefineLabel("141")
  ShowMessageFace("mino_fc1",0,0,2,3)
  ShowMessage("\\n<Mina>武器ってのは、ハートだ！ 魂なんだよ！")
  EndEventProcessing()
  0()



EVENT   83
 PAGE   1
  ShowMessageFace("",0,0,2,1)
  ShowMessage("\\n<Woman>商売繁盛は嬉しいけど、戦争がひどくなるのはねぇ…… なんだか、心が痛むよ。")
  355("actor_label_jump")
  EndEventProcessing()
  DefineLabel("66")
  ShowMessageFace("vgirl_fc1",2,0,2,2)
  ShowMessage("\\n<Vanilla>複雑なところだな……")
  EndEventProcessing()
  0()



EVENT   84
 PAGE   1
  281(1)
  250(bytes(0x04,0x08,0x6f,0x3a,0x0c,0x52,0x50,0x47,0x3a,0x3a,0x53,0x45,0x08,0x3a,0x0a,0x40,0x6e,0x61,0x6d,0x65,0x49,0x22,0x09,0x4d,0x6f,0x76,0x65,0x06,0x3a,0x06,0x45,0x54,0x3a,0x0b,0x40,0x70,0x69,0x74,0x63,0x68,0x69,0x69,0x3a,0x0c,0x40,0x76,0x6f,0x6c,0x75,0x6d,0x65,0x69,0x55))
  TeleportPlayer(0,337,19,55,0,0)
  0()



EVENT   85
 PAGE   1
  281(1)
  250(bytes(0x04,0x08,0x6f,0x3a,0x0c,0x52,0x50,0x47,0x3a,0x3a,0x53,0x45,0x08,0x3a,0x0a,0x40,0x6e,0x61,0x6d,0x65,0x49,0x22,0x09,0x4d,0x6f,0x76,0x65,0x06,0x3a,0x06,0x45,0x54,0x3a,0x0b,0x40,0x70,0x69,0x74,0x63,0x68,0x69,0x69,0x3a,0x0c,0x40,0x76,0x6f,0x6c,0x75,0x6d,0x65,0x69,0x55))
  TeleportPlayer(0,337,58,87,0,0)
  0()



EVENT   86
 PAGE   1
  250(bytes(0x04,0x08,0x6f,0x3a,0x0c,0x52,0x50,0x47,0x3a,0x3a,0x53,0x45,0x08,0x3a,0x0a,0x40,0x6e,0x61,0x6d,0x65,0x49,0x22,0x0a,0x49,0x74,0x65,0x6d,0x31,0x06,0x3a,0x06,0x45,0x54,0x3a,0x0b,0x40,0x70,0x69,0x74,0x63,0x68,0x69,0x69,0x3a,0x0c,0x40,0x76,0x6f,0x6c,0x75,0x6d,0x65,0x69,0x55))
  ChangeSelfSwitch("A",0)
  ChangeInventory_Item(442,0,0,1)
  0()
 PAGE   2
  // condition: self-switch A is ON
  0()



EVENT   68
 PAGE   1
  If(1,818,0,2,1)
   If(0,1560,1)
    ShowMessageFace("mob_odoriko1_fc1",0,0,2,1)
    ShowMessage("\\n<Melody>ねぇねぇ、あたしも旅に連れていってよ♪")
    ShowChoices(strings("Let her join","Decline for now"),0)
    IfPlayerPicksChoice(0,null)
     ShowMessageFace("mob_odoriko1_fc1",1,0,2,2)
     ShowMessage("\\n<Melody>わーい、よろしくねー♪")
     PictureClear(5)
     205(0,bytes(0x04,0x08,0x6f,0x3a,0x13,0x52,0x50,0x47,0x3a,0x3a,0x4d,0x6f,0x76,0x65,0x52,0x6f,0x75,0x74,0x65,0x09,0x3a,0x0c,0x40,0x72,0x65,0x70,0x65,0x61,0x74,0x46,0x3a,0x0f,0x40,0x73,0x6b,0x69,0x70,0x70,0x61,0x62,0x6c,0x65,0x46,0x3a,0x0a,0x40,0x77,0x61,0x69,0x74,0x54,0x3a,0x0a,0x40,0x6c,0x69,0x73,0x74,0x5b,0x09,0x6f,0x3a,0x15,0x52,0x50,0x47,0x3a,0x3a,0x4d,0x6f,0x76,0x65,0x43,0x6f,0x6d,0x6d,0x61,0x6e,0x64,0x07,0x3a,0x0a,0x40,0x63,0x6f,0x64,0x65,0x69,0x2a,0x3a,0x10,0x40,0x70,0x61,0x72,0x61,0x6d,0x65,0x74,0x65,0x72,0x73,0x5b,0x00,0x6f,0x3b,0x0a,0x07,0x3b,0x0b,0x69,0x0f,0x3b,0x0c,0x5b,0x00,0x6f,0x3b,0x0a,0x07,0x3b,0x0b,0x69,0x2c,0x3b,0x0c,0x5b,0x00,0x6f,0x3b,0x0a,0x07,0x3b,0x0b,0x69,0x00,0x3b,0x0c,0x5b,0x00))
     355("add_actor_ex(560)")
     249(bytes(0x04,0x08,0x6f,0x3a,0x0c,0x52,0x50,0x47,0x3a,0x3a,0x4d,0x45,0x08,0x3a,0x0a,0x40,0x6e,0x61,0x6d,0x65,0x49,0x22,0x0c,0x66,0x61,0x6e,0x66,0x61,0x6c,0x65,0x06,0x3a,0x06,0x45,0x54,0x3a,0x0b,0x40,0x70,0x69,0x74,0x63,0x68,0x69,0x69,0x3a,0x0c,0x40,0x76,0x6f,0x6c,0x75,0x6d,0x65,0x69,0x69))
     ShowMessageFace("",0,0,2,3)
     ShowMessage("メロディが仲間に加わった！")
     Wait(60)
     EndEventProcessing()
     0()
    IfPlayerPicksChoice(1,null)
     ShowMessageFace("mob_odoriko1_fc1",0,0,2,4)
     ShowMessage("\\n<Melody>くじけないもんね！")
     0()
    404()
    0()
   EndIf()
   0()
  EndIf()
  RunCommonEvent(7171)
  0()
 PAGE   2
  // condition: party contains actor #560
  0()



EVENT   3
 PAGE   1
  ShowMessageFace("",0,0,2,1)
  ShowMessage("\\n<Man>チキショー、神め！ そんなに俺をいじめて楽しいのかー！")
  355("actor_label_jump")
  EndEventProcessing()
  DefineLabel("26")
  ShowMessageFace("iriasu_fc4",1,0,2,2)
  ShowMessage("\\n<Ilias>楽しいです。")
  EndEventProcessing()
  0()



EVENT   5
 PAGE   1
  ShowMessageFace("",0,0,2,1)
  ShowMessage("\\n<Nun>このような町では、純粋に祈る者もなく…… みな物欲にまみれた祈りを捧げる有様です。")
  355("actor_label_jump")
  EndEventProcessing()
  DefineLabel("26")
  ShowMessageFace("iriasu_fc4",2,0,2,2)
  ShowMessage("\\n<Ilias>なんと嘆かわしい…… この町では、入念に雷リストを作らなければなりませんね。")
  EndEventProcessing()
  0()
