﻿
DisplayName "Grandoll"



EVENT   1
 PAGE   1
  250(bytes(0x04,0x08,0x6f,0x3a,0x0c,0x52,0x50,0x47,0x3a,0x3a,0x53,0x45,0x08,0x3a,0x0a,0x40,0x6e,0x61,0x6d,0x65,0x49,0x22,0x09,0x4d,0x6f,0x76,0x65,0x06,0x3a,0x06,0x45,0x54,0x3a,0x0b,0x40,0x70,0x69,0x74,0x63,0x68,0x69,0x69,0x3a,0x0c,0x40,0x76,0x6f,0x6c,0x75,0x6d,0x65,0x69,0x55))
  TeleportPlayer(0,2,85,271,0,0)
  0()



EVENT   7
 PAGE   1
  ChangeSwitch(31,31,1)
  250(bytes(0x04,0x08,0x6f,0x3a,0x0c,0x52,0x50,0x47,0x3a,0x3a,0x53,0x45,0x08,0x3a,0x0a,0x40,0x6e,0x61,0x6d,0x65,0x49,0x22,0x09,0x4d,0x6f,0x76,0x65,0x06,0x3a,0x06,0x45,0x54,0x3a,0x0b,0x40,0x70,0x69,0x74,0x63,0x68,0x69,0x69,0x3a,0x0c,0x40,0x76,0x6f,0x6c,0x75,0x6d,0x65,0x69,0x55))
  TeleportPlayer(0,624,30,32,0,0)
  If(1,1030,0,1,2)
   241(bytes(0x04,0x08,0x6f,0x3a,0x0d,0x52,0x50,0x47,0x3a,0x3a,0x42,0x47,0x4d,0x08,0x3a,0x0a,0x40,0x6e,0x61,0x6d,0x65,0x49,0x22,0x09,0x73,0x61,0x6b,0x69,0x06,0x3a,0x06,0x45,0x54,0x3a,0x0c,0x40,0x76,0x6f,0x6c,0x75,0x6d,0x65,0x69,0x69,0x3a,0x0b,0x40,0x70,0x69,0x74,0x63,0x68,0x69,0x69))
   0()
  EndIf()
  0()



EVENT   9
 PAGE   1
  250(bytes(0x04,0x08,0x6f,0x3a,0x0c,0x52,0x50,0x47,0x3a,0x3a,0x53,0x45,0x08,0x3a,0x0a,0x40,0x6e,0x61,0x6d,0x65,0x49,0x22,0x09,0x4d,0x6f,0x76,0x65,0x06,0x3a,0x06,0x45,0x54,0x3a,0x0b,0x40,0x70,0x69,0x74,0x63,0x68,0x69,0x69,0x3a,0x0c,0x40,0x76,0x6f,0x6c,0x75,0x6d,0x65,0x69,0x55))
  TeleportPlayer(0,338,79,62,0,0)
  0()



EVENT   10
 PAGE   1
  250(bytes(0x04,0x08,0x6f,0x3a,0x0c,0x52,0x50,0x47,0x3a,0x3a,0x53,0x45,0x08,0x3a,0x0a,0x40,0x6e,0x61,0x6d,0x65,0x49,0x22,0x09,0x4d,0x6f,0x76,0x65,0x06,0x3a,0x06,0x45,0x54,0x3a,0x0b,0x40,0x70,0x69,0x74,0x63,0x68,0x69,0x69,0x3a,0x0c,0x40,0x76,0x6f,0x6c,0x75,0x6d,0x65,0x69,0x55))
  TeleportPlayer(0,338,11,51,0,0)
  0()



EVENT   13
 PAGE   1
  250(bytes(0x04,0x08,0x6f,0x3a,0x0c,0x52,0x50,0x47,0x3a,0x3a,0x53,0x45,0x08,0x3a,0x0a,0x40,0x6e,0x61,0x6d,0x65,0x49,0x22,0x09,0x4d,0x6f,0x76,0x65,0x06,0x3a,0x06,0x45,0x54,0x3a,0x0b,0x40,0x70,0x69,0x74,0x63,0x68,0x69,0x69,0x3a,0x0c,0x40,0x76,0x6f,0x6c,0x75,0x6d,0x65,0x69,0x55))
  TeleportPlayer(0,338,59,23,0,0)
  0()



EVENT   15
 PAGE   1
  250(bytes(0x04,0x08,0x6f,0x3a,0x0c,0x52,0x50,0x47,0x3a,0x3a,0x53,0x45,0x08,0x3a,0x0a,0x40,0x6e,0x61,0x6d,0x65,0x49,0x22,0x09,0x4d,0x6f,0x76,0x65,0x06,0x3a,0x06,0x45,0x54,0x3a,0x0b,0x40,0x70,0x69,0x74,0x63,0x68,0x69,0x69,0x3a,0x0c,0x40,0x76,0x6f,0x6c,0x75,0x6d,0x65,0x69,0x55))
  TeleportPlayer(0,338,109,46,0,0)
  0()



EVENT   16
 PAGE   1
  250(bytes(0x04,0x08,0x6f,0x3a,0x0c,0x52,0x50,0x47,0x3a,0x3a,0x53,0x45,0x08,0x3a,0x0a,0x40,0x6e,0x61,0x6d,0x65,0x49,0x22,0x09,0x4d,0x6f,0x76,0x65,0x06,0x3a,0x06,0x45,0x54,0x3a,0x0b,0x40,0x70,0x69,0x74,0x63,0x68,0x69,0x69,0x3a,0x0c,0x40,0x76,0x6f,0x6c,0x75,0x6d,0x65,0x69,0x55))
  TeleportPlayer(0,338,127,57,0,0)
  0()



EVENT   17
 PAGE   1
  250(bytes(0x04,0x08,0x6f,0x3a,0x0c,0x52,0x50,0x47,0x3a,0x3a,0x53,0x45,0x08,0x3a,0x0a,0x40,0x6e,0x61,0x6d,0x65,0x49,0x22,0x09,0x4d,0x6f,0x76,0x65,0x06,0x3a,0x06,0x45,0x54,0x3a,0x0b,0x40,0x70,0x69,0x74,0x63,0x68,0x69,0x69,0x3a,0x0c,0x40,0x76,0x6f,0x6c,0x75,0x6d,0x65,0x69,0x55))
  TeleportPlayer(0,338,113,23,0,0)
  0()



EVENT   18
 PAGE   1
  250(bytes(0x04,0x08,0x6f,0x3a,0x0c,0x52,0x50,0x47,0x3a,0x3a,0x53,0x45,0x08,0x3a,0x0a,0x40,0x6e,0x61,0x6d,0x65,0x49,0x22,0x09,0x4d,0x6f,0x76,0x65,0x06,0x3a,0x06,0x45,0x54,0x3a,0x0b,0x40,0x70,0x69,0x74,0x63,0x68,0x69,0x69,0x3a,0x0c,0x40,0x76,0x6f,0x6c,0x75,0x6d,0x65,0x69,0x55))
  TeleportPlayer(0,338,94,86,0,0)
  0()



EVENT   19
 PAGE   1
  250(bytes(0x04,0x08,0x6f,0x3a,0x0c,0x52,0x50,0x47,0x3a,0x3a,0x53,0x45,0x08,0x3a,0x0a,0x40,0x6e,0x61,0x6d,0x65,0x49,0x22,0x09,0x4d,0x6f,0x76,0x65,0x06,0x3a,0x06,0x45,0x54,0x3a,0x0b,0x40,0x70,0x69,0x74,0x63,0x68,0x69,0x69,0x3a,0x0c,0x40,0x76,0x6f,0x6c,0x75,0x6d,0x65,0x69,0x55))
  TeleportPlayer(0,338,131,82,0,0)
  0()



EVENT   20
 PAGE   1
  250(bytes(0x04,0x08,0x6f,0x3a,0x0c,0x52,0x50,0x47,0x3a,0x3a,0x53,0x45,0x08,0x3a,0x0a,0x40,0x6e,0x61,0x6d,0x65,0x49,0x22,0x09,0x4d,0x6f,0x76,0x65,0x06,0x3a,0x06,0x45,0x54,0x3a,0x0b,0x40,0x70,0x69,0x74,0x63,0x68,0x69,0x69,0x3a,0x0c,0x40,0x76,0x6f,0x6c,0x75,0x6d,0x65,0x69,0x55))
  TeleportPlayer(0,338,155,77,0,0)
  0()



EVENT   21
 PAGE   1
  250(bytes(0x04,0x08,0x6f,0x3a,0x0c,0x52,0x50,0x47,0x3a,0x3a,0x53,0x45,0x08,0x3a,0x0a,0x40,0x6e,0x61,0x6d,0x65,0x49,0x22,0x09,0x4d,0x6f,0x76,0x65,0x06,0x3a,0x06,0x45,0x54,0x3a,0x0b,0x40,0x70,0x69,0x74,0x63,0x68,0x69,0x69,0x3a,0x0c,0x40,0x76,0x6f,0x6c,0x75,0x6d,0x65,0x69,0x55))
  TeleportPlayer(0,338,9,81,0,0)
  0()



EVENT   23
 PAGE   1
  250(bytes(0x04,0x08,0x6f,0x3a,0x0c,0x52,0x50,0x47,0x3a,0x3a,0x53,0x45,0x08,0x3a,0x0a,0x40,0x6e,0x61,0x6d,0x65,0x49,0x22,0x09,0x4d,0x6f,0x76,0x65,0x06,0x3a,0x06,0x45,0x54,0x3a,0x0b,0x40,0x70,0x69,0x74,0x63,0x68,0x69,0x69,0x3a,0x0c,0x40,0x76,0x6f,0x6c,0x75,0x6d,0x65,0x69,0x55))
  TeleportPlayer(0,338,34,81,0,0)
  0()



EVENT   27
 PAGE   1
  250(bytes(0x04,0x08,0x6f,0x3a,0x0c,0x52,0x50,0x47,0x3a,0x3a,0x53,0x45,0x08,0x3a,0x0a,0x40,0x6e,0x61,0x6d,0x65,0x49,0x22,0x09,0x4d,0x6f,0x76,0x65,0x06,0x3a,0x06,0x45,0x54,0x3a,0x0b,0x40,0x70,0x69,0x74,0x63,0x68,0x69,0x69,0x3a,0x0c,0x40,0x76,0x6f,0x6c,0x75,0x6d,0x65,0x69,0x55))
  TeleportPlayer(0,338,14,20,0,0)
  0()



EVENT   28
 PAGE   1
  ShowMessageFace("",0,0,2,1)
  ShowMessage("\\n<Shopkeeper's Father>防具が守るはあなたの命！ ドラゴンの名を冠する防具は、炎の威力を弱めるぜ！")
  Shop(2,23,0,0,false)
  605(2,75,0,0)
  605(2,152,0,0)
  605(2,167,0,0)
  605(2,187,0,0)
  605(2,264,0,0)
  605(2,302,0,0)
  0()



EVENT   31
 PAGE   1
  ShowMessageFace("",0,0,2,1)
  ShowMessage("\\n<Woman>美味しい野菜、珍しい野菜、季節の野菜…… 存分に味わっていきなよ～！")
  Shop(0,309,0,0,false)
  605(0,308,0,0)
  605(0,310,0,0)
  605(0,312,0,0)
  605(0,318,0,0)
  0()



EVENT   30
 PAGE   1
  ShowMessageFace("",0,0,2,1)
  ShowMessage("\\n<Young Girl>産地さまざま、各種取り揃え！ お腹が減っていませんか～？")
  Shop(0,305,0,0,false)
  605(0,313,0,0)
  605(0,319,0,0)
  605(0,338,0,0)
  605(0,343,0,0)
  605(0,360,0,0)
  0()



EVENT   34
 PAGE   1
  ShowMessageFace("",0,0,2,1)
  ShowMessage("\\n<Shopkeeper>異国の名産、ここにあり！ こんなの、普段は食べられないぜ～！")
  Shop(0,332,0,0,false)
  605(0,336,0,0)
  605(0,339,0,0)
  605(0,414,0,0)
  605(0,434,0,0)
  605(0,435,0,0)
  0()



EVENT   35
 PAGE   1
  ShowMessageFace("",0,0,2,1)
  ShowMessage("\\n<Female Martial Artist?>アチョー！　アタシの祖国、おいしい肉まんアルね！ でも、今は材料切れアル……")
  If(0,4,0)
   ShowMessageFace("alice_fc5",3,0,2,2)
   ShowMessage("\\n<Alice>ざんねん……また今度、出直してみるか。")
   0()
  EndIf()
  If(0,5,0)
   ShowMessageFace("iriasu_fc4",2,0,2,3)
   ShowMessage("\\n<Ilias>残念です、また来ましょう……")
   0()
  EndIf()
  0()



EVENT   29
 PAGE   1
  ShowMessageFace("",0,0,2,1)
  ShowMessage("\\n<Shopkeeper>砂漠の旅は、アイテム命！ 便利なアクセサリも取り揃えてるよ～！")
  Shop(0,2,0,0,false)
  605(0,7,0,0)
  605(0,11,0,0)
  605(0,13,0,0)
  605(0,14,0,0)
  605(0,15,0,0)
  605(0,16,0,0)
  605(0,17,0,0)
  605(0,18,0,0)
  605(0,19,0,0)
  605(0,23,0,0)
  605(0,35,0,0)
  605(0,75,0,0)
  605(2,1711,0,0)
  605(2,1737,0,0)
  0()



EVENT   38
 PAGE   1
  ShowMessageFace("",0,0,2,1)
  ShowMessage("\\n<Guard>マギステア村への道のりを、説明しましょうか？")
  ShowChoices(strings("Yes","No"),2)
  IfPlayerPicksChoice(0,null)
   ShowMessageFace("",0,0,2,2)
   ShowMessage("\\n<Guard>この町を出ると、すぐ北西に看板があるでしょう。 そこにあるように、まっすぐ北上すればサファル遺跡です。")
   ShowMessageFace("",0,0,2,3)
   ShowMessage("\\n<Guard>そしてサファル遺跡から、ひらすら西に。 橋を渡ってさらに進めば、緑の大地が見えてくるはずです。")
   ShowMessageFace("",0,0,2,4)
   ShowMessage("\\n<Guard>サキちゃん、キラッ☆")
   ShowMessageFace("",0,0,2,5)
   ShowMessage("\\n<Guard>そこまで来たら、今度は南進。 橋を渡ってひたすら南に行けば、マギステア村に到着しますよ。")
   ShowMessageFace("",0,0,2,6)
   ShowMessage("\\n<Guard>位置的には、サバサ城の真西なのですが…… 山脈や川のせいで、大きくルートする形になるのです。")
   0()
  IfPlayerPicksChoice(1,null)
   ShowMessageFace("",0,0,2,7)
   ShowMessage("\\n<Guard>サキちゃん、キラッ☆")
   0()
  404()
  0()



EVENT   39
 PAGE   1
  // condition: variable 1028 >= 8
  ShowMessageFace("ruka_fc1",0,0,2,1)
  ShowMessage("\\n<Luka>グランドールに到着したね……")
  ShowMessageFace("sara_fc1",0,0,2,2)
  ShowMessage("\\n<Sara>ここからマギステア村までは、まだ少々遠いわ。 とにかく、急がないと……")
  205(38,bytes(0x04,0x08,0x6f,0x3a,0x13,0x52,0x50,0x47,0x3a,0x3a,0x4d,0x6f,0x76,0x65,0x52,0x6f,0x75,0x74,0x65,0x09,0x3a,0x0c,0x40,0x72,0x65,0x70,0x65,0x61,0x74,0x46,0x3a,0x0f,0x40,0x73,0x6b,0x69,0x70,0x70,0x61,0x62,0x6c,0x65,0x46,0x3a,0x0a,0x40,0x77,0x61,0x69,0x74,0x54,0x3a,0x0a,0x40,0x6c,0x69,0x73,0x74,0x5b,0x07,0x6f,0x3a,0x15,0x52,0x50,0x47,0x3a,0x3a,0x4d,0x6f,0x76,0x65,0x43,0x6f,0x6d,0x6d,0x61,0x6e,0x64,0x07,0x3a,0x0a,0x40,0x63,0x6f,0x64,0x65,0x69,0x07,0x3a,0x10,0x40,0x70,0x61,0x72,0x61,0x6d,0x65,0x74,0x65,0x72,0x73,0x5b,0x00,0x6f,0x3b,0x0a,0x07,0x3b,0x0b,0x69,0x00,0x3b,0x0c,0x5b,0x00))
  ShowMessageFace("",0,0,2,3)
  ShowMessage("\\n<Guard>サラ様、お待ちしておりました。 マギステア村までの旅路は、私にお尋ね下さい。")
  ShowMessageFace("",0,0,2,4)
  ShowMessage("\\n<Guard>しかし激突はいったん収まり、反乱軍は近くの塔にこもった様子。 体勢は万全にされるのが良いでしょう。")
  If(1,1030,0,0,0)
   ChangeVariable(1030,1030,0,0,1)
   ShowMessageFace("",0,0,2,5)
   ShowMessage("\\n<Guard>サキちゃん、キラッ☆")
   If(0,6,0)
    ShowMessageFace("sonia_fc3",2,0,2,6)
    ShowMessage("\\n<Sonya>ナチュラルにおかしなこと言った！？")
    0()
   Else()
    ShowMessageFace("ruka_fc1",0,0,2,7)
    ShowMessage("\\n<Luka>……えっ？")
    0()
   EndIf()
   ShowMessageFace("",0,0,2,8)
   ShowMessage("\\n<Guard>失礼……この町の大劇場を占拠したサキュバスに、 誘惑の術を掛けられてしまったのです。")
   ShowMessageFace("",0,0,2,9)
   ShowMessage("\\n<Guard>大事には至りませんでしたが…… しゃっくりのように、たまに妙な言葉が出てきて……キラッ☆")
   ShowMessageFace("sara_fc1",4,0,2,10)
   ShowMessage("\\n<Sara>城に戻って休んだ方がいいんじゃない……？")
   ShowMessageFace("",0,0,2,11)
   ShowMessage("\\n<Guard>いえいえ、ときに変なことを口走る以外に問題はありません。 任務を続けさせて頂きます、サキちゃんハァハァ。")
   If(0,4,0)
    ShowMessageFace("alice_fc5",0,0,2,12)
    ShowMessage("\\n<Alice>そう言えば…… 大劇場を占拠したサキュバスがいると、聞いた気がするな。")
    ShowMessageFace("alice_fc5",0,0,2,13)
    ShowMessage("\\n<Alice>こんな被害まで広げているのならば、 退治した方がいいのではないか？")
    0()
   EndIf()
   If(0,5,0)
    ShowMessageFace("iriasu_fc4",2,0,2,14)
    ShowMessage("\\n<Ilias>そう言えば…… 汚らわしい淫魔が、大劇場を占拠したという噂がありました。")
    ShowMessageFace("iriasu_fc4",7,0,2,15)
    ShowMessage("\\n<Ilias>民の誘惑という狼藉を働いているなら、放置はなりません。 今すぐ、その者を滅ぼしに行きましょう。")
    0()
   EndIf()
   ShowMessageFace("sara_fc1",4,0,2,16)
   ShowMessage("\\n<Sara>今すぐマギステア村に行きたいところだけど…… そのサキュバスも、退治しなきゃいけないわね。")
   ShowMessageFace("",0,0,2,17)
   ShowMessage("\\n<Guard>やめてあげて！　サキちゃんは悪くないの！！")
   If(0,6,0)
    ShowMessageFace("sonia_fc3",2,0,2,18)
    ShowMessage("\\n<Sonya>……ホァッ！？")
    0()
   EndIf()
   If(0,4,0)
    ShowMessageFace("alice_fc5",0,0,2,19)
    ShowMessage("\\n<Alice>本人の自覚はないが、かなり誘惑されているようだな。 早急に対処せねば、被害が広がるかもしれんぞ……")
    0()
   EndIf()
   If(0,5,0)
    ShowMessageFace("iriasu_fc4",2,0,2,20)
    ShowMessage("\\n<Ilias>本人の自覚はありませんが、誘惑が深層に及んでいますね。 早急に対処しないと、被害が広がる恐れがあります……")
    0()
   EndIf()
   ShowMessageFace("ruka_fc1",0,0,2,21)
   ShowMessage("\\n<Luka>大劇場にいるんだよね……よし、行こう！")
   If(4,129,0)
    ShowMessageFace("brunhild_fc1",0,0,2,22)
    ShowMessage("\\n<Hild>サキュバスをやっつければいいんだね…… ヒルデ、がんばる……")
    0()
   EndIf()
   205(38,bytes(0x04,0x08,0x6f,0x3a,0x13,0x52,0x50,0x47,0x3a,0x3a,0x4d,0x6f,0x76,0x65,0x52,0x6f,0x75,0x74,0x65,0x09,0x3a,0x0c,0x40,0x72,0x65,0x70,0x65,0x61,0x74,0x46,0x3a,0x0f,0x40,0x73,0x6b,0x69,0x70,0x70,0x61,0x62,0x6c,0x65,0x46,0x3a,0x0a,0x40,0x77,0x61,0x69,0x74,0x46,0x3a,0x0a,0x40,0x6c,0x69,0x73,0x74,0x5b,0x08,0x6f,0x3a,0x15,0x52,0x50,0x47,0x3a,0x3a,0x4d,0x6f,0x76,0x65,0x43,0x6f,0x6d,0x6d,0x61,0x6e,0x64,0x07,0x3a,0x0a,0x40,0x63,0x6f,0x64,0x65,0x69,0x08,0x3a,0x10,0x40,0x70,0x61,0x72,0x61,0x6d,0x65,0x74,0x65,0x72,0x73,0x5b,0x00,0x6f,0x3b,0x0a,0x07,0x3b,0x0b,0x69,0x16,0x3b,0x0c,0x5b,0x00,0x6f,0x3b,0x0a,0x07,0x3b,0x0b,0x69,0x00,0x3b,0x0c,0x5b,0x00))
   ShowMessageFace("",0,0,2,23)
   ShowMessage("マギステア村まで、急いでいる身ではあるが…… この一件も、放置はできない。")
   ShowMessageFace("",0,0,2,24)
   ShowMessage("相手はサキュバス1人のようだし、時間は掛からないだろう。 大劇場に行って、退治しよう――")
   0()
  EndIf()
  0()
 PAGE   2
  // condition: variable 1029 >= 3
  0()
 PAGE   3
  // condition: variable 1030 >= 1
  0()



EVENT   40
 PAGE   1
  ShowMessageFace("",0,0,2,1)
  ShowMessage("\\n<Traveling Warrior>ここは大繁華街だけに、装備品はバラエティが少ないな。 武器屋に至っては休業中ではないか……")
  0()



EVENT   25
 PAGE   1
  ShowMessageFace("",0,0,2,1)
  ShowMessage("ルカは仲間を外に待たせ、一人でテントに入った……")
  216(1)
  250(bytes(0x04,0x08,0x6f,0x3a,0x0c,0x52,0x50,0x47,0x3a,0x3a,0x53,0x45,0x08,0x3a,0x0a,0x40,0x6e,0x61,0x6d,0x65,0x49,0x22,0x09,0x4d,0x6f,0x76,0x65,0x06,0x3a,0x06,0x45,0x54,0x3a,0x0b,0x40,0x70,0x69,0x74,0x63,0x68,0x69,0x69,0x3a,0x0c,0x40,0x76,0x6f,0x6c,0x75,0x6d,0x65,0x69,0x55))
  TeleportPlayer(0,338,62,82,0,0)
  0()



EVENT   41
 PAGE   1
  ShowMessageFace("",0,0,2,1)
  ShowMessage("\\n<Youth>なんてすごい……踊り……")
  0()



EVENT   42
 PAGE   1
  ShowMessageFace("",0,0,2,1)
  ShowMessage("\\n<Guard>完全に……骨抜きにされたよ……")
  0()



EVENT   43
 PAGE   1
  ShowMessageFace("",0,0,2,1)
  ShowMessage("\\n<Burly Man>おう、ここは鍛冶ギルドの本部だぜ！ 鍛冶もやってるから、冒険者なら寄っていきなよ！")
  355("actor_label_jump")
  EndEventProcessing()
  DefineLabel("68")
  ShowMessageFace("dragonp_fc1",0,0,2,2)
  ShowMessage("\\n<Papi>うが！　世界中の凄腕が集っているのか！")
  EndEventProcessing()
  0()



EVENT   44
 PAGE   1
  ShowMessageFace("",0,0,2,1)
  ShowMessage("\\n<Guard>ここはサバサ軍の駐留所です。 我々が、このグランドールの治安を守っているのですよ。")
  ShowMessageFace("",0,0,2,2)
  ShowMessage("\\n<Guard>……あと、洗濯も自分でやっています。")
  355("actor_label_jump")
  EndEventProcessing()
  DefineLabel("64")
  ShowMessageFace("pramia_fc1",0,0,2,3)
  ShowMessage("\\n<Teeny>……手伝ってあげようか？")
  ShowMessageFace("",0,0,2,4)
  ShowMessage("\\n<Guard>いえ、これも仕事ですので……")
  EndEventProcessing()
  DefineLabel("98")
  ShowMessageFace("minikani_fc1",0,0,2,5)
  ShowMessage("\\n<Amy>お洗濯、手伝っちゃうよ？")
  ShowMessageFace("",0,0,2,6)
  ShowMessage("\\n<Guard>いえ、これも仕事ですので……")
  EndEventProcessing()
  DefineLabel("109")
  ShowMessageFace("kani_fc1",0,0,2,7)
  ShowMessage("\\n<Soapy>私が洗ってあげようか？")
  ShowMessageFace("",0,0,2,8)
  ShowMessage("\\n<Guard>いえ、これも仕事ですので……")
  EndEventProcessing()
  0()



EVENT   45
 PAGE   1
  ShowMessageFace("",0,0,2,1)
  ShowMessage("\\n<Visitor>あれ……？　店主はどこに行ったんだ？")
  0()



EVENT   46
 PAGE   1
  ShowMessageFace("",0,0,2,1)
  ShowMessage("\\n<Shopkeeper>うぇぇぇ……昨晩、飲み過ぎたよ……")
  355("actor_label_jump")
  EndEventProcessing()
  DefineLabel("74")
  ShowMessageFace("usagi_fc1",2,0,2,2)
  ShowMessage("\\n<Barnny>あらあら、もう……")
  EndEventProcessing()
  DefineLabel("75")
  ShowMessageFace("hituzi_fc1",3,0,2,3)
  ShowMessage("\\n<Mary>酒は飲めども飲まれるな……")
  EndEventProcessing()
  0()



EVENT   47
 PAGE   1
  ShowMessageFace("",0,0,2,1)
  ShowMessage("\\n<Man>うちの酒、分かる奴だけ買っていきな！")
  Shop(0,428,0,0,false)
  605(0,431,0,0)
  0()



EVENT   33
 PAGE   1
  ShowMessageFace("",0,0,2,1)
  ShowMessage("\\n<Saleswoman>いらっしゃいませ～！ 美味しい果物と、ネギはいかがですか～？")
  355("actor_label_jump")
  JumpToLabel("店")
  DefineLabel("84")
  ShowMessageFace("hapy_bc_fc1",6,0,2,2)
  ShowMessage("\\n<Pii>ネギたべたい！")
  ShowMessageFace("hapy_bc_fc1",3,0,2,3)
  ShowMessage("\\n<Pina>（なんでこの子、ネギが好きなんだろう……）")
  JumpToLabel("店")
  DefineLabel("店")
  Shop(0,301,0,0,false)
  605(0,302,0,0)
  605(0,304,0,0)
  605(0,305,0,0)
  605(0,315,0,0)
  0()



EVENT   32
 PAGE   1
  ShowMessageFace("",0,0,2,1)
  ShowMessage("\\n<Old Woman>イリアスヴィル特産の野菜はいらんかね？ 聖地の味で、ご加護があるよ。")
  355("actor_label_jump")
  JumpToLabel("店")
  DefineLabel("525")
  ShowMessageFace("sonia_fc1",0,0,2,2)
  ShowMessage("\\n<Sonya>地元の野菜じゃない、久々に食べてみない？")
  JumpToLabel("店")
  DefineLabel("店")
  Shop(0,306,0,0,true)
  605(0,307,0,0)
  605(0,309,0,0)
  605(0,310,0,0)
  605(0,316,0,0)
  605(0,321,0,0)
  0()



EVENT   49
 PAGE   1
  ShowMessageFace("",0,0,2,1)
  ShowMessage("\\n<Priest>うむ、さすがイリアス様のお膝元で採れた野菜。 神聖な味がしますぞ……")
  0()



EVENT   50
 PAGE   1
  ShowMessageFace("",0,0,2,1)
  ShowMessage("\\n<Nun>そ、そうですね…… 言われてみれば、そんな気も……するような……")
  0()



EVENT   52
 PAGE   1
  If(1,1024,0,3,2)
   ShowMessageFace("",0,0,2,1)
   ShowMessage("\\n<Sleazy Man>失せな。")
   0()
  Else()
   ShowMessageFace("",0,0,2,2)
   ShowMessage("\\n<Sleazy Man>エルカさんから聞いてるぜ……入りな。")
   0()
  EndIf()
  0()



EVENT   54
 PAGE   1
  ShowMessageFace("",0,0,2,1)
  ShowMessage("\\n<Female Soldier>ここのバザー、食べ物は最高だけど…… アクセサリは、サルーンの方が良いわよね。")
  ShowMessageFace("",0,0,2,2)
  ShowMessage("\\n<Female Soldier>あそこは、とても便利なアクセサリが売っているわ。 数を揃えれば、冒険もかなり楽になるでしょうね……")
  0()



EVENT   57
 PAGE   1
  // condition: switch 4 is ON
  // condition: variable 1001 >= 17
  ShowMessageFace("iriasu_fc4",1,0,2,1)
  ShowMessage("\\n<Ilias>おいしいです、ここは良い町ですね……♪")
  ShowMessageFace("alice_fc5",5,0,2,2)
  ShowMessage("\\n<Alice>なんと意地汚い…… 試し食いで、食べ尽くしてしまう気か？")
  ShowMessageFace("iriasu_fc4",1,0,2,3)
  ShowMessage("\\n<Ilias>でも、このビスケットおいしいですよ……♪")
  ShowMessageFace("alice_fc5",7,0,2,4)
  ShowMessage("\\n<Alice>確かに、おいしい……♪")
  ShowMessageFace("ruka_fc1",0,0,2,5)
  ShowMessage("\\n<Luka>（食べてるときは仲がいいんだな……）")
  0()
 PAGE   2
  // condition: switch 5 is ON
  // condition: variable 1001 >= 17
  ShowMessageFace("alice_fc5",7,0,2,1)
  ShowMessage("\\n<Alice>うむ、うまい！　ここはなんと素晴らしい町なのだ……♪")
  ShowMessageFace("iriasu_fc4",2,0,2,2)
  ShowMessage("\\n<Ilias>試食で商品を食べ尽くそうとしている魔王がいます…… 暴虐もここに極まりましたね……")
  ShowMessageFace("alice_fc5",7,0,2,3)
  ShowMessage("\\n<Alice>だが、このビスケットはおいしいぞ……♪")
  ShowMessageFace("iriasu_fc4",1,0,2,4)
  ShowMessage("\\n<Ilias>確かに、おいしい……♪")
  ShowMessageFace("ruka_fc1",0,0,2,5)
  ShowMessage("\\n<Luka>（食べてるときは仲がいいんだな……）")
  0()
 PAGE   3
  // condition: variable 1001 >= 18
  0()



EVENT   58
 PAGE   1
  // condition: switch 4 is ON
  // condition: variable 1001 >= 17
  ShowMessageFace("slime_fc1",0,0,2,1)
  ShowMessage("\\n<Puruko>わーい、おさかなだぁ♪ もぐもぐ、もぐもぐ……")
  0()
 PAGE   2
  // condition: switch 5 is ON
  // condition: variable 1001 >= 17
  ShowMessageFace("bunnyslime_fc1",0,0,2,1)
  ShowMessage("\\n<Usako>にんじんの方が好きだけど…… おさかなも、いっぱい食べるよ～！")
  0()
 PAGE   3
  // condition: variable 1001 >= 18
  0()



EVENT   59
 PAGE   1
  // condition: switch 4 is ON
  // condition: variable 1001 >= 17
  ShowMessageFace("dog_fc1",4,0,2,1)
  ShowMessage("\\n<Wanko>骨付き肉♪　骨付き肉♪　わふわふ……♪")
  0()
 PAGE   2
  // condition: switch 5 is ON
  // condition: variable 1001 >= 17
  ShowMessageFace("youko_fc1",2,0,2,1)
  ShowMessage("\\n<Mofuyu>油あげ、ないのー！？")
  0()
 PAGE   3
  // condition: variable 1001 >= 18
  0()



EVENT   53
 PAGE   1
  ShowMessageFace("",0,0,2,1)
  ShowMessage("\\n<Horse>ヒヒーン！")
  355("actor_label_jump")
  EndEventProcessing()
  DefineLabel("101")
  ShowMessageFace("cent2_fc1",0,0,2,2)
  ShowMessage("\\n<Lihitinu>まあ、肩を落とさないでよ。 見る人が見たら、分かってくれるわ……")
  EndEventProcessing()
  0()



EVENT   66
 PAGE   1
  ShowMessageFace("",0,0,2,1)
  ShowMessage("\\n<Man>うむ、この子は毛色がいいね……")
  355("actor_label_jump")
  EndEventProcessing()
  DefineLabel("56")
  ShowMessageFace("inp_fc1",0,0,2,2)
  ShowMessage("\\n<Rami>おじさんの毛色は良くないね……")
  ShowMessageFace("",0,0,2,3)
  ShowMessage("\\n<Man>最近抜けが激しくて……って、ほっといてくれ！")
  EndEventProcessing()
  DefineLabel("89")
  ShowMessageFace("ropa_fc1",0,0,2,4)
  ShowMessage("\\n<Cindy>おいしそうね、馬も人も……")
  EndEventProcessing()
  DefineLabel("92")
  ShowMessageFace("eater_fc1",3,0,2,5)
  ShowMessage("\\n<Eater>おいしそう……")
  EndEventProcessing()
  0()



EVENT   69
 PAGE   1
  ShowMessageFace("",0,0,2,1)
  ShowMessage("\\n<Horse Trader>砂漠の馬は……速い、強い、気立てが良い！ ほら、じっくり見ていきなよ！")
  355("actor_label_jump")
  EndEventProcessing()
  DefineLabel("148")
  ShowMessageFace("datyou_fc1",3,0,2,2)
  ShowMessage("\\n<Miu>砂漠の鳥も、速くて強くて、気立てが良いですよ！")
  EndEventProcessing()
  DefineLabel("540")
  ShowMessageFace("amira_fc1",0,0,2,3)
  ShowMessage("\\n<Amira>やっぱり、サバサの馬は世界一よね。 ……味の方も。")
  EndEventProcessing()
  0()



EVENT   71
 PAGE   1
  ShowMessageFace("",0,0,2,1)
  ShowMessage("\\n<Guard>こんな馬に乗って女の子を誘えば…… 馬の上からナンパ大作戦……！")
  355("actor_label_jump")
  EndEventProcessing()
  DefineLabel("113")
  ShowMessageFace("lamia_fc1",0,0,2,2)
  ShowMessage("\\n<Anastasia>そんなのに、誰が引っ掛かるのかしら……？")
  EndEventProcessing()
  DefineLabel("141")
  ShowMessageFace("mino_fc1",0,0,2,3)
  ShowMessage("\\n<Mina>馬刺しが食いたくなってきたな……")
  EndEventProcessing()
  0()



EVENT   60
 PAGE   1
  ShowMessageFace("",0,0,2,1)
  ShowMessage("\\n<Knight>うむ、よし……いい子だ……どうどう。")
  0()



EVENT   64
 PAGE   1
  ShowMessageFace("",0,0,2,1)
  ShowMessage("\\n<Knight>盗んだ馬イクで走り出す～♪")
  0()



EVENT   67
 PAGE   1
  ShowMessageFace("",0,0,2,1)
  ShowMessage("\\n<Girl>お馬さん、のりたーい！")
  355("actor_label_jump")
  EndEventProcessing()
  DefineLabel("88")
  ShowMessageFace("jack_fc1",0,0,2,2)
  ShowMessage("\\n<Pumpkin>あたしも、乗ってみたいな……")
  EndEventProcessing()
  DefineLabel("98")
  ShowMessageFace("minikani_fc1",0,0,2,3)
  ShowMessage("\\n<Amy>あたしも、乗りたーい♪")
  EndEventProcessing()
  0()



EVENT   68
 PAGE   1
  ShowMessageFace("",0,0,2,1)
  ShowMessage("\\n<Woman>そうね、後で乗せてもらいましょうか。")
  0()



EVENT   70
 PAGE   1
  ShowMessageFace("",0,0,2,1)
  ShowMessage("\\n<Knight>遠征も近い、馬を新調するか……")
  355("actor_label_jump")
  EndEventProcessing()
  DefineLabel("101")
  ShowMessageFace("cent2_fc1",0,0,2,2)
  ShowMessage("\\n<Lihitinu>人間は大変よね……")
  EndEventProcessing()
  0()



EVENT   72
 PAGE   1
  ShowMessageFace("",0,0,2,1)
  ShowMessage("\\n<Man>この町には、ドン・ファーザーの邸宅がある。 ここをまっすぐ北に進んだ屋敷だぜ。")
  ShowMessageFace("",0,0,2,2)
  ShowMessage("\\n<Man>……まあ、間違っても見学しに行っちゃダメだぞ。 マフィアの大ボスなんだからな。")
  355("actor_label_jump")
  EndEventProcessing()
  DefineLabel("72")
  If(1,1033,0,0,0)
   ShowMessageFace("phoenix_fc1",4,0,2,3)
   ShowMessage("\\n<Mini>この町にもドンがいるのか？ 挨拶しにいくぞ！")
   0()
  EndIf()
  EndEventProcessing()
  0()



EVENT   74
 PAGE   1
  ShowMessageFace("",0,0,2,1)
  ShowMessage("\\n<Guard>この周辺は、踊り子の滞在するテント。 か弱い女性を守るため、この私が誠心誠意の警備をしております。")
  ShowMessageFace("",0,0,2,2)
  ShowMessage("\\n<Guard>踊り子さんと深い仲になりたいなどと贅沢は言いませんが…… 軽いラッキースケベくらい、ありませんかね……？")
  355("actor_label_jump")
  EndEventProcessing()
  DefineLabel("116")
  ShowMessageFace("iso_fc1",2,0,2,3)
  ShowMessage("\\n<Isabelle>ヘタレ男は、食べる気にもなれないわ……")
  EndEventProcessing()
  DefineLabel("143")
  ShowMessageFace("eva_fc1",0,0,2,4)
  ShowMessage("\\n<Eva>ないわよ。")
  EndEventProcessing()
  0()



EVENT   76
 PAGE   1
  ShowMessageFace("",0,0,2,1)
  ShowMessage("\\n<Female Soldier>炎耐性を高める防具か、ちょうどいい。 サルーン周辺のリザードマンに苦戦してたところなのさ。")
  355("actor_label_jump")
  EndEventProcessing()
  DefineLabel("72")
  ShowMessageFace("phoenix_fc1",4,0,2,2)
  ShowMessage("\\n<Mini>あたしはそんなの必要ないぞ。 炎耐性のカタマリだからな！")
  EndEventProcessing()
  DefineLabel("93")
  ShowMessageFace("liot_fc1",0,0,2,3)
  ShowMessage("\\n<Riot>ドラゴン系の敵だと？ ぜひ、手合わせ願いたいな……")
  EndEventProcessing()
  0()



EVENT   77
 PAGE   1
  ShowMessageFace("",0,0,2,1)
  ShowMessage("\\n<Noble's Daughter>バナナをありったけ頂きますわ。 ダイエットに最適ですのよ……")
  355("actor_label_jump")
  EndEventProcessing()
  DefineLabel("73")
  ShowMessageFace("hiru_fc1",0,0,2,2)
  ShowMessage("\\n<Hiru>ダイエットとか、人間は大変よねぇ…… 気になる体脂肪、ちょっと搾ってあげようか？")
  ShowMessageFace("",0,0,2,3)
  ShowMessage("\\n<Noble's Daughter>それで痩せられるなら、いくらでも！")
  ShowMessageFace("hiru_fc1",2,0,2,4)
  ShowMessage("\\n<Hiru>人間って、困ったものね……")
  EndEventProcessing()
  DefineLabel("84")
  ShowMessageFace("hapy_bc_fc1",5,0,2,5)
  ShowMessage("\\n<Pii>あたし、いっぱバナナ食べてるのに痩せないよ……？")
  ShowMessageFace("hapy_bc_fc1",3,0,2,6)
  ShowMessage("\\n<Pina>食べ過ぎだよ、ぴぃちゃん。")
  EndEventProcessing()
  0()



EVENT   78
 PAGE   1
  ShowMessageFace("",0,0,2,1)
  ShowMessage("\\n<Old Woman>この地域で冬野菜とは珍しいねぇ。 ひとつ頂こうかしら……？")
  355("actor_label_jump")
  EndEventProcessing()
  DefineLabel("113")
  ShowMessageFace("lamia_fc1",2,0,2,2)
  ShowMessage("\\n<Anastasia>冬のモノには縁がないわ…… たいてい冬眠してるもの。")
  EndEventProcessing()
  DefineLabel("147")
  ShowMessageFace("saboten_fc1",0,0,2,3)
  ShowMessage("\\n<Casta>確かに、あまり見ない野菜ですわね。 試しに、私もひとつ……")
  EndEventProcessing()
  0()



EVENT   73
 PAGE   1
  ShowMessageFace("",0,0,2,1)
  ShowMessage("\\n<Gruff Man>この町には、ドン・ファーザーの屋敷がある。 世界中のマフィアの頂点に立つ、闇の帝王さ。")
  ShowMessageFace("",0,0,2,2)
  ShowMessage("\\n<Gruff Man>もちろん俺は、ドン・ファーザーに挨拶もできないような下っ端。 いつかは俺も、ファーザーの下で……")
  355("actor_label_jump")
  EndEventProcessing()
  DefineLabel("5")
  ShowMessageFace("alice_fc5",0,0,2,3)
  ShowMessage("\\n<Alice>マフィアの親玉か。 ろくなものではあるまい……")
  EndEventProcessing()
  DefineLabel("58")
  ShowMessageFace("inp_fc2",2,0,2,4)
  ShowMessage("\\n<Remi>マフィア……こわいよう……")
  EndEventProcessing()
  DefineLabel("82")
  ShowMessageFace("suzume_fc1",3,0,2,5)
  ShowMessage("\\n<Chirp>マ、マフィア……！？ こわいです……")
  EndEventProcessing()
  0()



EVENT   80
 PAGE   1
  ShowMessageFace("",0,0,2,1)
  ShowMessage("\\n<Mermaid>砂漠のプールは、気持ちいいですよね～♪")
  355("actor_label_jump")
  EndEventProcessing()
  DefineLabel("118")
  ShowMessageFace("meia_fc1",0,0,2,2)
  ShowMessage("\\n<Meia>私も、少し泳ごうかしら……")
  EndEventProcessing()
  0()



EVENT   81
 PAGE   1
  ShowMessageFace("",0,0,2,1)
  ShowMessage("\\n<Mermaid>ねぇ、一緒に泳がない……？")
  355("actor_label_jump")
  EndEventProcessing()
  DefineLabel("117")
  ShowMessageFace("ankou_fc1",0,0,2,2)
  ShowMessage("\\n<Anko>およぐ……")
  ShowMessageFace("",0,0,2,3)
  ShowMessage("\\n<Mermaid>あ、あなたはちょっと……")
  EndEventProcessing()
  0()



EVENT   83
 PAGE   1
  ShowMessageFace("",0,0,2,1)
  ShowMessage("\\n<Youth>ここのボンボン、人魚さんを片っ端から囲いやがって……！ 奴隷みたいに扱ってるんじゃないだろうな……！？")
  0()



EVENT   84
 PAGE   1
  ShowMessageFace("",0,0,2,1)
  ShowMessage("\\n<Priest>こんなところで、ずっとのんびりしたいですよね…… ああ神よ、堕落してしまいそうです……")
  355("actor_label_jump")
  EndEventProcessing()
  DefineLabel("96")
  ShowMessageFace("delh_b_fc1",0,0,2,2)
  ShowMessage("\\n<Marion>堕ちた方が幸せよ、ふふふっ……")
  EndEventProcessing()
  DefineLabel("122")
  ShowMessageFace("sisterlamia_fc1",2,0,2,3)
  ShowMessage("\\n<Sofia>いけません、誘惑に打ち勝つのです……")
  EndEventProcessing()
  0()



EVENT   85
 PAGE   1
  ShowMessageFace("",0,0,2,1)
  ShowMessage("\\n<Mage>もう、冒険なんてどうでもいいか…… ここに家買っちゃおうかな～？")
  355("actor_label_jump")
  EndEventProcessing()
  DefineLabel("143")
  ShowMessageFace("eva_fc1",0,0,2,2)
  ShowMessage("\\n<Eva>いいわね、私もそうしようかしら…… お金ないけど。")
  EndEventProcessing()
  0()



EVENT   86
 PAGE   1
  ShowMessageFace("",0,0,2,1)
  ShowMessage("\\n<Dancer>キラッ☆")
  355("actor_label_jump")
  EndEventProcessing()
  DefineLabel("155")
  ShowMessageFace("saki_fc1",3,0,2,2)
  ShowMessage("\\n<Saki>一緒にキラッ☆")
  ShowMessageFace("saki_fc1",0,0,2,3)
  ShowMessage("\\n<Saki>……パクリがどうとか、あたしは気にしないよ。 サキだって小さい頃は、好きなアイドルを真似たりしたし☆")
  EndEventProcessing()
  0()



EVENT   87
 PAGE   1
  ShowMessageFace("",0,0,2,1)
  ShowMessage("\\n<Youth>う～ん、イマイチだなぁ……")
  0()



EVENT   88
 PAGE   1
  ShowMessageFace("",0,0,2,1)
  ShowMessage("\\n<Youth>サキちゃんに比べ、まったくオーラが感じられない……")
  0()



EVENT   89
 PAGE   1
  ShowMessageFace("",0,0,2,1)
  ShowMessage("\\n<Thief>こういう町では、皆の心が緩む…… あんたも、詐欺やスリには気をつけなよ。")
  355("actor_label_jump")
  EndEventProcessing()
  DefineLabel("143")
  ShowMessageFace("eva_fc1",0,0,2,2)
  ShowMessage("\\n<Eva>詐欺なんか、引っ掛かる連中の気が知れないわね……")
  EndEventProcessing()
  DefineLabel("169")
  ShowMessageFace("lizardthief_fc1",0,0,2,3)
  ShowMessage("\\n<Liru>ふん、逆にスリ返してやるぜ！")
  EndEventProcessing()
  0()



EVENT   91
 PAGE   1
  ShowMessageFace("",0,0,2,1)
  ShowMessage("\\n<Girl>お父さんは、タルタロスの調査をしてるの！ でも、分からない事だらけなんだって……")
  355("actor_label_jump")
  EndEventProcessing()
  DefineLabel("41")
  ShowMessageFace("stein_fc2",0,0,2,2)
  ShowMessage("\\n<Promestein>今は分からなくても、一歩一歩探究を進めれば良いことです。")
  EndEventProcessing()
  DefineLabel("94")
  ShowMessageFace("luksl_fc1",0,0,2,3)
  ShowMessage("\\n<Look Through>私にだって、分からない事がほとんどなのに…… 外の人間に分かるはずがないわよ。")
  EndEventProcessing()
  0()



EVENT   92
 PAGE   1
  ShowMessageFace("",0,0,2,1)
  ShowMessage("\\n<Man>バザーも劇場も楽しいけど…… 何より最高なのは、やっぱりカジノだよな！")
  ShowMessageFace("",0,0,2,2)
  ShowMessage("\\n<Man>カジノの場所……？ 大劇場の地下だぜ。")
  355("actor_label_jump")
  EndEventProcessing()
  DefineLabel("121")
  ShowMessageFace("page65537_fc1",2,0,2,3)
  ShowMessage("\\n<Cornelia>さあ、さっそく行きましょう！")
  EndEventProcessing()
  DefineLabel("143")
  ShowMessageFace("eva_fc1",1,0,2,4)
  ShowMessage("\\n<Eva>これで一攫千金、大金持ちよね！")
  EndEventProcessing()
  0()



EVENT   93
 PAGE   1
  ShowMessageFace("",0,0,2,1)
  ShowMessage("\\n<Sleazy Man>ここはドン・ファーザーの屋敷だ。 悪いが、立ち入りは遠慮してもらうぜ……")
  205(-1,bytes(0x04,0x08,0x6f,0x3a,0x13,0x52,0x50,0x47,0x3a,0x3a,0x4d,0x6f,0x76,0x65,0x52,0x6f,0x75,0x74,0x65,0x09,0x3a,0x0c,0x40,0x72,0x65,0x70,0x65,0x61,0x74,0x46,0x3a,0x0f,0x40,0x73,0x6b,0x69,0x70,0x70,0x61,0x62,0x6c,0x65,0x46,0x3a,0x0a,0x40,0x77,0x61,0x69,0x74,0x54,0x3a,0x0a,0x40,0x6c,0x69,0x73,0x74,0x5b,0x07,0x6f,0x3a,0x15,0x52,0x50,0x47,0x3a,0x3a,0x4d,0x6f,0x76,0x65,0x43,0x6f,0x6d,0x6d,0x61,0x6e,0x64,0x07,0x3a,0x0a,0x40,0x63,0x6f,0x64,0x65,0x69,0x06,0x3a,0x10,0x40,0x70,0x61,0x72,0x61,0x6d,0x65,0x74,0x65,0x72,0x73,0x5b,0x00,0x6f,0x3b,0x0a,0x07,0x3b,0x0b,0x69,0x00,0x3b,0x0c,0x5b,0x00))
  0()
 PAGE   2
  // condition: variable 1024 >= 4
  0()



EVENT   94
 PAGE   1
  ShowMessageFace("",0,0,2,1)
  ShowMessage("\\n<Sleazy Man>ここはドン・ファーザーの屋敷だ。 悪いが、立ち入りは遠慮してもらうぜ……")
  205(-1,bytes(0x04,0x08,0x6f,0x3a,0x13,0x52,0x50,0x47,0x3a,0x3a,0x4d,0x6f,0x76,0x65,0x52,0x6f,0x75,0x74,0x65,0x09,0x3a,0x0c,0x40,0x72,0x65,0x70,0x65,0x61,0x74,0x46,0x3a,0x0f,0x40,0x73,0x6b,0x69,0x70,0x70,0x61,0x62,0x6c,0x65,0x46,0x3a,0x0a,0x40,0x77,0x61,0x69,0x74,0x54,0x3a,0x0a,0x40,0x6c,0x69,0x73,0x74,0x5b,0x07,0x6f,0x3a,0x15,0x52,0x50,0x47,0x3a,0x3a,0x4d,0x6f,0x76,0x65,0x43,0x6f,0x6d,0x6d,0x61,0x6e,0x64,0x07,0x3a,0x0a,0x40,0x63,0x6f,0x64,0x65,0x69,0x06,0x3a,0x10,0x40,0x70,0x61,0x72,0x61,0x6d,0x65,0x74,0x65,0x72,0x73,0x5b,0x00,0x6f,0x3b,0x0a,0x07,0x3b,0x0b,0x69,0x00,0x3b,0x0c,0x5b,0x00))
  0()
 PAGE   2
  // condition: variable 1024 >= 4
  0()



EVENT   51
 PAGE   1
  ShowMessageFace("",0,0,2,1)
  ShowMessage("\\n<Watchman>あんまりウロウロするなよ……")
  0()



EVENT   95
 PAGE   1
  ShowMessageFace("",0,0,2,1)
  ShowMessage("\\n<Watchman>こんな所で何してる？ 用があるなら中に入りな……")
  0()



EVENT   96
 PAGE   1
  ShowMessageFace("",0,0,2,1)
  ShowMessage("\\n<Minstrel>サキちゃん、キラッ☆")
  ShowMessageFace("",0,0,2,2)
  ShowMessage("\\n<Minstrel>ああ……このフレーズが頭から離れない…… 詩作が全く進まない……")
  ShowMessageFace("",0,0,2,3)
  ShowMessage("\\n<Minstrel>頭がサキちゃんになっちゃうよぉ……")
  355("actor_label_jump")
  EndEventProcessing()
  DefineLabel("136")
  ShowMessageFace("elf_fc1",2,0,2,4)
  ShowMessage("\\n<Claudia>気持ち悪いわね……")
  EndEventProcessing()
  DefineLabel("145")
  ShowMessageFace("mukade_fc1",2,0,2,5)
  ShowMessage("\\n<Vanessa>私より気持ち悪いわ……")
  EndEventProcessing()
  DefineLabel("155")
  ShowMessageFace("saki_fc1",3,0,2,6)
  ShowMessage("\\n<Saki>悪気はなかったんだけど……ゴメンね☆")
  EndEventProcessing()
  0()



EVENT   97
 PAGE   1
  ShowMessageFace("",0,0,2,1)
  ShowMessage("\\n<Youth>今年のノーム祭りも、ド派手にやるんだろうな～！ 楽しみだぜ！")
  355("actor_label_jump")
  EndEventProcessing()
  DefineLabel("13")
  ShowMessageFace("gnome_fc1",0,0,2,2)
  ShowMessage("\\n<Gnome>……………………")
  EndEventProcessing()
  DefineLabel("137")
  ShowMessageFace("braunys_fc1",6,0,2,3)
  ShowMessage("\\n<Love & Lamb>あたし達も、大きなパンを焼くよ～♪")
  EndEventProcessing()
  0()



EVENT   98
 PAGE   1
  ShowMessageFace("",0,0,2,1)
  ShowMessage("\\n<Merchant>この武器は衛兵達に納入するものなんだ。 すまないね、他を当たってくれよ……")
  0()



EVENT   99
 PAGE   1
  ShowMessageFace("",0,0,2,1)
  ShowMessage("\\n<Boy>サキちゃん、キラッ☆")
  355("actor_label_jump")
  EndEventProcessing()
  DefineLabel("155")
  ShowMessageFace("saki_fc1",3,0,2,2)
  ShowMessage("\\n<Saki>仲良く、キラッ☆")
  EndEventProcessing()
  0()



EVENT   100
 PAGE   1
  ShowMessageFace("",0,0,2,1)
  ShowMessage("\\n<Girl>サキちゃん、キラッ☆")
  355("actor_label_jump")
  EndEventProcessing()
  DefineLabel("155")
  ShowMessageFace("saki_fc1",3,0,2,2)
  ShowMessage("\\n<Saki>一緒に、キラッ☆")
  EndEventProcessing()
  0()



EVENT   101
 PAGE   1
  ShowMessageFace("",0,0,2,1)
  ShowMessage("\\n<Man>グランゴルドがこの町を占領したら、どうなるのだろう…… 自由の気風は、間違いなく踏みにじられるのだろうな。")
  355("actor_label_jump")
  EndEventProcessing()
  DefineLabel("148")
  ShowMessageFace("datyou_fc1",3,0,2,2)
  ShowMessage("\\n<Miu>祖国が危なくなった時は、地平線の果てまで逃げますよ！")
  EndEventProcessing()
  DefineLabel("149")
  ShowMessageFace("lamp_fc1",0,0,2,3)
  ShowMessage("\\n<Jeannie>砂漠の自由な心意気、何者にも奪われたくないものです……")
  EndEventProcessing()
  0()



EVENT   102
 PAGE   1
  ShowMessageFace("",0,0,2,1)
  ShowMessage("\\n<Thief>グランドノアに渡りたいが、ルートが封じられてしまったな。 まさか港町への洞窟が封鎖されるとは……")
  ShowMessageFace("",0,0,2,2)
  ShowMessage("\\n<Thief>こればっかりは、大人しく待つしかないな。 時が経てば、情勢も変化するだろう……")
  0()



EVENT   104
 PAGE   1
  ShowMessageFace("",0,0,2,1)
  ShowMessage("\\n<Old Man>砂漠の町ってのは、本当に広いんだな。 俺の田舎とはスケール感が違いすぎるぜ……")
  355("actor_label_jump")
  EndEventProcessing()
  DefineLabel("90")
  ShowMessageFace("meda_fc1",0,0,2,2)
  ShowMessage("\\n<Meru Meru>広いところ、苦手…… かさかさ、もそもそ……")
  EndEventProcessing()
  DefineLabel("115")
  ShowMessageFace("kurage_fc1",0,0,2,3)
  ShowMessage("\\n<Kurage>海は、もっと広いよ……")
  EndEventProcessing()
  0()



EVENT   105
 PAGE   1
  ShowMessageFace("",0,0,2,1)
  ShowMessage("\\n<Maid>少し休憩でございます。 ……ずっと休憩でございます。")
  355("actor_label_jump")
  EndEventProcessing()
  DefineLabel("64")
  ShowMessageFace("pramia_fc1",0,0,2,2)
  ShowMessage("\\n<Teeny>サボりメイドだ……")
  EndEventProcessing()
  DefineLabel("143")
  ShowMessageFace("eva_fc1",0,0,2,3)
  ShowMessage("\\n<Eva>私の人生も休憩中よ。 もう少ししたら、本気でがんばるわ。")
  EndEventProcessing()
  0()



EVENT   103
 PAGE   1
  ShowMessageFace("",0,0,2,1)
  ShowMessage("\\n<Old Man>この町は広い。 そこらを回るだけでも、良い運動になるぞ。")
  355("actor_label_jump")
  EndEventProcessing()
  DefineLabel("99")
  ShowMessageFace("namazu_fc1",2,0,2,2)
  ShowMessage("\\n<Gigi>運動以前に、暑さですっかりバテバテじゃ……")
  EndEventProcessing()
  DefineLabel("148")
  ShowMessageFace("datyou_fc1",3,0,2,3)
  ShowMessage("\\n<Miu>そうですね、何周も回りますよ～！")
  EndEventProcessing()
  0()



EVENT   106
 PAGE   1
  ShowMessageFace("",0,0,2,1)
  ShowMessage("\\n<Young Man>いちゃいちゃ……")
  ShowMessageFace("",0,0,2,2)
  ShowMessage("\\n<Young Woman>いちゃいちゃ……")
  355("actor_label_jump")
  EndEventProcessing()
  DefineLabel("163")
  ShowMessageFace("lily_fc1",6,0,2,3)
  ShowMessage("\\n<Lily>私の前での青春は許さないわ……")
  ShowMessageFace("",0,0,2,4)
  ShowMessage("\\n<Young Man>なんだ、この触手……！？")
  ShowMessageFace("",0,0,2,5)
  ShowMessage("\\n<Young Woman>いやーっ！")
  EndEventProcessing()
  0()



EVENT   107
 PAGE   1
  ShowMessageFace("",0,0,2,1)
  ShowMessage("\\n<Young Man>いちゃいちゃ……")
  ShowMessageFace("",0,0,2,2)
  ShowMessage("\\n<Young Woman>いちゃいちゃ……")
  355("actor_label_jump")
  EndEventProcessing()
  DefineLabel("163")
  ShowMessageFace("lily_fc1",6,0,2,3)
  ShowMessage("\\n<Lily>私の前での青春は許さないわ……")
  ShowMessageFace("",0,0,2,4)
  ShowMessage("\\n<Young Man>なんだ、この触手……！？")
  ShowMessageFace("",0,0,2,5)
  ShowMessage("\\n<Young Woman>いやーっ！")
  EndEventProcessing()
  0()



EVENT   109
 PAGE   1
  ShowMessageFace("",0,0,2,1)
  ShowMessage("\\n<Fat Man>ん～？　次は何を食べようかな～？")
  355("actor_label_jump")
  EndEventProcessing()
  DefineLabel("89")
  ShowMessageFace("ropa_fc1",0,0,2,2)
  ShowMessage("\\n<Cindy>（この人間を限界まで太らせて、最後に私が……）")
  EndEventProcessing()
  DefineLabel("92")
  ShowMessageFace("eater_fc1",3,0,2,3)
  ShowMessage("\\n<Eater>お肉いっぱい、おいしそう……")
  EndEventProcessing()
  DefineLabel("116")
  ShowMessageFace("iso_fc1",0,0,2,4)
  ShowMessage("\\n<Isabelle>人間にも、大食いはいるみたいねぇ……")
  EndEventProcessing()
  0()



EVENT   110
 PAGE   1
  ShowMessageFace("",0,0,2,1)
  ShowMessage("\\n<Gruff Man>シルフ祭りやノーム祭りがあるんだから…… ウンディーネ祭りやサラマンダー祭りもあるのか？")
  ShowMessageFace("",0,0,2,2)
  ShowMessage("\\n<Gruff Man>まあ、やっぱりノームが最高だよな。 今年もでっかいノームパンを焼いてやるぜ～！")
  355("actor_label_jump")
  EndEventProcessing()
  DefineLabel("13")
  ShowMessageFace("gnome_fc1",0,0,2,3)
  ShowMessage("\\n<Gnome>……………………")
  EndEventProcessing()
  DefineLabel("78")
  ShowMessageFace("syesta_fc1",0,0,2,4)
  ShowMessage("\\n<Shesta>大きなパン……？ 私も、焼いてみたい……")
  EndEventProcessing()
  0()



EVENT   111
 PAGE   1
  ShowMessageFace("",0,0,2,1)
  ShowMessage("\\n<Dancer>この町の起源って知ってる？ 踊り子の一団が、オアシスに腰を落ち着けたのが始まりなんだって。")
  ShowMessageFace("",0,0,2,2)
  ShowMessage("\\n<Dancer>そこに劇場が作られ、店が賑わい…… そして、世界一の大繁華街になったってわけよ。")
  0()



EVENT   112
 PAGE   1
  ShowMessageFace("",0,0,2,1)
  ShowMessage("\\n<Dancer>ビッグになれば、テント暮らしともおさらば。 そう思うと、がんばれるよね～！")
  355("actor_label_jump")
  EndEventProcessing()
  DefineLabel("88")
  ShowMessageFace("jack_fc1",1,0,2,2)
  ShowMessage("\\n<Pumpkin>テント暮らしって、たのしそう……")
  EndEventProcessing()
  DefineLabel("143")
  ShowMessageFace("eva_fc1",2,0,2,3)
  ShowMessage("\\n<Eva>テント…… ううっ、頭が……")
  EndEventProcessing()
  0()



EVENT   113
 PAGE   1
  ShowMessageFace("",0,0,2,1)
  ShowMessage("\\n<Dancer>基本的に、踊り子はおさわり禁止よ。 エッチな事も禁止、セクハラ大禁止。")
  ShowMessageFace("",0,0,2,2)
  ShowMessage("\\n<Dancer>グランドールの踊り子って、けっこう由緒正しいんだからね。 伝統芸能なのよ、いちおうは。")
  355("actor_label_jump")
  EndEventProcessing()
  DefineLabel("83")
  ShowMessageFace("hapy_a_fc1",0,0,2,3)
  ShowMessage("\\n<Reina>ハーピーの踊りも、伝統芸だよ。 今度、一緒に踊ろうよ～♪")
  EndEventProcessing()
  DefineLabel("114")
  ShowMessageFace("wakame_fc1",1,0,2,4)
  ShowMessage("\\n<Wakame>わかめのおどりも、伝統芸能にならないかな…… 海藻国宝、わかめ……")
  EndEventProcessing()
  0()



EVENT   114
 PAGE   1
  ShowMessageFace("",0,0,2,1)
  ShowMessage("\\n<Man>この屋敷から、人魚達がキャッキャとはしゃぐ声が聞こえる…… ついつい、引き寄せられてしまうのです。")
  355("actor_label_jump")
  EndEventProcessing()
  DefineLabel("118")
  ShowMessageFace("meia_fc1",0,0,2,2)
  ShowMessage("\\n<Meia>あら、こんなところにもお仲間が……")
  EndEventProcessing()
  DefineLabel("116")
  ShowMessageFace("iso_fc1",0,0,2,3)
  ShowMessage("\\n<Isabelle>言われてみれば……久々に人魚が食べたいわね。")
  EndEventProcessing()
  0()



EVENT   115
 PAGE   1
  ShowMessageFace("",0,0,2,1)
  ShowMessage("\\n<Thief>法王暗殺未遂事件の際は、もちろんここにも調査が入ったぜ。 ドン・ファーザーの屋敷がガサ入れされたのは、最初で最後だったな。")
  ShowMessageFace("",0,0,2,2)
  ShowMessage("\\n<Thief>だが結局、関連を示す物証は出なかった。 あの事件は今も、首謀者不明のままさ……")
  355("actor_label_jump")
  EndEventProcessing()
  DefineLabel("525")
  ShowMessageFace("sonia_fc2",2,0,2,3)
  ShowMessage("\\n<Sonya>ラザロおじさん、本当に無実よね……？")
  EndEventProcessing()
  0()



EVENT   116
 PAGE   1
  ShowMessageFace("",0,0,2,1)
  ShowMessage("\\n<Traveling Warrior>なんかセレブ気分だなぁ、ここでこうしていると……")
  ShowMessageFace("",0,0,2,2)
  ShowMessage("\\n<Traveling Warrior>……えっ、ここ私有地なの？ おれ田舎者だから、そういうの分からないんだよ！")
  355("actor_label_jump")
  EndEventProcessing()
  DefineLabel("167")
  ShowMessageFace("lusia_fc1",2,0,2,3)
  ShowMessage("\\n<Lucia>私も、気をつけないといけませんね…… こういう遊楽地には、疎いもので。")
  EndEventProcessing()
  0()



EVENT   117
 PAGE   1
  ShowMessageFace("",0,0,2,1)
  ShowMessage("\\n<City Girl>戦争なんて、早く終わればいいのに。 なぜ、暴力で解決しようとするのでしょう……")
  355("actor_label_jump")
  EndEventProcessing()
  DefineLabel("71")
  ShowMessageFace("okami_fc1",0,0,2,2)
  ShowMessage("\\n<Amara>なんでも戦いで解決するのが、一番スッキリするからな！")
  EndEventProcessing()
  DefineLabel("141")
  ShowMessageFace("mino_fc1",0,0,2,3)
  ShowMessage("\\n<Mina>暴力の方が、白黒はっきりしていいじゃないか！")
  EndEventProcessing()
  0()



EVENT   118
 PAGE   1
  ShowMessageFace("",0,0,2,1)
  ShowMessage("\\n<Man>ついに来たぞ、グランドール！ 今夜はカジノでヒャッホー！")
  355("actor_label_jump")
  EndEventProcessing()
  DefineLabel("121")
  ShowMessageFace("page65537_fc1",2,0,2,2)
  ShowMessage("\\n<Cornelia>さあ、私達もフィーバーしますよ！")
  EndEventProcessing()
  0()



EVENT   119
 PAGE   1
  ShowMessageFace("",0,0,2,1)
  ShowMessage("\\n<Woman>うちの人ったら、はしゃいじゃって恥ずかしい…… 田舎者丸出しじゃないか。")
  355("actor_label_jump")
  EndEventProcessing()
  DefineLabel("163")
  ShowMessageFace("lily_fc1",3,0,2,2)
  ShowMessage("\\n<Lily>本当、田舎者よね……")
  EndEventProcessing()
  0()



EVENT   120
 PAGE   1
  ShowMessageFace("",0,0,2,1)
  ShowMessage("\\n<Guard>ここより北には、用もなく近付かないように。 ドン・ファーザーの屋敷がありますので……")
  0()



EVENT   121
 PAGE   1
  If(1,1024,0,3,2)
   ShowMessageFace("",0,0,2,1)
   ShowMessage("\\n<Sleazy Man>消えな。")
   0()
  Else()
   ShowMessageFace("",0,0,2,2)
   ShowMessage("\\n<Sleazy Man>エルカ商会の馴染みか……問題ねぇ、通りな。")
   0()
  EndIf()
  0()



EVENT   122
 PAGE   1
  ShowMessageFace("",0,0,2,1)
  ShowMessage("\\n<Guard>この屋敷の周りに、小悪党は近付かない…… 当然か、悪党の総元締めがいるんだもんな。")
  0()



EVENT   123
 PAGE   1
  ShowMessageFace("",0,0,2,1)
  ShowMessage("\\n<Guard>我々は、ドン・ファーザーの邸宅を見張っています。 まあ、表立って何かをしでかす事はないでしょうが……")
  355("actor_label_jump")
  EndEventProcessing()
  DefineLabel("171")
  ShowMessageFace("lizardboss_fc1",0,0,2,2)
  ShowMessage("\\n<Miranda>自分の屋敷の周りで騒動起こすほど、バカとは思えないねぇ。")
  EndEventProcessing()
  0()



EVENT   125
 PAGE   1
  ShowMessageFace("",0,0,2,1)
  ShowMessage("\\n<Guard>ドン・ファーザーの屋敷があるから、かえって治安が良いなんて……")
  ShowMessageFace("",0,0,2,2)
  ShowMessage("\\n<Guard>ずいぶんと皮肉な話だよなぁ。 どんな悪党でも、この界隈じゃ行儀が良いんだ。")
  0()



EVENT   126
 PAGE   1
  ShowMessageFace("",0,0,2,1)
  ShowMessage("\\n<Youth>カジノですっからかんだぜ…… 明日からは新聞紙でも食って過ごさないと……")
  355("actor_label_jump")
  EndEventProcessing()
  DefineLabel("119")
  ShowMessageFace("page17_fc1",0,0,2,2)
  ShowMessage("\\n<Annie>本のページは食べるなよ……")
  EndEventProcessing()
  DefineLabel("143")
  ShowMessageFace("eva_fc1",2,0,2,3)
  ShowMessage("\\n<Eva>ひもじいわね。 こっちまで落ち込んでくるわ……")
  EndEventProcessing()
  0()



EVENT   127
 PAGE   1
  ShowMessageFace("",0,0,2,1)
  ShowMessage("\\n<Dancer>大劇場にようこそ～♪ サキちゃん、キラッ☆")
  0()



EVENT   128
 PAGE   1
  If(1,1030,0,1,2)
   ShowMessageFace("",0,0,2,1)
   ShowMessage("\\n<Dancer>連日、サキちゃんのコンサートですよ～！ サキちゃん、キラッ☆")
   0()
  EndIf()
  If(1,1030,0,2,1)
   ShowMessageFace("",0,0,2,2)
   ShowMessage("\\n<Dancer>サキちゃんのコンサートは、もうやってません…… ……って言うと、ガッカリして帰るお客さんの多いこと。")
   355("actor_label_jump")
   EndEventProcessing()
   DefineLabel("155")
   ShowMessageFace("saki_fc1",3,0,2,3)
   ShowMessage("\\n<Saki>ゴメンね、たまに戻ってくるから☆")
   EndEventProcessing()
   0()
  EndIf()
  0()



EVENT   129
 PAGE   1
  ShowMessageFace("",0,0,2,1)
  ShowMessage("\\n<Celebrity Woman>戦争なんてつまらないわ。 みんなで、サキちゃんキラッ☆をしましょう。")
  ShowMessageFace("",0,0,2,2)
  ShowMessage("\\n<Celebrity Man>サキちゃんキラッ☆をしていると、心が愛で満ち溢れる。 サキちゃんは世界に平和をもたらす天使なんだよ。")
  0()
 PAGE   2
  // condition: variable 1030 >= 2
  0()



EVENT   130
 PAGE   1
  ShowMessageFace("",0,0,2,1)
  ShowMessage("\\n<Celebrity Woman>戦争なんてつまらないわ。 みんなで、サキちゃんキラッ☆をしましょう。")
  ShowMessageFace("",0,0,2,2)
  ShowMessage("\\n<Celebrity Man>サキちゃんキラッ☆をしていると、心が愛で満ち溢れる。 サキちゃんは世界に平和をもたらす天使なんだよ。")
  0()
 PAGE   2
  // condition: variable 1030 >= 2
  0()



EVENT   131
 PAGE   1
  If(1,1030,0,1,2)
   ShowMessageFace("",0,0,2,1)
   ShowMessage("\\n<Celebrity>はぁはぁ……今日もサキちゃんに会いに来ました…… サキちゃん、キラッ☆")
   0()
  EndIf()
  If(1,1030,0,2,1)
   ShowMessageFace("",0,0,2,2)
   ShowMessage("\\n<Celebrity>サキちゃんが世界デビュー！？ こうしちゃいられません、私も旅立たなくては！")
   0()
  EndIf()
  0()



EVENT   134
 PAGE   1
  If(1,1030,0,1,2)
   ShowMessageFace("",0,0,2,1)
   ShowMessage("\\n<Celebrity>サキちゃんなるアイドルが大人気の用ですが…… はてさて、いかほどのものでしょう。")
   0()
  EndIf()
  If(1,1030,0,2,1)
   ShowMessageFace("",0,0,2,2)
   ShowMessage("\\n<Celebrity>サキちゃん、キラッ☆")
   0()
  EndIf()
  0()



EVENT   135
 PAGE   1
  If(1,1030,0,1,2)
   ShowMessageFace("",0,0,2,1)
   ShowMessage("\\n<Celebrity Woman>大劇場は半月ぶりですわね。 サキちゃんという娘の歌とダンスが評判になっていますわ。")
   ShowMessageFace("",0,0,2,2)
   ShowMessage("\\n<Celebrity Man>一度見てみたが、実に素晴らしいよ。 この大劇場の伝説になりそうだ……")
   ShowMessageFace("",0,0,2,3)
   ShowMessage("\\n<Celebrity Man>……サキちゃん、キラッ☆")
   0()
  EndIf()
  If(1,1030,0,2,1)
   ShowMessageFace("",0,0,2,4)
   ShowMessage("\\n<Celebrity Woman>サキちゃんがいないとは、どういう事ですの！ 支配人に直訴しますわ！")
   ShowMessageFace("",0,0,2,5)
   ShowMessage("\\n<Celebrity Man>サキちゃん、キラッ☆")
   0()
  EndIf()
  0()



EVENT   136
 PAGE   1
  If(1,1030,0,1,2)
   ShowMessageFace("",0,0,2,1)
   ShowMessage("\\n<Celebrity Woman>大劇場は半月ぶりですわね。 サキちゃんという娘の歌とダンスが評判になっていますわ。")
   ShowMessageFace("",0,0,2,2)
   ShowMessage("\\n<Celebrity Man>一度見てみたが、実に素晴らしいよ。 この大劇場の伝説になりそうだ……")
   ShowMessageFace("",0,0,2,3)
   ShowMessage("\\n<Celebrity Man>……サキちゃん、キラッ☆")
   0()
  EndIf()
  If(1,1030,0,2,1)
   ShowMessageFace("",0,0,2,4)
   ShowMessage("\\n<Celebrity Woman>サキちゃんがいないとは、どういう事ですの！ 支配人に直訴しますわ！")
   ShowMessageFace("",0,0,2,5)
   ShowMessage("\\n<Celebrity Man>サキちゃん、キラッ☆")
   0()
  EndIf()
  0()



EVENT   132
 PAGE   1
  If(1,1030,0,1,2)
   ShowMessageFace("",0,0,2,1)
   ShowMessage("\\n<Man>やたら熱狂的なファンがいるようだが、そんなにいいもんかねぇ。 まあ、試しにコンサートを見てみるか……")
   0()
  EndIf()
  If(1,1030,0,2,1)
   ShowMessageFace("",0,0,2,2)
   ShowMessage("\\n<Man>サキちゃん、キラッ☆")
   0()
  EndIf()
  0()



EVENT   133
 PAGE   1
  ShowMessageFace("",0,0,2,1)
  ShowMessage("\\n<Maid>観劇に足を運びましたが、今はやっていないとか。 サキちゃんのコンサート中との事で、いかが致しましょう……")
  355("actor_label_jump")
  EndEventProcessing()
  DefineLabel("120")
  ShowMessageFace("page257_fc1",0,0,2,2)
  ShowMessage("\\n<Yoko>私も、演劇の方が興味があったのですが……")
  EndEventProcessing()
  0()
 PAGE   2
  // condition: variable 1030 >= 2
  0()



EVENT   137
 PAGE   1
  ShowMessageFace("",0,0,2,1)
  ShowMessage("\\n<Dog>ぐるるるる……")
  355("actor_label_jump")
  EndEventProcessing()
  DefineLabel("60")
  ShowMessageFace("dog_fc1",4,0,2,2)
  ShowMessage("\\n<Pochi>……………………")
  EndEventProcessing()
  0()



EVENT   139
 PAGE   1
  ShowMessageFace("",0,0,2,1)
  ShowMessage("\\n<Dog>わん！　わん！")
  355("actor_label_jump")
  EndEventProcessing()
  DefineLabel("60")
  ShowMessageFace("dog_fc1",0,0,2,2)
  ShowMessage("\\n<Pochi>わん！　わん！　わん！")
  EndEventProcessing()
  0()



EVENT   141
 PAGE   1
  ShowMessageFace("",0,0,2,1)
  ShowMessage("\\n<Cat>にゃー！　にゃー！")
  355("actor_label_jump")
  EndEventProcessing()
  DefineLabel("70")
  ShowMessageFace("nezumi_fc1",2,0,2,2)
  ShowMessage("\\n<Ratty>ひゃぁっ！　命だけは、おたすけ！")
  EndEventProcessing()
  0()



EVENT   143
 PAGE   1
  ShowMessageFace("datyou_fc1",3,0,2,1)
  ShowMessage("\\n<Ostrich Girl>走るために生まれてきた…… この黄金の足腰を見るのです！")
  355("actor_label_jump")
  EndEventProcessing()
  DefineLabel("101")
  ShowMessageFace("cent2_fc1",0,0,2,2)
  ShowMessage("\\n<Lihitinu>ふん、ケンタウロスより速い者はいないわ！")
  EndEventProcessing()
  DefineLabel("148")
  ShowMessageFace("datyou_fc1",3,0,2,3)
  ShowMessage("\\n<Miu>今こそ、ダチョウの力を示すのですよ！")
  EndEventProcessing()
  0()



EVENT   138
 PAGE   1
  ShowMessageFace("cent2_fc1",0,0,2,1)
  ShowMessage("\\n<Centaur>足で負けてたまるもんですか……！")
  355("actor_label_jump")
  EndEventProcessing()
  DefineLabel("101")
  ShowMessageFace("cent2_fc1",0,0,2,2)
  ShowMessage("\\n<Lihitinu>応援してるわよ、ダチョウなんかに負けないで！")
  EndEventProcessing()
  DefineLabel("148")
  ShowMessageFace("datyou_fc1",3,0,2,3)
  ShowMessage("\\n<Miu>ダチョウの足は、世界一ですよ！")
  EndEventProcessing()
  0()



EVENT   144
 PAGE   1
  ShowMessageFace("slime_fc1",0,0,2,1)
  ShowMessage("\\n<Slime Girl>おさかな、つかまえるよ～♪")
  355("actor_label_jump")
  EndEventProcessing()
  DefineLabel("53")
  ShowMessageFace("slime_fc1",0,0,2,2)
  ShowMessage("\\n<Lime>近くで、応援するよ～♪")
  EndEventProcessing()
  DefineLabel("104")
  ShowMessageFace("kumo_fc1",0,0,2,3)
  ShowMessage("\\n<Rachnee>スライムって、弱いのにどこにでもいるわね……")
  EndEventProcessing()
  0()



EVENT   145
 PAGE   1
  ShowMessageFace("slime_fc1",0,0,2,1)
  ShowMessage("\\n<Slime Girl>おさかな、いっぱい買ったよ～♪")
  355("actor_label_jump")
  EndEventProcessing()
  DefineLabel("53")
  If(2,"A",1)
   ChangeSelfSwitch("A",0)
   ShowMessageFace("slime_fc1",2,0,2,2)
   ShowMessage("\\n<Lime>いいな～。")
   ShowMessageFace("slime_fc1",0,0,2,3)
   ShowMessage("\\n<Slime Girl>ひとつ、分けてあげる♪")
   ShowMessageFace("slime_fc1",0,0,2,4)
   ShowMessage("\\n<Lime>わ～い♪")
   250(bytes(0x04,0x08,0x6f,0x3a,0x0c,0x52,0x50,0x47,0x3a,0x3a,0x53,0x45,0x08,0x3a,0x0a,0x40,0x6e,0x61,0x6d,0x65,0x49,0x22,0x0a,0x49,0x74,0x65,0x6d,0x31,0x06,0x3a,0x06,0x45,0x54,0x3a,0x0b,0x40,0x70,0x69,0x74,0x63,0x68,0x69,0x69,0x3a,0x0c,0x40,0x76,0x6f,0x6c,0x75,0x6d,0x65,0x69,0x55))
   ChangeInventory_Item(322,0,0,1)
   0()
  Else()
   ShowMessageFace("slime_fc1",0,0,2,5)
   ShowMessage("\\n<Lime>この前は、ありがとうね♪")
   0()
  EndIf()
  EndEventProcessing()
  0()



EVENT   140
 PAGE   1
  ShowMessageFace("sasori_fc1",1,0,2,1)
  ShowMessage("\\n<Scorpion Girl>砂漠に出ては旅人を刺し、町では毒消し草を売る…… この自作自演作戦、完璧だと思わない？")
  Shop(0,13,1,25,true)
  605(0,17,1,25)
  0()



EVENT   142
 PAGE   1
  250(bytes(0x04,0x08,0x6f,0x3a,0x0c,0x52,0x50,0x47,0x3a,0x3a,0x53,0x45,0x08,0x3a,0x0a,0x40,0x6e,0x61,0x6d,0x65,0x49,0x22,0x0a,0x49,0x74,0x65,0x6d,0x31,0x06,0x3a,0x06,0x45,0x54,0x3a,0x0b,0x40,0x70,0x69,0x74,0x63,0x68,0x69,0x69,0x3a,0x0c,0x40,0x76,0x6f,0x6c,0x75,0x6d,0x65,0x69,0x55))
  ChangeSelfSwitch("A",0)
  ChangeInventory_Item(197,0,0,1)
  0()
 PAGE   2
  // condition: self-switch A is ON
  0()



EVENT   146
 PAGE   1
  250(bytes(0x04,0x08,0x6f,0x3a,0x0c,0x52,0x50,0x47,0x3a,0x3a,0x53,0x45,0x08,0x3a,0x0a,0x40,0x6e,0x61,0x6d,0x65,0x49,0x22,0x0a,0x49,0x74,0x65,0x6d,0x31,0x06,0x3a,0x06,0x45,0x54,0x3a,0x0b,0x40,0x70,0x69,0x74,0x63,0x68,0x69,0x69,0x3a,0x0c,0x40,0x76,0x6f,0x6c,0x75,0x6d,0x65,0x69,0x55))
  ChangeSelfSwitch("A",0)
  ChangeInventory_Item(2,0,0,1)
  0()
 PAGE   2
  // condition: self-switch A is ON
  0()



EVENT   147
 PAGE   1
  250(bytes(0x04,0x08,0x6f,0x3a,0x0c,0x52,0x50,0x47,0x3a,0x3a,0x53,0x45,0x08,0x3a,0x0a,0x40,0x6e,0x61,0x6d,0x65,0x49,0x22,0x0a,0x49,0x74,0x65,0x6d,0x31,0x06,0x3a,0x06,0x45,0x54,0x3a,0x0b,0x40,0x70,0x69,0x74,0x63,0x68,0x69,0x69,0x3a,0x0c,0x40,0x76,0x6f,0x6c,0x75,0x6d,0x65,0x69,0x55))
  ChangeSelfSwitch("A",0)
  ChangeInventory_Item(445,0,0,1)
  0()
 PAGE   2
  // condition: self-switch A is ON
  0()



EVENT   148
 PAGE   1
  250(bytes(0x04,0x08,0x6f,0x3a,0x0c,0x52,0x50,0x47,0x3a,0x3a,0x53,0x45,0x08,0x3a,0x0a,0x40,0x6e,0x61,0x6d,0x65,0x49,0x22,0x0a,0x49,0x74,0x65,0x6d,0x31,0x06,0x3a,0x06,0x45,0x54,0x3a,0x0b,0x40,0x70,0x69,0x74,0x63,0x68,0x69,0x69,0x3a,0x0c,0x40,0x76,0x6f,0x6c,0x75,0x6d,0x65,0x69,0x55))
  ChangeSelfSwitch("A",0)
  ChangeInventory_Item(102,0,0,1)
  0()
 PAGE   2
  // condition: self-switch A is ON
  0()



EVENT   149
 PAGE   1
  250(bytes(0x04,0x08,0x6f,0x3a,0x0c,0x52,0x50,0x47,0x3a,0x3a,0x53,0x45,0x08,0x3a,0x0a,0x40,0x6e,0x61,0x6d,0x65,0x49,0x22,0x0a,0x49,0x74,0x65,0x6d,0x31,0x06,0x3a,0x06,0x45,0x54,0x3a,0x0b,0x40,0x70,0x69,0x74,0x63,0x68,0x69,0x69,0x3a,0x0c,0x40,0x76,0x6f,0x6c,0x75,0x6d,0x65,0x69,0x55))
  ChangeSelfSwitch("A",0)
  ChangeInventory_Item(76,0,0,1)
  0()
 PAGE   2
  // condition: self-switch A is ON
  0()



EVENT   150
 PAGE   1
  250(bytes(0x04,0x08,0x6f,0x3a,0x0c,0x52,0x50,0x47,0x3a,0x3a,0x53,0x45,0x08,0x3a,0x0a,0x40,0x6e,0x61,0x6d,0x65,0x49,0x22,0x0a,0x49,0x74,0x65,0x6d,0x31,0x06,0x3a,0x06,0x45,0x54,0x3a,0x0b,0x40,0x70,0x69,0x74,0x63,0x68,0x69,0x69,0x3a,0x0c,0x40,0x76,0x6f,0x6c,0x75,0x6d,0x65,0x69,0x55))
  ChangeSelfSwitch("A",0)
  ChangeInventory_Item(109,0,0,1)
  0()
 PAGE   2
  // condition: self-switch A is ON
  0()



EVENT   151
 PAGE   1
  250(bytes(0x04,0x08,0x6f,0x3a,0x0c,0x52,0x50,0x47,0x3a,0x3a,0x53,0x45,0x08,0x3a,0x0a,0x40,0x6e,0x61,0x6d,0x65,0x49,0x22,0x0a,0x49,0x74,0x65,0x6d,0x31,0x06,0x3a,0x06,0x45,0x54,0x3a,0x0b,0x40,0x70,0x69,0x74,0x63,0x68,0x69,0x69,0x3a,0x0c,0x40,0x76,0x6f,0x6c,0x75,0x6d,0x65,0x69,0x55))
  ChangeSelfSwitch("A",0)
  ChangeInventory_Item(19,0,0,1)
  0()
 PAGE   2
  // condition: self-switch A is ON
  0()



EVENT   152
 PAGE   1
  250(bytes(0x04,0x08,0x6f,0x3a,0x0c,0x52,0x50,0x47,0x3a,0x3a,0x53,0x45,0x08,0x3a,0x0a,0x40,0x6e,0x61,0x6d,0x65,0x49,0x22,0x0a,0x49,0x74,0x65,0x6d,0x31,0x06,0x3a,0x06,0x45,0x54,0x3a,0x0b,0x40,0x70,0x69,0x74,0x63,0x68,0x69,0x69,0x3a,0x0c,0x40,0x76,0x6f,0x6c,0x75,0x6d,0x65,0x69,0x55))
  ChangeSelfSwitch("A",0)
  ChangeInventory_Item(23,0,0,1)
  0()
 PAGE   2
  // condition: self-switch A is ON
  0()



EVENT   65
 PAGE   1
  ShowMessageFace("",0,0,2,1)
  ShowMessage("\\n<Horse>ヒヒーン！")
  355("actor_label_jump")
  EndEventProcessing()
  DefineLabel("101")
  ShowMessageFace("cent2_fc1",0,0,2,2)
  ShowMessage("\\n<Lihitinu>そう、良かったじゃない。")
  EndEventProcessing()
  0()



EVENT   61
 PAGE   1
  ShowMessageFace("",0,0,2,1)
  ShowMessage("\\n<Horse>ヒヒーン！")
  355("actor_label_jump")
  EndEventProcessing()
  DefineLabel("101")
  ShowMessageFace("cent2_fc1",0,0,2,2)
  ShowMessage("\\n<Lihitinu>私に言わないで、飼い主に言いなさいよ…… 言葉、通じないって？")
  EndEventProcessing()
  0()



EVENT   55
 PAGE   1
  ShowMessageFace("",0,0,2,1)
  ShowMessage("\\n<Horse>ヒヒーン！")
  355("actor_label_jump")
  EndEventProcessing()
  DefineLabel("101")
  ShowMessageFace("cent2_fc1",0,0,2,2)
  ShowMessage("\\n<Lihitinu>ええ、同感ね……")
  EndEventProcessing()
  0()



EVENT   56
 PAGE   1
  ShowMessageFace("",0,0,2,1)
  ShowMessage("\\n<Horse>ヒヒーン！")
  0()



EVENT   62
 PAGE   1
  ShowMessageFace("",0,0,2,1)
  ShowMessage("\\n<Horse>ヒヒーン！")
  355("actor_label_jump")
  EndEventProcessing()
  DefineLabel("101")
  ShowMessageFace("cent2_fc1",0,0,2,2)
  ShowMessage("\\n<Lihitinu>いや、私は客じゃないわよ……")
  EndEventProcessing()
  0()



EVENT   63
 PAGE   1
  ShowMessageFace("",0,0,2,1)
  ShowMessage("\\n<Horse>ヒヒーン！")
  355("actor_label_jump")
  EndEventProcessing()
  DefineLabel("101")
  ShowMessageFace("cent2_fc1",0,0,2,2)
  ShowMessage("\\n<Lihitinu>このエロ馬……何を考えてるのよ。")
  EndEventProcessing()
  0()



EVENT   79
 PAGE   1
  ShowMessageFace("",0,0,2,1)
  ShowMessage("\\n<Gruff Man>おやじ！　ひとタル丸ごとくれ！")
  355("actor_label_jump")
  EndEventProcessing()
  DefineLabel("75")
  ShowMessageFace("hituzi_fc1",3,0,2,2)
  ShowMessage("\\n<Mary>あたしも、ひとタル丸ごと飲むのら～！")
  ShowMessageFace("",0,0,2,3)
  ShowMessage("\\n<Gruff Man>いや、俺は飲まないよ……死んじゃうだろ。")
  EndEventProcessing()
  0()



EVENT   48
 PAGE   1
  ShowMessageFace("",0,0,2,1)
  ShowMessage("\\n<Guard>サソリのお守りは、砂漠での戦闘で能力値が底上げされるアクセサリ。 効果は絶大ですが、高価でとても手が出ません……")
  355("actor_label_jump")
  EndEventProcessing()
  DefineLabel("146")
  ShowMessageFace("sasori_fc1",0,0,2,2)
  ShowMessage("\\n<Scarlet>サソリの名を冠するなんて、気に入ったわ…… やっぱり、サソリは砂漠の王者よね。")
  EndEventProcessing()
  0()



EVENT   14
 PAGE   1
  250(bytes(0x04,0x08,0x6f,0x3a,0x0c,0x52,0x50,0x47,0x3a,0x3a,0x53,0x45,0x08,0x3a,0x0a,0x40,0x6e,0x61,0x6d,0x65,0x49,0x22,0x09,0x4d,0x6f,0x76,0x65,0x06,0x3a,0x06,0x45,0x54,0x3a,0x0b,0x40,0x70,0x69,0x74,0x63,0x68,0x69,0x69,0x3a,0x0c,0x40,0x76,0x6f,0x6c,0x75,0x6d,0x65,0x69,0x55))
  TeleportPlayer(0,338,60,23,0,0)
  0()



EVENT   22
 PAGE   1
  250(bytes(0x04,0x08,0x6f,0x3a,0x0c,0x52,0x50,0x47,0x3a,0x3a,0x53,0x45,0x08,0x3a,0x0a,0x40,0x6e,0x61,0x6d,0x65,0x49,0x22,0x09,0x4d,0x6f,0x76,0x65,0x06,0x3a,0x06,0x45,0x54,0x3a,0x0b,0x40,0x70,0x69,0x74,0x63,0x68,0x69,0x69,0x3a,0x0c,0x40,0x76,0x6f,0x6c,0x75,0x6d,0x65,0x69,0x55))
  TeleportPlayer(0,338,9,81,0,0)
  0()



EVENT   26
 PAGE   1
  ShowMessageFace("",0,0,2,1)
  ShowMessage("ルカは仲間を外に待たせ、一人でテントに入った……")
  216(1)
  250(bytes(0x04,0x08,0x6f,0x3a,0x0c,0x52,0x50,0x47,0x3a,0x3a,0x53,0x45,0x08,0x3a,0x0a,0x40,0x6e,0x61,0x6d,0x65,0x49,0x22,0x09,0x4d,0x6f,0x76,0x65,0x06,0x3a,0x06,0x45,0x54,0x3a,0x0b,0x40,0x70,0x69,0x74,0x63,0x68,0x69,0x69,0x3a,0x0c,0x40,0x76,0x6f,0x6c,0x75,0x6d,0x65,0x69,0x55))
  TeleportPlayer(0,338,62,82,0,0)
  0()



EVENT   24
 PAGE   1
  250(bytes(0x04,0x08,0x6f,0x3a,0x0c,0x52,0x50,0x47,0x3a,0x3a,0x53,0x45,0x08,0x3a,0x0a,0x40,0x6e,0x61,0x6d,0x65,0x49,0x22,0x09,0x4d,0x6f,0x76,0x65,0x06,0x3a,0x06,0x45,0x54,0x3a,0x0b,0x40,0x70,0x69,0x74,0x63,0x68,0x69,0x69,0x3a,0x0c,0x40,0x76,0x6f,0x6c,0x75,0x6d,0x65,0x69,0x55))
  TeleportPlayer(0,338,34,81,0,0)
  0()



EVENT   124
 PAGE   1
  ShowMessageFace("",0,0,2,1)
  ShowMessage("\\n<Guard>世界のマフィアの頂点…… 裏社会の帝王と呼ばれる男……")
  ShowMessageFace("",0,0,2,2)
  ShowMessage("\\n<Guard>いつか全ての悪事を白日の下にさらし、捕らえてみせますよ。")
  0()



EVENT   11
 PAGE   1
  250(bytes(0x04,0x08,0x6f,0x3a,0x0c,0x52,0x50,0x47,0x3a,0x3a,0x53,0x45,0x08,0x3a,0x0a,0x40,0x6e,0x61,0x6d,0x65,0x49,0x22,0x0a,0x4f,0x70,0x65,0x6e,0x31,0x06,0x3a,0x06,0x45,0x54,0x3a,0x0b,0x40,0x70,0x69,0x74,0x63,0x68,0x69,0x69,0x3a,0x0c,0x40,0x76,0x6f,0x6c,0x75,0x6d,0x65,0x69,0x55))
  205(0,bytes(0x04,0x08,0x6f,0x3a,0x13,0x52,0x50,0x47,0x3a,0x3a,0x4d,0x6f,0x76,0x65,0x52,0x6f,0x75,0x74,0x65,0x09,0x3a,0x0c,0x40,0x72,0x65,0x70,0x65,0x61,0x74,0x46,0x3a,0x0f,0x40,0x73,0x6b,0x69,0x70,0x70,0x61,0x62,0x6c,0x65,0x46,0x3a,0x0a,0x40,0x77,0x61,0x69,0x74,0x54,0x3a,0x0a,0x40,0x6c,0x69,0x73,0x74,0x5b,0x0c,0x6f,0x3a,0x15,0x52,0x50,0x47,0x3a,0x3a,0x4d,0x6f,0x76,0x65,0x43,0x6f,0x6d,0x6d,0x61,0x6e,0x64,0x07,0x3a,0x0a,0x40,0x63,0x6f,0x64,0x65,0x69,0x16,0x3a,0x10,0x40,0x70,0x61,0x72,0x61,0x6d,0x65,0x74,0x65,0x72,0x73,0x5b,0x00,0x6f,0x3b,0x0a,0x07,0x3b,0x0b,0x69,0x14,0x3b,0x0c,0x5b,0x06,0x69,0x08,0x6f,0x3b,0x0a,0x07,0x3b,0x0b,0x69,0x17,0x3b,0x0c,0x5b,0x00,0x6f,0x3b,0x0a,0x07,0x3b,0x0b,0x69,0x14,0x3b,0x0c,0x5b,0x06,0x69,0x08,0x6f,0x3b,0x0a,0x07,0x3b,0x0b,0x69,0x18,0x3b,0x0c,0x5b,0x00,0x6f,0x3b,0x0a,0x07,0x3b,0x0b,0x69,0x2a,0x3b,0x0c,0x5b,0x00,0x6f,0x3b,0x0a,0x07,0x3b,0x0b,0x69,0x00,0x3b,0x0c,0x5b,0x00))
  205(-1,bytes(0x04,0x08,0x6f,0x3a,0x13,0x52,0x50,0x47,0x3a,0x3a,0x4d,0x6f,0x76,0x65,0x52,0x6f,0x75,0x74,0x65,0x09,0x3a,0x0c,0x40,0x72,0x65,0x70,0x65,0x61,0x74,0x46,0x3a,0x0f,0x40,0x73,0x6b,0x69,0x70,0x70,0x61,0x62,0x6c,0x65,0x54,0x3a,0x0a,0x40,0x77,0x61,0x69,0x74,0x54,0x3a,0x0a,0x40,0x6c,0x69,0x73,0x74,0x5b,0x07,0x6f,0x3a,0x15,0x52,0x50,0x47,0x3a,0x3a,0x4d,0x6f,0x76,0x65,0x43,0x6f,0x6d,0x6d,0x61,0x6e,0x64,0x07,0x3a,0x0a,0x40,0x63,0x6f,0x64,0x65,0x69,0x11,0x3a,0x10,0x40,0x70,0x61,0x72,0x61,0x6d,0x65,0x74,0x65,0x72,0x73,0x5b,0x00,0x6f,0x3b,0x0a,0x07,0x3b,0x0b,0x69,0x00,0x3b,0x0c,0x5b,0x00))
  250(bytes(0x04,0x08,0x6f,0x3a,0x0c,0x52,0x50,0x47,0x3a,0x3a,0x53,0x45,0x08,0x3a,0x0a,0x40,0x6e,0x61,0x6d,0x65,0x49,0x22,0x09,0x4d,0x6f,0x76,0x65,0x06,0x3a,0x06,0x45,0x54,0x3a,0x0b,0x40,0x70,0x69,0x74,0x63,0x68,0x69,0x69,0x3a,0x0c,0x40,0x76,0x6f,0x6c,0x75,0x6d,0x65,0x69,0x55))
  TeleportPlayer(0,358,73,61,0,0)
  0()



EVENT   8
 PAGE   1
  ChangeSwitch(31,31,1)
  250(bytes(0x04,0x08,0x6f,0x3a,0x0c,0x52,0x50,0x47,0x3a,0x3a,0x53,0x45,0x08,0x3a,0x0a,0x40,0x6e,0x61,0x6d,0x65,0x49,0x22,0x09,0x4d,0x6f,0x76,0x65,0x06,0x3a,0x06,0x45,0x54,0x3a,0x0b,0x40,0x70,0x69,0x74,0x63,0x68,0x69,0x69,0x3a,0x0c,0x40,0x76,0x6f,0x6c,0x75,0x6d,0x65,0x69,0x55))
  TeleportPlayer(0,624,30,32,0,0)
  If(1,1030,0,1,2)
   241(bytes(0x04,0x08,0x6f,0x3a,0x0d,0x52,0x50,0x47,0x3a,0x3a,0x42,0x47,0x4d,0x08,0x3a,0x0a,0x40,0x6e,0x61,0x6d,0x65,0x49,0x22,0x09,0x73,0x61,0x6b,0x69,0x06,0x3a,0x06,0x45,0x54,0x3a,0x0c,0x40,0x76,0x6f,0x6c,0x75,0x6d,0x65,0x69,0x69,0x3a,0x0b,0x40,0x70,0x69,0x74,0x63,0x68,0x69,0x69))
   0()
  EndIf()
  0()



EVENT   2
 PAGE   1
  250(bytes(0x04,0x08,0x6f,0x3a,0x0c,0x52,0x50,0x47,0x3a,0x3a,0x53,0x45,0x08,0x3a,0x0a,0x40,0x6e,0x61,0x6d,0x65,0x49,0x22,0x09,0x4d,0x6f,0x76,0x65,0x06,0x3a,0x06,0x45,0x54,0x3a,0x0b,0x40,0x70,0x69,0x74,0x63,0x68,0x69,0x69,0x3a,0x0c,0x40,0x76,0x6f,0x6c,0x75,0x6d,0x65,0x69,0x55))
  TeleportPlayer(0,2,85,271,0,0)
  0()



EVENT   3
 PAGE   1
  250(bytes(0x04,0x08,0x6f,0x3a,0x0c,0x52,0x50,0x47,0x3a,0x3a,0x53,0x45,0x08,0x3a,0x0a,0x40,0x6e,0x61,0x6d,0x65,0x49,0x22,0x09,0x4d,0x6f,0x76,0x65,0x06,0x3a,0x06,0x45,0x54,0x3a,0x0b,0x40,0x70,0x69,0x74,0x63,0x68,0x69,0x69,0x3a,0x0c,0x40,0x76,0x6f,0x6c,0x75,0x6d,0x65,0x69,0x55))
  TeleportPlayer(0,2,85,271,0,0)
  0()



EVENT   4
 PAGE   1
  250(bytes(0x04,0x08,0x6f,0x3a,0x0c,0x52,0x50,0x47,0x3a,0x3a,0x53,0x45,0x08,0x3a,0x0a,0x40,0x6e,0x61,0x6d,0x65,0x49,0x22,0x09,0x4d,0x6f,0x76,0x65,0x06,0x3a,0x06,0x45,0x54,0x3a,0x0b,0x40,0x70,0x69,0x74,0x63,0x68,0x69,0x69,0x3a,0x0c,0x40,0x76,0x6f,0x6c,0x75,0x6d,0x65,0x69,0x55))
  TeleportPlayer(0,2,85,271,0,0)
  0()



EVENT   5
 PAGE   1
  250(bytes(0x04,0x08,0x6f,0x3a,0x0c,0x52,0x50,0x47,0x3a,0x3a,0x53,0x45,0x08,0x3a,0x0a,0x40,0x6e,0x61,0x6d,0x65,0x49,0x22,0x09,0x4d,0x6f,0x76,0x65,0x06,0x3a,0x06,0x45,0x54,0x3a,0x0b,0x40,0x70,0x69,0x74,0x63,0x68,0x69,0x69,0x3a,0x0c,0x40,0x76,0x6f,0x6c,0x75,0x6d,0x65,0x69,0x55))
  TeleportPlayer(0,2,85,271,0,0)
  0()



EVENT   6
 PAGE   1
  250(bytes(0x04,0x08,0x6f,0x3a,0x0c,0x52,0x50,0x47,0x3a,0x3a,0x53,0x45,0x08,0x3a,0x0a,0x40,0x6e,0x61,0x6d,0x65,0x49,0x22,0x09,0x4d,0x6f,0x76,0x65,0x06,0x3a,0x06,0x45,0x54,0x3a,0x0b,0x40,0x70,0x69,0x74,0x63,0x68,0x69,0x69,0x3a,0x0c,0x40,0x76,0x6f,0x6c,0x75,0x6d,0x65,0x69,0x55))
  TeleportPlayer(0,2,85,271,0,0)
  0()



EVENT   12
 PAGE   1
  ShowMessageFace("",0,0,2,1)
  ShowMessage("\\n<Man>グランドールのバザーは最高だな。 世界の南半分の食べ物は、みんなここで食えるんだぜ。")
  If(0,4,0)
   ShowMessageFace("alice_fc5",7,0,2,2)
   ShowMessage("\\n<Alice>うむ、最高だ！ 何日でも入り浸りたいな……♪")
   0()
  EndIf()
  If(0,5,0)
   ShowMessageFace("iriasu_fc4",1,0,2,3)
   ShowMessage("\\n<Ilias>ええ、最高です！ 下界は素晴らしいところですね……♪")
   0()
  EndIf()
  0()



EVENT   37
 PAGE   1
  ShowMessageFace("",0,0,2,1)
  ShowMessage("\\n<Man>サキちゃん、キラッ☆")
  ShowMessageFace("",0,0,2,2)
  ShowMessage("\\n<Man>いやぁ、サキちゃんのコンサートは最高だね。 全てを捨ててでも通いたいよ……")
  355("actor_label_jump")
  EndEventProcessing()
  DefineLabel("155")
  ShowMessageFace("saki_fc1",3,0,2,3)
  ShowMessage("\\n<Saki>でも、コンサートはしばらく休みだよ…… 世界デビューしても、応援してね☆")
  EndEventProcessing()
  0()



EVENT   108
 PAGE   1
  250(bytes(0x04,0x08,0x6f,0x3a,0x0c,0x52,0x50,0x47,0x3a,0x3a,0x53,0x45,0x08,0x3a,0x0a,0x40,0x6e,0x61,0x6d,0x65,0x49,0x22,0x0a,0x49,0x74,0x65,0x6d,0x31,0x06,0x3a,0x06,0x45,0x54,0x3a,0x0b,0x40,0x70,0x69,0x74,0x63,0x68,0x69,0x69,0x3a,0x0c,0x40,0x76,0x6f,0x6c,0x75,0x6d,0x65,0x69,0x55))
  ChangeSelfSwitch("A",0)
  ChangeInventory_Item(44,0,0,1)
  0()
 PAGE   2
  // condition: self-switch A is ON
  0()



EVENT   82
 PAGE   1
  ShowMessageFace("",0,0,2,1)
  ShowMessage("\\n<Mermaid>あはははっ……♪")
  0()



EVENT   153
 PAGE   1
  // condition: switch 1102 is ON
  // condition: switch 1103 is ON
  241(bytes(0x04,0x08,0x6f,0x3a,0x0d,0x52,0x50,0x47,0x3a,0x3a,0x42,0x47,0x4d,0x08,0x3a,0x0a,0x40,0x6e,0x61,0x6d,0x65,0x49,0x22,0x13,0x73,0x63,0x65,0x6e,0x65,0x5f,0x6f,0x64,0x61,0x79,0x61,0x6b,0x61,0x31,0x06,0x3a,0x06,0x45,0x54,0x3a,0x0c,0x40,0x76,0x6f,0x6c,0x75,0x6d,0x65,0x69,0x69,0x3a,0x0b,0x40,0x70,0x69,0x74,0x63,0x68,0x69,0x69))
  ShowMessageFace("kamuro_fc1",0,0,2,1)
  ShowMessage("\\n<Kamuro>きつね先輩…… なんで、砂漠には水が少ないんですか？")
  ShowMessageFace("youko_fc1",0,0,2,2)
  ShowMessage("\\n<Kitsu>えっと、それはね…… ……砂漠の神様は、すぐ喉が渇くからだよ。")
  ShowMessageFace("kamuro_fc1",0,0,2,3)
  ShowMessage("\\n<Kamuro>さすが、きつね先輩！ なんでも知っているんですね！")
  241(bytes(0x04,0x08,0x6f,0x3a,0x0d,0x52,0x50,0x47,0x3a,0x3a,0x42,0x47,0x4d,0x08,0x3a,0x0a,0x40,0x6e,0x61,0x6d,0x65,0x49,0x22,0x0a,0x6d,0x75,0x72,0x61,0x36,0x06,0x3a,0x06,0x45,0x54,0x3a,0x0c,0x40,0x76,0x6f,0x6c,0x75,0x6d,0x65,0x69,0x69,0x3a,0x0b,0x40,0x70,0x69,0x74,0x63,0x68,0x69,0x69))
  0()
 PAGE   2
  // condition: party contains actor #102
  0()
 PAGE   3
  // condition: party contains actor #103
  0()



EVENT   154
 PAGE   1
  // condition: switch 1102 is ON
  // condition: switch 1103 is ON
  241(bytes(0x04,0x08,0x6f,0x3a,0x0d,0x52,0x50,0x47,0x3a,0x3a,0x42,0x47,0x4d,0x08,0x3a,0x0a,0x40,0x6e,0x61,0x6d,0x65,0x49,0x22,0x13,0x73,0x63,0x65,0x6e,0x65,0x5f,0x6f,0x64,0x61,0x79,0x61,0x6b,0x61,0x31,0x06,0x3a,0x06,0x45,0x54,0x3a,0x0c,0x40,0x76,0x6f,0x6c,0x75,0x6d,0x65,0x69,0x69,0x3a,0x0b,0x40,0x70,0x69,0x74,0x63,0x68,0x69,0x69))
  ShowMessageFace("kamuro_fc1",0,0,2,1)
  ShowMessage("\\n<Kamuro>きつね先輩…… なんで、砂漠には水が少ないんですか？")
  ShowMessageFace("youko_fc1",0,0,2,2)
  ShowMessage("\\n<Kitsu>えっと、それはね…… ……砂漠の神様は、すぐ喉が渇くからだよ。")
  ShowMessageFace("kamuro_fc1",0,0,2,3)
  ShowMessage("\\n<Kamuro>さすが、きつね先輩！ なんでも知っているんですね！")
  241(bytes(0x04,0x08,0x6f,0x3a,0x0d,0x52,0x50,0x47,0x3a,0x3a,0x42,0x47,0x4d,0x08,0x3a,0x0a,0x40,0x6e,0x61,0x6d,0x65,0x49,0x22,0x0a,0x6d,0x75,0x72,0x61,0x36,0x06,0x3a,0x06,0x45,0x54,0x3a,0x0c,0x40,0x76,0x6f,0x6c,0x75,0x6d,0x65,0x69,0x69,0x3a,0x0b,0x40,0x70,0x69,0x74,0x63,0x68,0x69,0x69))
  0()
 PAGE   2
  // condition: party contains actor #102
  0()
 PAGE   3
  // condition: party contains actor #103
  0()



EVENT   155
 PAGE   1
  ShowMessageFace("dog_fc1",0,0,2,1)
  ShowMessage("\\n<Dog Girl>わわわーん♪")
  If(4,60,0)
   ShowMessageFace("dog_fc1",2,0,2,2)
   ShowMessage("\\n<Pochi>歌ってる……")
   ShowMessageFace("dog_fc1",4,0,2,3)
   ShowMessage("\\n<Pochi>あたしも、わわわーん♪")
   If(2,"A",1)
    ChangeSelfSwitch("A",0)
    ChangeVariable(1036,1036,1,0,1)
    If(1,1036,0,9,1)
     RunCommonEvent(311)
     0()
    Else()
     0()
    EndIf()
    0()
   EndIf()
   0()
  EndIf()
  0()



EVENT   156
 PAGE   1
  ShowMessageFace("",0,0,2,1)
  ShowMessage("\\n<Poet>あひぃぃ……")
  0()



EVENT   75
 PAGE   1
  // condition: switch 1080 is ON
  ShowMessageFace("orc_fc1",1,0,2,1)
  ShowMessage("\\n<Hip>ぶひー！　オークの襲撃ですよ！ オークが人様のお庭で勝手にくつろいでいますよ！")
  ShowMessageFace("",0,0,2,2)
  ShowMessage("うちのオークが、迷惑をかけているようだ…… まあ、大事にはならないだろう。")
  0()
 PAGE   2
  // condition: party contains actor #80
  0()



EVENT   157
 PAGE   1
  // condition: switch 1540 is ON
  241(bytes(0x04,0x08,0x6f,0x3a,0x0d,0x52,0x50,0x47,0x3a,0x3a,0x42,0x47,0x4d,0x08,0x3a,0x0a,0x40,0x6e,0x61,0x6d,0x65,0x49,0x22,0x0a,0x61,0x6d,0x69,0x72,0x61,0x06,0x3a,0x06,0x45,0x54,0x3a,0x0c,0x40,0x76,0x6f,0x6c,0x75,0x6d,0x65,0x69,0x69,0x3a,0x0b,0x40,0x70,0x69,0x74,0x63,0x68,0x69,0x69))
  If(2,"A",1)
   ChangeSelfSwitch("A",0)
   RunCommonEvent(322)
   0()
  Else()
   ShowMessageFace("amira_fc1",0,0,2,1)
   ShowMessage("\\n<Amira>このアミラは、もう見つけたわ。 別のアミラを探して……")
   0()
  EndIf()
  241(bytes(0x04,0x08,0x6f,0x3a,0x0d,0x52,0x50,0x47,0x3a,0x3a,0x42,0x47,0x4d,0x08,0x3a,0x0a,0x40,0x6e,0x61,0x6d,0x65,0x49,0x22,0x0a,0x6d,0x75,0x72,0x61,0x36,0x06,0x3a,0x06,0x45,0x54,0x3a,0x0c,0x40,0x76,0x6f,0x6c,0x75,0x6d,0x65,0x69,0x69,0x3a,0x0b,0x40,0x70,0x69,0x74,0x63,0x68,0x69,0x69))
  EndEventProcessing()
  0()
 PAGE   2
  // condition: party contains actor #540
  0()



EVENT   36
 PAGE   1
  ShowMessageFace("",0,0,2,1)
  ShowMessage("\\n<Youth>Howdy! Welcome to the entertainment oasis, Grandoll. You're bound to get lost in a place this huge without a guide, so...")
  355("unlimited_choices(11, [\"Inn\",")
  655("\"Armor Shop\",\"Item Shop\",")
  655("\"Blacksmith\",\"Church\",")
  655("\"Large Theater\",\"Nowhere\"])")
  If(1,11,0,0,0)
   TeleportPlayer(0,337,66,44,2,0)
   EndEventProcessing()
   0()
  EndIf()
  If(1,11,0,1,0)
   TeleportPlayer(0,337,83,65,2,0)
   EndEventProcessing()
   0()
  EndIf()
  If(1,11,0,2,0)
   TeleportPlayer(0,337,33,66,2,0)
   EndEventProcessing()
   0()
  EndIf()
  If(1,11,0,3,0)
   TeleportPlayer(0,337,43,104,2,0)
   EndEventProcessing()
   0()
  EndIf()
  If(1,11,0,4,0)
   TeleportPlayer(0,337,12,12,2,0)
   EndEventProcessing()
   0()
  EndIf()
  If(1,11,0,5,0)
   TeleportPlayer(0,337,29,44,2,0)
   EndEventProcessing()
   0()
  EndIf()
  If(1,11,0,6,0)
   EndEventProcessing()
   0()
  EndIf()
  0()



EVENT   90
 PAGE   1
  ShowMessageFace("",0,0,2,1)
  ShowMessage("\\n<Old Man>この教会に訪れるのは、一発逆転の神頼み連中くらいじゃ。 信仰心のない世の中になったのう……")
  355("actor_label_jump")
  EndEventProcessing()
  DefineLabel("26")
  ShowMessageFace("iriasu_fc4",2,0,2,2)
  ShowMessage("\\n<Ilias>本当に、嘆かわしい事です……")
  EndEventProcessing()
  DefineLabel("86")
  ShowMessageFace("name_s_fc1",2,0,2,3)
  ShowMessage("\\n<Rosary>ギャンブルで神にすがるなど……罰当たりですね。")
  EndEventProcessing()
  DefineLabel("123")
  ShowMessageFace("sisccubus_fc1",2,0,2,4)
  ShowMessage("\\n<Christie>そのような物欲、神はお怒りになるでしょう……")
  EndEventProcessing()
  0()
