# -*- encoding: utf-8 -*-
=begin
=図鑑_防具データ設定セクション by Foo

図鑑の防具の項に表示する内容を設定します。

==更新履歴
Date     Version Author Comment
13/07/20 1.0.0   Foo    新設


=end

#==============================================================================
# ■ NWConst::Library
#==============================================================================
module NWConst::Library
  # 防具入手場所
  # 文字列はシンボルで統一してください
  GET_ARMOR_PLACES = {
    1  => [:イリアスヴィルの裏山, :イリアスヴィル],
    2  => [:イリナ山地北の洞窟],
    3  => [:イリアスベルク, :ポルノフ],
    4  => [:ハピネス村],
    5  => [:エンリカ, :レムズ海岸],
    6  => [:ナタリアポート],
    7  => [:サン・イリア, :サバサ],
    8  => [:精霊の森],
    9  => [:モンテカルロ],
    10  => [:カジノ景品（グランドール）, :メダル女王の城],
    18  => [:イリアスヴィル, :試しの洞窟, :イリアスベルク],
    19  => [:ポルノフ, :ポルノフ鉱山, :ハピネス村],
    20  => [:ミダス村, :イリアスポート],
    21  => [:イリアスポート],
    22  => [:ポルノフ, :サン・イリア],
    23  => [:サバサ, :グランドール],
    31  => [:ポルノフ, :タルタロス（イリアス大陸南）],
    32  => [:ハピネス村],
    33  => [:ミダス村],
    34  => [:エンリカ],
    35  => [:ナタリアポート, :ナタリア海岸],
    36  => [:サン・イリア],
    37  => [:サン・イリア],
    38  => [:モンテカルロ],
    39  => [:サバサ],
    40  => [:サルーン],
    52  => [:イリアスヴィル],
    53  => [:イリアスベルク, :ポルノフ],
    54  => [:ポルノフ],
    55  => [:ポルノフ],
    56  => [:ハピネス村, :イリアスポート],
    57  => [:イリアスポート],
    58  => [:ナタリアポート],
    59  => [:サン・イリア],
    60  => [:サン・イリア],
    61  => [:モンテカルロ],
    62  => [:グランドール],
    69  => [:ミダス村],
    70  => [:南の海底神殿, :南の海底神殿],
    71  => [:サン・イリア, :聖山アモス],
    72  => [:サン・イリア],
    73  => [:精霊の森],
    74  => [:モンテカルロ],
    75  => [:サバサ, :グランドール],
    76  => [:ピラミッド],
    77  => [:サバサ],
    78  => [:サルーン, :サルーン廃鉱],
    104  => [:イリナ山地南の洞窟, :ポルノフ],
    105  => [:ポルノフ],
    106  => [:ミダス村, :ミダス廃鉱],
    107  => [:イリアスポート],
    108  => [:サン・イリア],
    109  => [:サバサ],
    110  => [:サルーン],
    122  => [:イリアスヴィル, :タラスの丘],
    123  => [:イリアスベルク, :ハピネス村, :イリアスポート],
    124  => [:ハピネス村],
    125  => [:エンリカ],
    126  => [:サン・イリア],
    127  => [:サバサ],
    128  => [:モンテカルロ],
    129  => [:イリアスポート],
    130  => [:ナタリアポート, :秘宝の洞窟],
    131  => [:サン・イリア],
    132  => [:モンテカルロ],
    133  => [:グランドール],
    148  => [:イリアスベルク, :ハピネス村, :イリアスポート],
    149  => [:ナタリアポート],
    150  => [:ナタリアポート],
    151  => [:サバサ],
    152  => [:グランドール],
    156  => [:メダル女王の城],
    163  => [:カジノ景品（ポルノフ）],
    164  => [:カジノ景品（ポルノフ）, :ナタリアポート],
    165  => [:ナタリアポート],
    166  => [:サン・イリア],
    167  => [:グランドール, :リリィの館],
    168  => [:カジノ景品（グランドール）, :サファル砂漠遺跡],
    174  => [:メダル女王の城],
    176  => [:イリアスヴィルの裏山, :イリアスヴィル],
    177  => [:イリアスベルク, :ポルノフ],
    178  => [:ポルノフ],
    179  => [:ハピネス村, :ポルノフ鉱山],
    180  => [:ハピネス村],
    181  => [:ナメクジタワー, :ミダス村],
    182  => [:エンリカ],
    183  => [:ロストルム山地洞窟, :イリアスポート],
    184  => [:ナタリアポート],
    185  => [:サン・イリア, :サバサ, :地下図書館],
    186  => [:モンテカルロ],
    187  => [:グランドール],
    193  => [:イリアスベルク, :イリアスポート],
    194  => [:ポルノフ],
    195  => [:イリアスポート, :秘宝の洞窟],
    196  => [:サン・イリア],
    197  => [:サン・イリア, :カルロスの丘],
    198  => [:モンテカルロ],
    199  => [:サバサ],
    203  => [:ミダス村],
    204  => [:サン・イリア, :古代神殿跡],
    205  => [:サン・イリア],
    206  => [:サバサ, :恵みのオアシス],
    207  => [:グランドール, :サルーンの丘],
    208  => [:サルーン],
    234  => [:イリアスベルク, :イリナ山地南の洞窟, :イリアスポート],
    235  => [:ポルノフ],
    236  => [:ハピネス村],
    237  => [:ミダス村],
    238  => [:エンリカ, :タルタロス（イリアス大陸東）],
    239  => [:イリアスポート],
    240  => [:ナタリアポート, :南の海底神殿],
    241  => [:サン・イリア],
    242  => [:モンテカルロ],
    243  => [:グランドール],
    244  => [:サルーン, :サファル砂漠遺跡],
    259  => [:カジノ景品（ポルノフ）, :ハーピーの塔, :ミダス村],
    260  => [:エンリカ],
    261  => [:ナタリアポート, :サン・イリア, :秘宝の洞窟],
    262  => [:サン・イリア],
    263  => [:サバサ],
    264  => [:カジノ景品（グランドール）, :ピラミッド],
    269  => [:メダル女王の城],
    272  => [:イリアスベルク, :ポルノフ],
    273  => [:ポルノフ],
    274  => [:ハピネス村, :タルタロス（イリアス大陸南）, :イリアスポート],
    275  => [:サバサ],
    277  => [:メダル女王の城],
    279  => [:イリアスヴィル],
    280  => [:イリアスベルク, :イリナ山地南の洞窟, :イリアスポート],
    281  => [:イリアスベルク],
    282  => [:ポルノフ],
    283  => [:ハピネス村],
    284  => [:イリアスポート],
    285  => [:ナタリアポート, :秘宝の洞窟],
    286  => [:サン・イリア],
    287  => [:モンテカルロ],
    288  => [:グランドール],
    294  => [:ミダス村],
    295  => [:エンリカ],
    296  => [:エンリカ, :レムズ海岸],
    297  => [:イリアスポート],
    298  => [:サン・イリア],
    299  => [:サン・イリア],
    300  => [:北のお化け屋敷],
    301  => [:モンテカルロ],
    302  => [:サバサ, :グランドール, :ピラミッド],
    303  => [:サバサ],
    304  => [:サルーン],
    1001  => [:イリアスベルク, :イリナ山地北の洞窟],
    1002  => [:サバサ],
    1006  => [:イリアスベルク],
    1007  => [:サバサ, :魔導の塔],
    1011  => [:イリアスベルク, :ミダス廃鉱],
    1012  => [:サバサ],
    1016  => [:イリアスベルク],
    1017  => [:サバサ],
    1021  => [:イリアスベルク, :ポルノフ鉱山],
    1022  => [:サバサ],
    1026  => [:イリアスベルク],
    1027  => [:サバサ],
    1031  => [:イリアスベルク],
    1032  => [:サバサ],
    1036  => [:イリアスベルク],
    1037  => [:サバサ],
    1041  => [:イリアスベルク],
    1042  => [:ポルノフ, :サバサ],
    1046  => [:ラダイト村],
    1050  => [:ロストルム村（異世界）],
    1054  => [:イリアスポート],
    1056  => [:試しの洞窟, :エンリカ],
    1061  => [:エンリカ],
    1067  => [:求道者の洞窟],
    1076  => [:タルタロス（サバサ大陸北）],
    1081  => [:ロストルム村（異世界）],
    1082  => [:サルーン],
    1085  => [:ロストルム村（異世界）],
    1086  => [:サルーン],
    1090  => [:モンテカルロ],
    1092  => [:マギステア村, :ポケット魔王城],
    1096  => [:サルーン, :ポケット魔王城],
    1100  => [:エンリカ],
    1107  => [:モンテカルロ],
    1111  => [:マギステア村],
    1113  => [:エンリカ],
    1115  => [:カジノ景品（ポルノフ）, :マギステア村],
    1123  => [:サルーン],
    1138  => [:ナタリアポート],
    1142  => [:ナタリアポート],
    1145  => [:ポルノフ],
    1147  => [:ロストルム村（異世界）],
    1149  => [:モンテカルロ, :サファル砂漠遺跡],
    1151  => [:マギステア村, :北のお化け屋敷],
    1153  => [:サルーン],
    1161  => [:サルーン廃鉱],
    1171  => [:ポルノフ],
    1174  => [:サファル砂漠遺跡],
    1186  => [:サバサ, :ポケット魔王城],
    1188  => [:求道者の洞窟],
    1192  => [:秘宝の洞窟],
    1197  => [:サルーン],
    1243  => [:サン・イリア, :地下図書館],
    1246  => [:サン・イリア],
    1249  => [:サン・イリア],
    1252  => [:サン・イリア],
    1255  => [:サン・イリア],
    1258  => [:サン・イリア, :地下図書館],
    1276  => [:サン・イリア],
    1280  => [:メダル女王の城],
    1288  => [:秘宝の洞窟],
    1300  => [:カルロスの丘],
    1303  => [:ロストルム山地洞窟],
    1306  => [:南の海底神殿],
    1309  => [:ミトラ封印城],
    1315  => [:リリィの館],
    1318  => [:ナタリア海岸],
    1327  => [:レムズ海岸],
    1333  => [:ミダス廃鉱],
    1345  => [:管理者の塔],
    1348  => [:ピラミッド],
    1357  => [:古代神殿跡],
    1363  => [:タルタロス（イリアス大陸東）],
    1372  => [:迷いの森],
    1375  => [:ナメクジタワー],
    1387  => [:ハーピーの塔],
    1390  => [:恵みのオアシス],
    1391  => [:イリナ山地北の洞窟],
    1393  => [:メダル女王の城],
    1411  => [:ピラミッド],
    1414  => [:ハーピーの塔],
    1493  => [:ロストルム山地洞窟, :エンリカ],
    1497  => [:エンリカ],
    1501  => [:エンリカ, :魔導の塔],
    1505  => [:エンリカ],
    1506  => [:イリアスベルク],
    1509  => [:エンリカ],
    1513  => [:エンリカ],
    1525  => [:エンリカ],
    1529  => [:エンリカ],
    1548  => [:ナタリアポート],
    1550  => [:ナタリアポート],
    1552  => [:ナタリアポート],
    1636  => [:エンリカ],
    1643  => [:ミトラ封印城],
    1644  => [:ナタリアポート],
    1645  => [:マギステア村],
    1652  => [:名も無きスラム],
    1655  => [:ハピネス村],
    1658  => [:グランドール],
    1688  => [:ピラミッド],
    1691  => [:ミダス村, :カジノ景品（グランドール）],
    1703  => [:カジノ景品（ポルノフ）],
    1711  => [:グランドール],
    1713  => [:ナタリアポート],
    1723  => [:イリアスヴィル, :イリアスポート],
    1724  => [:カジノ景品（グランドール）],
    1725  => [:イリアスポート],
    1730  => [:イリアスポート],
    1731  => [:ラダイト村],
    1732  => [:イリアスポート],
    1733  => [:カジノ景品（ポルノフ）, :イリアスポート],
    1734  => [:名も無きスラム, :カジノ景品（グランドール）],
    1735  => [:カジノ景品（ポルノフ）, :イリアスポート],
    1736  => [:イリアスヴィル, :カジノ景品（グランドール）],
    1737  => [:グランドール],
    1740  => [:ナタリアポート],
  }
  # 防具貰える仲間ID配列
  GET_ARMOR_ACTORS = {
    7 => [133],
    31 => [75],
    37 => [135,145],
    75 => [170],
    105 => [73],
    106 => [98],
    107 => [109],
    123 => [59],
    124 => [83],
    125 => [103],
    127 => [172],
    148 => [85],
    165 => [108],
    179 => [82],
    193 => [525],
    204 => [126],
    237 => [96],
    241 => [134],
    261 => [120],
    274 => [76],
    302 => [169],
    1001 => [61,68,117,125,135,151,173],
    1002 => [117],
    1003 => [61,92,174],
    1006 => [58,96,152,159,168,181],
    1007 => [149],
    1008 => [58,137],
    1011 => [87,95,112,132,178],
    1012 => [114,119],
    1013 => [86,142,154],
    1016 => [62,80,141,154,525,174],
    1017 => [125,129,170],
    1018 => [80,156,525],
    1021 => [13,64,77,81,92,108,128,129,145,146],
    1022 => [98,108,183],
    1023 => [94,146,159],
    1026 => [5,88,119,120,138,160,167],
    1027 => [56,158],
    1028 => [160],
    1031 => [26,122,123,150,179,531],
    1033 => [122],
    1034 => [531],
    1036 => [12,60,70,93,97,124,127,169],
    1037 => [71,93,148],
    1038 => [83,127],
    1041 => [41,74,121,137,184],
    1042 => [137],
    1043 => [74,184],
    1046 => [131,161],
    1047 => [95,136],
    1050 => [142,164,170],
    1054 => [84,101,144,175,177],
    1055 => [124,180],
    1056 => [66,82,136,533,148],
    1057 => [172],
    1060 => [123],
    1061 => [72,78,83,103,131,143,162],
    1062 => [102,158],
    1065 => [131],
    1067 => [135],
    1071 => [26,533],
    1075 => [26],
    1076 => [5],
    1077 => [134],
    1081 => [89,99,161,172],
    1082 => [57],
    1085 => [102],
    1086 => [106,180],
    1090 => [101,124],
    1100 => [94,118,126,134,185],
    1101 => [78,115,128,149],
    1107 => [125,541],
    1109 => [57,117,119,542],
    1111 => [102],
    1113 => [91,111,139,165,182],
    1114 => [88,168],
    1115 => [167,181,182],
    1118 => [129,529],
    1120 => [62],
    1121 => [141],
    1123 => [72],
    1127 => [531],
    1138 => [123],
    1143 => [103,114],
    1145 => [529,541,109,113,147,156],
    1146 => [143,155],
    1147 => [90,105,130,180,542],
    1148 => [162],
    1151 => [133],
    1153 => [127,179],
    1154 => [62,71,93,101,148],
    1161 => [171],
    1162 => [144],
    1168 => [41,533],
    1163 => [541,172],
    1165 => [76],
    1167 => [542],
    1171 => [114,140,157],
    1174 => [97,130],
    1175 => [53,54,110,176],
    1176 => [54,110],
    1183 => [105],
    1186 => [79],
    1188 => [79],
    1189 => [79],
    1191 => [164],
    1192 => [106,163,167],
    1193 => [75],
    1197 => [168],
    1202 => [91],
    1203 => [96],
    1205 => [12,138],
    1206 => [13],
    1207 => [107,109,118],
    1208 => [26],
    1209 => [5],
    1210 => [59],
    1234 => [41],
    1237 => [129],
    1246 => [96],
    1249 => [99],
    1252 => [12,143],
    1253 => [12],
    1254 => [12],
    1255 => [13,157,174],
    1256 => [13],
    1257 => [13],
    1261 => [531],
    1262 => [26],
    1265 => [5],
    1267 => [118],
    1270 => [73],
    1273 => [142,173],
    1276 => [122],
    1281 => [129],
    1282 => [169],
    1285 => [95,132,156,171],
    1303 => [60,154],
    1306 => [141],
    1309 => [80,164,525],
    1315 => [86],
    1318 => [58,78,88],
    1321 => [136],
    1324 => [111],
    1328 => [118],
    1330 => [53,110,165],
    1333 => [113],
    1336 => [155],
    1341 => [138],
    1345 => [134,166],
    1354 => [121],
    1357 => [126,128,185],
    1363 => [94,178],
    1366 => [66,82,83,163],
    1369 => [107],
    1372 => [97,139],
    1375 => [176],
    1379 => [106],
    1381 => [64,151],
    1384 => [79,160,175],
    1385 => [79],
    1387 => [84],
    1390 => [68],
    1393 => [140],
    1399 => [130,135],
    1402 => [184],
    1412 => [5],
    1422 => [70,133,151,152],
    1425 => [60,90,147],
    1428 => [100,120,157],
    1434 => [111,181],
    1437 => [81,116,146],
    1443 => [177],
    1446 => [178],
    1449 => [104],
    1455 => [139],
    1458 => [132,179],
    1464 => [85,89],
    1467 => [64,113,161,183],
    1470 => [53,55,98],
    1473 => [108,166],
    1476 => [112],
    1487 => [129],
    1493 => [56,68,72,182],
    1501 => [66,99],
    1505 => [82,87],
    1508 => [12],
    1509 => [140,173,175],
    1512 => [13],
    1513 => [165,176],
    1529 => [150],
    1534 => [525],
    1539 => [105,146],
    1543 => [100,159],
    1548 => [70,81,145],
    1550 => [90],
    1556 => [75],
    1558 => [59,115,147],
    1564 => [77],
    1566 => [104],
    1570 => [120],
    1572 => [91,150],
    1576 => [89,92,112,116,177],
    1580 => [55,61,85,109],
    1582 => [87],
    1584 => [76],
    1588 => [162],
    1590 => [525,533],
    1591 => [525],
    1623 => [529],
    1648 => [26],
    1649 => [5],
    1651 => [106],
    1661 => [41],
    1688 => [121],
    1691 => [185],
    1693 => [41],
    1697 => [87,170],
    1700 => [144,169],
    1706 => [171],
    1711 => [152],
    1721 => [100,163],
    1723 => [104,115,183],
    1725 => [116,133],
    1730 => [98],
    1731 => [103],
    1732 => [56,149,155],
    1733 => [107,158],
    1735 => [166],
    1736 => [41,529],
    1737 => [54,74],
  }
end

 